# This file uses meters as units for non-parametric coordinates.

mtllib Mace.mtl
g default
v 5.806434 -48.317830 -2.593967
v 3.352347 -48.317830 -4.492882
v 0.000000 -48.317830 -5.187935
v -3.352347 -48.317830 -4.492882
v -5.806434 -48.317830 -2.593967
v -6.704694 -48.317830 0.000000
v -5.806434 -48.317830 2.593967
v -3.352347 -48.317830 4.492882
v 0.000000 -48.317830 5.187935
v 3.352347 -48.317830 4.492882
v 5.806434 -48.317830 2.593967
v 6.704694 -48.317830 0.000000
v 3.828124 41.855187 -2.210168
v 2.210168 41.855187 -3.828124
v 0.000000 41.855187 -4.420337
v -2.210168 41.855187 -3.828124
v -3.828124 41.855187 -2.210168
v -4.420337 41.855187 0.000000
v -3.828124 41.855187 2.210168
v -2.210168 41.855187 3.828124
v 0.000000 41.855187 4.420337
v 2.210168 41.855187 3.828124
v 3.828124 41.855187 2.210168
v 4.420337 41.855187 0.000000
v 3.828124 140.636499 -2.210168
v 2.210168 140.636499 -3.828124
v 0.000000 140.636499 -4.420337
v -2.210168 140.636499 -3.828124
v -3.828124 140.636499 -2.210168
v -4.420337 140.636499 0.000000
v -3.828124 140.636499 2.210168
v -2.210168 140.636499 3.828124
v 0.000000 140.636499 4.420337
v 2.210168 140.636499 3.828124
v 3.828124 140.636499 2.210168
v 4.420337 140.636499 0.000000
v 0.000000 -56.926112 0.000000
v 0.000000 140.636499 0.000000
v 6.052406 -56.627184 -2.593967
v 5.850066 -56.926112 -2.436765
v 3.395327 -56.926112 -4.257772
v 3.494405 -56.629944 -4.492882
v 0.000000 -56.631104 -5.187935
v 0.000000 -56.926112 -4.933700
v -3.395745 -56.926112 -4.258722
v -3.494405 -56.629944 -4.492882
v -6.052406 -56.627184 -2.593967
v -5.848791 -56.926112 -2.435813
v -6.728593 -56.926112 0.000000
v -6.988660 -56.625543 0.000000
v -6.052406 -56.627184 2.593967
v -5.850066 -56.926112 2.436765
v -3.395327 -56.926112 4.257772
v -3.494405 -56.629944 4.492882
v 0.000000 -56.631104 5.187935
v -0.000000 -56.926112 4.933700
v 3.395745 -56.926112 4.258722
v 3.494405 -56.629944 4.492882
v 6.052406 -56.627184 2.593967
v 5.848791 -56.926112 2.435813
v 6.728593 -56.926112 0.000000
v 6.988660 -56.625543 0.000000
v 2.511396 41.855187 -4.349865
v 2.640476 41.560182 -4.573437
v 4.349865 41.855187 -2.511396
v 4.573437 41.560182 -2.640476
v 3.986603 -48.013411 -5.356896
v 3.894807 -48.317830 -5.128229
v 6.711137 -48.317830 -2.936856
v 6.904358 -48.007330 -3.092682
v 0.000000 41.855187 -5.022792
v 0.000000 41.560182 -5.280952
v 0.000000 -48.015966 -6.185711
v 0.000000 -48.317830 -5.937115
v -2.511396 41.855187 -4.349865
v -2.640476 41.560182 -4.573437
v -3.986603 -48.013411 -5.356896
v -3.893622 -48.317830 -5.125657
v -4.349865 41.855187 -2.511396
v -4.573437 41.560182 -2.640476
v -6.904358 -48.007330 -3.092682
v -6.711137 -48.317830 -2.936856
v -5.022792 41.855187 0.000000
v -5.280952 41.560182 0.000000
v -7.972024 -48.003666 0.000000
v -7.726464 -48.317830 0.000000
v -4.349865 41.855187 2.511396
v -4.573437 41.560182 2.640476
v -6.904358 -48.007330 3.092682
v -6.714495 -48.317830 2.939270
v -2.511396 41.855187 4.349865
v -2.640476 41.560182 4.573437
v -3.986603 -48.013411 5.356896
v -3.894807 -48.317830 5.128229
v 0.000000 41.855187 5.022792
v 0.000000 41.560182 5.280952
v 0.000000 -48.015966 6.185711
v 0.000000 -48.317830 5.937115
v 2.511396 41.855187 4.349865
v 2.640476 41.560182 4.573437
v 3.986603 -48.013411 5.356896
v 3.893622 -48.317830 5.125657
v 4.349865 41.855187 2.511396
v 4.573437 41.560182 2.640476
v 6.904358 -48.007330 3.092682
v 6.711137 -48.317830 2.936856
v 5.022792 41.855187 0.000000
v 5.280952 41.560182 0.000000
v 7.972024 -48.003666 0.000000
v 7.726464 -48.317830 0.000000
v 2.640476 -14.632829 -4.573437
v 2.808608 -25.765577 -4.671292
v 3.312715 -36.880374 -4.964688
v 0.000000 -14.643037 -5.280952
v 0.000000 -25.771577 -5.394052
v 0.000000 -36.894159 -5.733287
v -2.640476 -14.636939 -4.573437
v -2.808546 -25.765595 -4.671255
v -3.312468 -36.876292 -4.964542
v -4.573437 -14.626697 -2.640476
v -4.863755 -25.753944 -2.696797
v -5.733565 -36.840082 -2.865544
v -5.280952 -14.619759 0.000000
v -5.615799 -25.748281 0.000000
v -6.618642 -36.824325 0.000000
v -4.573437 -14.619909 2.640476
v -4.863931 -25.753944 2.696833
v -5.734271 -36.846816 2.865681
v -2.640476 -14.632829 4.573437
v -2.808608 -25.765577 4.671292
v -3.312715 -36.880374 4.964688
v 0.000000 -14.643037 5.280952
v 0.000000 -25.771577 5.394052
v 0.000000 -36.894159 5.733287
v 2.640476 -14.636939 4.573437
v 2.808546 -25.765595 4.671255
v 3.312468 -36.876292 4.964542
v 4.573437 -14.626697 2.640476
v 4.863755 -25.753944 2.696797
v 5.733565 -36.840082 2.865544
v 5.280952 -14.619759 0.000000
v 5.615799 -25.748281 0.000000
v 6.618642 -36.824325 0.000000
v 4.573437 -14.619909 -2.640476
v 4.863931 -25.753944 -2.696833
v 5.734271 -36.846816 -2.865681
v 3.828124 101.573411 -2.210168
v 2.210168 101.573411 -3.828124
v 0.000000 101.573411 -4.420337
v -2.210168 101.573411 -3.828124
v -3.828124 101.573411 -2.210168
v -4.420337 101.573411 0.000000
v -3.828124 101.573411 2.210168
v -2.210168 101.573411 3.828124
v 0.000000 101.573411 4.420337
v 2.210168 101.573411 3.828124
v 3.828124 101.573411 2.210168
v 4.420337 101.573411 0.000000
v 2.210168 140.007189 -3.828124
v 3.828124 140.007189 -2.210168
v 0.000000 140.007189 -4.420337
v -2.210168 140.007189 -3.828124
v -3.828124 140.007189 -2.210168
v -4.420337 140.007189 0.000000
v -3.828124 140.007189 2.210168
v -2.210168 140.007189 3.828124
v 0.000000 140.007189 4.420337
v 2.210168 140.007189 3.828124
v 3.828124 140.007189 2.210168
v 4.420337 140.007189 0.000000
vt 0.648715 0.602399
vt 0.853289 0.257693
vt 0.848946 0.257701
vt 0.844603 0.257708
vt 0.840259 0.257716
vt 0.835916 0.257723
vt 0.831573 0.257731
vt 0.827230 0.257738
vt 0.822886 0.257746
vt 0.818543 0.257753
vt 0.814200 0.257761
vt 0.809857 0.257769
vt 0.805514 0.257776
vt 0.104056 0.746858
vt 0.098995 0.747462
vt 0.109258 0.746581
vt 0.114514 0.746459
vt 0.119791 0.746420
vt 0.125075 0.746437
vt 0.130358 0.746502
vt 0.135634 0.746623
vt 0.140886 0.746824
vt 0.146080 0.747174
vt 0.151134 0.747824
vt 0.155742 0.749347
vt 0.347263 0.934833
vt 0.466988 0.909136
vt 0.460869 0.904850
vt 0.354015 0.936629
vt 0.341463 0.932671
vt 0.421503 0.934409
vt 0.452528 0.903425
vt 0.361589 0.938258
vt 0.444276 0.905300
vt 0.369185 0.939349
vt 0.438404 0.909918
vt 0.375936 0.939999
vt 0.436417 0.915928
vt 0.381736 0.940255
vt 0.438725 0.921823
vt 0.387537 0.940359
vt 0.444845 0.926109
vt 0.394289 0.940139
vt 0.453185 0.927534
vt 0.401878 0.939553
vt 0.461437 0.925658
vt 0.409446 0.938427
vt 0.467309 0.921041
vt 0.416183 0.937062
vt 0.103959 0.745119
vt 0.103889 0.744075
vt 0.109211 0.743778
vt 0.109238 0.744834
vt 0.098728 0.745753
vt 0.098570 0.744742
vt 0.093619 0.747303
vt 0.156896 0.746676
vt 0.101721 0.515000
vt 0.101769 0.513946
vt 0.108951 0.514342
vt 0.108900 0.515424
vt 0.095092 0.514110
vt 0.095226 0.513093
vt 0.089140 0.512005
vt 0.165838 0.511240
vt 0.114521 0.743649
vt 0.114528 0.744711
vt 0.116052 0.514472
vt 0.115979 0.515542
vt 0.119825 0.743609
vt 0.119822 0.744672
vt 0.122300 0.514617
vt 0.122232 0.515676
vt 0.125125 0.743626
vt 0.125116 0.744690
vt 0.127658 0.514637
vt 0.127648 0.515653
vt 0.130426 0.743692
vt 0.130410 0.744756
vt 0.133017 0.514664
vt 0.133063 0.515716
vt 0.135727 0.743815
vt 0.135701 0.744877
vt 0.139268 0.514567
vt 0.139318 0.515631
vt 0.141031 0.744027
vt 0.140985 0.745084
vt 0.146371 0.514488
vt 0.146398 0.515570
vt 0.146338 0.744404
vt 0.146249 0.745450
vt 0.153559 0.514141
vt 0.153586 0.515202
vt 0.151642 0.745135
vt 0.151460 0.746150
vt 0.160119 0.513341
vt 0.160232 0.514359
vt 0.102394 0.511669
vt 0.096172 0.510632
vt 0.109055 0.512167
vt 0.115703 0.512153
vt 0.121907 0.511985
vt 0.127689 0.511670
vt 0.133465 0.512024
vt 0.139667 0.512242
vt 0.146312 0.512312
vt 0.152982 0.511868
vt 0.159224 0.510874
vt 0.090917 0.508300
vt 0.452857 0.915479
vt 0.104441 0.600651
vt 0.098919 0.600849
vt 0.109987 0.600486
vt 0.115559 0.600401
vt 0.121146 0.600364
vt 0.126741 0.600375
vt 0.132336 0.600425
vt 0.137922 0.600498
vt 0.143493 0.600618
vt 0.149040 0.600818
vt 0.154556 0.601069
vt 0.093482 0.601061
vt 0.108511 0.543652
vt 0.101776 0.543467
vt 0.115179 0.543798
vt 0.121453 0.543840
vt 0.127352 0.543879
vt 0.133251 0.543870
vt 0.139525 0.543884
vt 0.146196 0.543801
vt 0.152934 0.543678
vt 0.159353 0.543498
vt 0.165403 0.543480
vt 0.095360 0.543232
vt 0.103403 0.572088
vt 0.109350 0.571993
vt 0.115323 0.571960
vt 0.121229 0.571920
vt 0.127053 0.571938
vt 0.132877 0.571967
vt 0.138783 0.572055
vt 0.144756 0.572137
vt 0.150701 0.572282
vt 0.156493 0.572490
vt 0.091995 0.572632
vt 0.097609 0.572248
vt 0.693619 0.665667
vt 0.643830 0.665675
vt 0.689093 0.665668
vt 0.684567 0.665669
vt 0.680040 0.665669
vt 0.675514 0.665670
vt 0.670988 0.665671
vt 0.666462 0.665671
vt 0.661935 0.665672
vt 0.657409 0.665673
vt 0.652883 0.665673
vt 0.648357 0.665674
vt 0.338455 0.951415
vt 0.344674 0.953203
vt 0.418907 0.955591
vt 0.411761 0.956946
vt 0.403786 0.957992
vt 0.395748 0.958787
vt 0.388383 0.959095
vt 0.381808 0.959091
vt 0.375229 0.958680
vt 0.367855 0.957897
vt 0.359813 0.956580
vt 0.351827 0.955015
vt 0.166226 0.512294
vt 0.089312 0.543189
vt 0.160027 0.601367
vt 0.093236 0.746241
vt 0.162100 0.572916
vt 0.425116 0.954189
vt 0.164526 0.508577
vt 0.089551 0.510954
vt 0.156491 0.747744
vt 0.639304 0.665675
vt 0.094332 0.748949
vt 0.421963 0.935260
vt 0.415978 0.936148
vt 0.341916 0.931849
vt 0.469296 0.915031
vt 0.409317 0.937503
vt 0.401777 0.938615
vt 0.394208 0.939200
vt 0.387486 0.939423
vt 0.381733 0.939310
vt 0.375981 0.939064
vt 0.369260 0.938424
vt 0.361686 0.937326
vt 0.354139 0.935705
vt 0.347459 0.933935
vt 0.639336 0.607761
vt 0.857632 0.257686
vt 0.637911 0.602353
vt 0.643273 0.611732
vt 0.648669 0.613203
vt 0.654078 0.611778
vt 0.658049 0.607841
vt 0.659519 0.602445
vt 0.658095 0.597036
vt 0.654157 0.593065
vt 0.648761 0.591595
vt 0.643353 0.593019
vt 0.639382 0.596957
vt 0.643839 0.818125
vt 0.648365 0.818124
vt 0.652892 0.818124
vt 0.657418 0.818123
vt 0.661944 0.818122
vt 0.666471 0.818122
vt 0.670997 0.818121
vt 0.675523 0.818120
vt 0.680050 0.818120
vt 0.684576 0.818119
vt 0.689102 0.818118
vt 0.693629 0.818118
vt 0.639313 0.818125
vt 0.848950 0.259375
vt 0.853294 0.259367
vt 0.844607 0.259382
vt 0.840264 0.259390
vt 0.835921 0.259397
vt 0.831578 0.259405
vt 0.827234 0.259413
vt 0.822891 0.259420
vt 0.818548 0.259428
vt 0.814205 0.259435
vt 0.809861 0.259443
vt 0.805518 0.259450
vt 0.857637 0.259360
vn 0.000000 1.000000 0.000000
vn 0.000000 1.000000 -0.000002
vn 0.000000 1.000000 -0.000003
vn 0.000000 1.000000 -0.000005
vn 0.000000 1.000000 -0.000007
vn 0.000000 1.000000 -0.000003
vn 0.000000 1.000000 0.000000
vn 0.000000 1.000000 0.000002
vn 0.000000 1.000000 0.000003
vn 0.000000 1.000000 0.000005
vn 0.000000 1.000000 0.000007
vn 0.000000 1.000000 0.000003
vn 0.000000 1.000000 0.000000
vn 0.500000 0.000000 -0.866025
vn 0.500000 0.000000 -0.866025
vn 0.866025 0.000000 -0.500000
vn 0.866025 0.000000 -0.500000
vn 0.000000 0.000000 -1.000000
vn 0.000000 0.000000 -1.000000
vn -0.500000 0.000000 -0.866025
vn -0.500000 0.000000 -0.866025
vn -0.866025 0.000000 -0.500000
vn -0.866025 0.000000 -0.500000
vn -1.000000 0.000000 0.000000
vn -1.000000 0.000000 0.000000
vn -0.866025 0.000000 0.500000
vn -0.866025 0.000000 0.500000
vn -0.500000 0.000000 0.866025
vn -0.500000 0.000000 0.866025
vn 0.000000 0.000000 1.000000
vn 0.000000 0.000000 1.000000
vn 0.500000 0.000000 0.866025
vn 0.500000 0.000000 0.866025
vn 0.866025 0.000000 0.500000
vn 0.866025 0.000000 0.500000
vn 1.000000 0.000000 0.000000
vn 1.000000 0.000000 0.000000
vn 0.866025 0.000000 -0.500000
vn 0.500003 0.000000 -0.866023
vn 0.500003 0.000000 -0.866023
vn 0.866025 0.000000 -0.500000
vn 0.000000 0.000000 -1.000000
vn 0.000000 0.000000 -1.000000
vn -0.500003 0.000000 -0.866023
vn -0.500003 0.000000 -0.866023
vn -0.866025 0.000000 -0.500000
vn -0.866025 0.000000 -0.500000
vn -1.000000 0.000000 0.000000
vn -1.000000 0.000000 0.000000
vn -0.866025 0.000000 0.500000
vn -0.866025 0.000000 0.500000
vn -0.500003 0.000000 0.866023
vn -0.500003 0.000000 0.866023
vn 0.000000 0.000000 1.000000
vn 0.000000 0.000000 1.000000
vn 0.500003 0.000000 0.866023
vn 0.500003 0.000000 0.866023
vn 0.866025 0.000000 0.500000
vn 0.866025 0.000000 0.500000
vn 1.000000 0.000000 0.000000
vn 1.000000 0.000000 0.000000
vn 0.797318 -0.003820 -0.603548
vn 0.051942 -0.997841 -0.040202
vn 0.027308 -0.997616 -0.063375
vn 0.402688 -0.019196 -0.915136
vn 0.999983 0.005904 0.000004
vn 0.064272 -0.997932 0.000009
vn 0.000006 -0.997471 -0.071078
vn 0.000002 -0.025477 -0.999675
vn -0.027324 -0.997615 -0.063389
vn -0.402691 -0.019185 -0.915135
vn -0.051916 -0.997843 -0.040173
vn -0.797319 -0.003858 -0.603545
vn -0.064272 -0.997932 -0.000009
vn -0.999983 0.005904 -0.000004
vn -0.051942 -0.997841 0.040202
vn -0.797318 -0.003820 0.603548
vn -0.027308 -0.997616 0.063375
vn -0.402688 -0.019196 0.915136
vn -0.000006 -0.997471 0.071078
vn -0.000002 -0.025477 0.999675
vn 0.027324 -0.997615 0.063389
vn 0.402691 -0.019185 0.915135
vn 0.051916 -0.997843 0.040173
vn 0.797319 -0.003858 0.603545
vn 0.201672 0.915048 -0.349306
vn 0.499973 0.003930 -0.866032
vn -0.000005 0.003929 -0.999992
vn 0.000000 0.915048 -0.403344
vn 0.349306 0.915049 -0.201671
vn 0.866011 0.003931 -0.500010
vn 0.403344 0.915049 0.000000
vn 0.999992 0.003931 0.000008
vn 0.431807 0.037516 -0.901186
vn 0.144582 -0.937241 -0.317292
vn -0.000069 -0.934682 -0.355484
vn -0.000023 0.021877 -0.999761
vn 0.819227 0.073181 -0.568781
vn 0.270892 -0.942015 -0.198053
vn 0.995589 0.093824 0.000043
vn 0.330066 -0.943958 -0.000000
vn -0.499980 0.003930 -0.866028
vn -0.201672 0.915048 -0.349306
vn -0.144497 -0.937308 -0.317135
vn -0.431846 0.037423 -0.901171
vn -0.866008 0.003930 -0.500014
vn -0.349306 0.915049 -0.201672
vn -0.270825 -0.942025 -0.198096
vn -0.819220 0.073125 -0.568798
vn -0.999992 0.003931 -0.000008
vn -0.403343 0.915049 -0.000000
vn -0.330051 -0.943963 -0.000117
vn -0.995581 0.093903 -0.000050
vn -0.866011 0.003931 0.500010
vn -0.349306 0.915049 0.201672
vn -0.271122 -0.941919 0.198193
vn -0.819218 0.073315 0.568777
vn -0.499973 0.003930 0.866032
vn -0.201672 0.915048 0.349306
vn -0.144471 -0.937255 0.317302
vn -0.431800 0.037594 0.901186
vn 0.000005 0.003929 0.999992
vn -0.000000 0.915048 0.403344
vn 0.000069 -0.934682 0.355484
vn 0.000023 0.021877 0.999761
vn 0.499980 0.003930 0.866028
vn 0.201672 0.915048 0.349306
vn 0.144497 -0.937308 0.317135
vn 0.431846 0.037423 0.901171
vn 0.866008 0.003930 0.500014
vn 0.349306 0.915049 0.201672
vn 0.270825 -0.942025 0.198096
vn 0.819220 0.073125 0.568798
vn 0.398393 0.007694 -0.917183
vn 0.792947 0.022382 -0.608879
vn 0.000000 0.001735 -0.999998
vn -0.398392 0.007694 -0.917183
vn -0.792947 0.022382 -0.608879
vn -0.999492 0.031875 0.000000
vn -0.792947 0.022382 0.608879
vn -0.398393 0.007694 0.917183
vn -0.000000 0.001735 0.999998
vn 0.398392 0.007694 0.917183
vn 0.792947 0.022382 0.608879
vn 0.999492 0.031875 -0.000000
vn 0.000000 -1.000000 0.000000
vn 0.000000 1.000000 -0.000002
vn 0.000000 1.000000 -0.000002
vn 0.000000 -1.000000 0.000001
vn 0.000000 -1.000000 0.000000
vn 0.000000 1.000000 -0.000001
vn 0.000000 -1.000000 -0.000000
vn 0.000000 1.000000 -0.000002
vn 0.000000 -1.000000 -0.000001
vn 0.000000 1.000000 -0.000001
vn 0.000000 -1.000000 -0.000001
vn 0.000000 1.000000 0.000000
vn 0.000000 -1.000000 0.000001
vn 0.000000 1.000000 0.000002
vn 0.000000 -1.000000 -0.000001
vn 0.000000 1.000000 0.000002
vn 0.000000 -1.000000 -0.000000
vn 0.000000 1.000000 0.000001
vn 0.000000 -1.000000 0.000000
vn 0.000000 1.000000 0.000002
vn 0.000000 -1.000000 0.000001
vn 0.000000 1.000000 0.000001
vn 0.000000 -1.000000 0.000001
vn 0.000000 1.000000 0.000000
vn 0.000000 -1.000000 -0.000001
vn 0.498078 0.002663 -0.867128
vn 0.864999 0.004092 -0.501757
vn -0.000073 0.001953 -0.999998
vn -0.498183 0.002662 -0.867068
vn -0.864960 0.004097 -0.501823
vn -0.999988 0.004819 -0.000124
vn -0.864999 0.004092 0.501757
vn -0.498077 0.002663 0.867128
vn 0.000073 0.001953 0.999998
vn 0.498183 0.002662 0.867068
vn 0.864960 0.004097 0.501823
vn 0.999988 0.004819 0.000124
vn -0.000006 0.039755 -0.999210
vn 0.442326 0.053411 -0.895263
vn -0.442340 0.053414 -0.895256
vn -0.825865 0.084222 -0.557543
vn -0.994801 0.101843 -0.000033
vn -0.825863 0.084228 0.557545
vn -0.442326 0.053411 0.895263
vn 0.000006 0.039755 0.999210
vn 0.442340 0.053414 0.895256
vn 0.825865 0.084222 0.557543
vn 0.994801 0.101843 0.000033
vn 0.825863 0.084228 -0.557545
vn 0.475912 0.031688 -0.878922
vn 0.000017 0.023411 -0.999726
vn -0.475897 0.031686 -0.878930
vn -0.850513 0.049216 -0.523646
vn -0.998286 0.058516 0.000012
vn -0.850505 0.049216 0.523660
vn -0.475912 0.031688 0.878922
vn -0.000017 0.023411 0.999726
vn 0.475897 0.031686 0.878930
vn 0.850513 0.049216 0.523646
vn 0.998286 0.058516 -0.000012
vn 0.850505 0.049216 -0.523660
s 1
g Handle1 Mace
usemtl initialShadingGroup
f 38/1/1 25/198/2 26/208/3 27/207/4
f 38/1/1 27/207/4 28/206/5 29/205/6
f 38/1/1 29/205/6 30/204/7 31/203/8
f 38/1/1 31/203/8 32/202/9 33/201/10
f 38/1/1 33/201/10 34/200/11 35/199/12
f 38/1/1 35/199/12 36/196/13 25/198/2
s 2
f 14/158/14 148/210/15 147/209/16 13/148/17
f 15/157/18 149/211/19 148/210/15 14/158/14
f 16/156/20 150/212/21 149/211/19 15/157/18
f 17/155/22 151/213/23 150/212/21 16/156/20
f 18/154/24 152/214/25 151/213/23 17/155/22
f 19/153/26 153/215/27 152/214/25 18/154/24
f 20/152/28 154/216/29 153/215/27 19/153/26
f 21/151/30 155/217/31 154/216/29 20/152/28
f 22/150/32 156/218/33 155/217/31 21/151/30
f 23/149/34 157/219/35 156/218/33 22/150/32
f 24/147/36 158/220/37 157/219/35 23/149/34
f 13/148/17 147/209/16 158/221/37 24/180/36
s 3
f 160/223/38 159/222/39 26/3/40 25/2/41
f 159/222/39 161/224/42 27/4/43 26/3/40
f 161/224/42 162/225/44 28/5/45 27/4/43
f 162/225/44 163/226/46 29/6/47 28/5/45
f 163/226/46 164/227/48 30/7/49 29/6/47
f 164/227/48 165/228/50 31/8/51 30/7/49
f 165/228/50 166/229/52 32/9/53 31/8/51
f 166/229/52 167/230/54 33/10/55 32/9/53
f 167/230/54 168/231/56 34/11/57 33/10/55
f 168/231/56 169/232/58 35/12/59 34/11/57
f 169/232/58 170/233/60 36/13/61 35/12/59
f 170/234/60 160/223/38 25/2/41 36/197/61
s 4
f 39/26/62 40/195/63 41/194/64 42/29/65
f 40/195/63 39/26/62 62/30/66 61/184/67
f 42/29/65 41/194/64 44/193/68 43/33/69
f 43/33/69 44/193/68 45/192/70 46/35/71
f 46/35/71 45/192/70 48/191/72 47/37/73
f 47/37/73 48/191/72 49/190/74 50/39/75
f 50/39/75 49/190/74 52/189/76 51/41/77
f 51/41/77 52/189/76 53/188/78 54/43/79
f 54/43/79 53/188/78 56/187/80 55/45/81
f 55/45/81 56/187/80 57/186/82 58/47/83
f 58/47/83 57/186/82 60/183/84 59/49/85
f 59/49/85 60/183/84 61/31/67 62/182/66
s 5
f 63/50/86 64/51/87 72/52/88 71/53/89
f 64/51/87 63/50/86 65/54/90 66/55/91
f 66/55/91 65/54/90 107/56/92 108/174/93
f 67/58/94 68/59/95 74/60/96 73/61/97
f 68/59/95 67/58/94 70/62/98 69/63/99
f 69/63/99 70/62/98 109/64/100 110/178/101
f 71/53/89 72/52/88 76/66/102 75/67/103
f 73/61/97 74/60/96 78/68/104 77/69/105
f 75/67/103 76/66/102 80/70/106 79/71/107
f 77/69/105 78/68/104 82/72/108 81/73/109
f 79/71/107 80/70/106 84/74/110 83/75/111
f 81/73/109 82/72/108 86/76/112 85/77/113
f 83/75/111 84/74/110 88/78/114 87/79/115
f 85/77/113 86/76/112 90/80/116 89/81/117
f 87/79/115 88/78/114 92/82/118 91/83/119
f 89/81/117 90/80/116 94/84/120 93/85/121
f 91/83/119 92/82/118 96/86/122 95/87/123
f 93/85/121 94/84/120 98/88/124 97/89/125
f 95/87/123 96/86/122 100/90/126 99/91/127
f 97/89/125 98/88/124 102/92/128 101/93/129
f 99/91/127 100/90/126 104/94/130 103/95/131
f 101/93/129 102/92/128 106/96/132 105/97/133
f 103/95/131 104/94/130 108/57/93 107/179/92
f 105/97/133 106/96/132 110/65/101 109/171/100
s 4
f 39/26/62 42/29/65 2/170/134 1/160/135
f 42/29/65 43/33/69 3/169/136 2/170/134
f 43/33/69 46/35/71 4/168/137 3/169/136
f 46/35/71 47/37/73 5/167/138 4/168/137
f 47/37/73 50/39/75 6/166/139 5/167/138
f 50/39/75 51/41/77 7/165/140 6/166/139
f 51/41/77 54/43/79 8/164/141 7/165/140
f 54/43/79 55/45/81 9/163/142 8/164/141
f 55/45/81 58/47/83 10/162/143 9/163/142
f 58/47/83 59/49/85 11/161/144 10/162/143
f 59/49/85 62/182/66 12/176/145 11/161/144
f 62/30/66 39/26/62 1/160/135 12/159/145
f 41/28/64 40/27/63 37/110/146 44/32/68
f 45/34/70 44/32/68 37/110/146 48/36/72
f 49/38/74 48/36/72 37/110/146 52/40/76
f 53/42/78 52/40/76 37/110/146 56/44/80
f 57/46/82 56/44/80 37/110/146 60/48/84
f 61/185/67 60/48/84 37/110/146 40/27/63
s 5
f 14/14/147 13/15/148 65/54/90 63/50/86
f 1/99/149 2/98/150 68/59/95 69/63/99
f 15/16/151 14/14/147 63/50/86 71/53/89
f 2/98/150 3/100/152 74/60/96 68/59/95
f 16/17/153 15/16/151 71/53/89 75/67/103
f 3/100/152 4/101/154 78/68/104 74/60/96
f 17/18/155 16/17/153 75/67/103 79/71/107
f 4/101/154 5/102/156 82/72/108 78/68/104
f 18/19/157 17/18/155 79/71/107 83/75/111
f 5/102/156 6/103/158 86/76/112 82/72/108
f 19/20/159 18/19/157 83/75/111 87/79/115
f 6/103/158 7/104/160 90/80/116 86/76/112
f 20/21/161 19/20/159 87/79/115 91/83/119
f 7/104/160 8/105/162 94/84/120 90/80/116
f 21/22/163 20/21/161 91/83/119 95/87/123
f 8/105/162 9/106/164 98/88/124 94/84/120
f 22/23/165 21/22/163 95/87/123 99/91/127
f 9/106/164 10/107/166 102/92/128 98/88/124
f 23/24/167 22/23/165 99/91/127 103/95/131
f 10/107/166 11/108/168 106/96/132 102/92/128
f 24/25/169 23/24/167 103/95/131 107/179/92
f 11/108/168 12/177/170 110/65/101 106/96/132
f 13/15/148 24/181/169 107/56/92 65/54/90
f 12/109/170 1/99/149 69/63/99 110/178/101
f 111/111/171 64/51/87 66/55/91 144/112/172
f 72/52/88 64/51/87 111/111/171 114/113/173
f 76/66/102 72/52/88 114/113/173 117/114/174
f 80/70/106 76/66/102 117/114/174 120/115/175
f 84/74/110 80/70/106 120/115/175 123/116/176
f 88/78/114 84/74/110 123/116/176 126/117/177
f 92/82/118 88/78/114 126/117/177 129/118/178
f 96/86/122 92/82/118 129/118/178 132/119/179
f 100/90/126 96/86/122 132/119/179 135/120/180
f 104/94/130 100/90/126 135/120/180 138/121/181
f 108/57/93 104/94/130 138/121/181 141/173/182
f 66/55/91 108/174/93 141/122/182 144/112/172
f 73/61/97 116/123/183 113/124/184 67/58/94
f 77/69/105 119/125/185 116/123/183 73/61/97
f 81/73/109 122/126/186 119/125/185 77/69/105
f 85/77/113 125/127/187 122/126/186 81/73/109
f 89/81/117 128/128/188 125/127/187 85/77/113
f 93/85/121 131/129/189 128/128/188 89/81/117
f 97/89/125 134/130/190 131/129/189 93/85/121
f 101/93/129 137/131/191 134/130/190 97/89/125
f 105/97/133 140/132/192 137/131/191 101/93/129
f 109/171/100 143/133/193 140/132/192 105/97/133
f 70/62/98 146/134/194 143/172/193 109/64/100
f 67/58/94 113/124/184 146/134/194 70/62/98
f 111/111/171 112/135/195 115/136/196 114/113/173
f 112/135/195 113/124/184 116/123/183 115/136/196
f 114/113/173 115/136/196 118/137/197 117/114/174
f 115/136/196 116/123/183 119/125/185 118/137/197
f 117/114/174 118/137/197 121/138/198 120/115/175
f 118/137/197 119/125/185 122/126/186 121/138/198
f 120/115/175 121/138/198 124/139/199 123/116/176
f 121/138/198 122/126/186 125/127/187 124/139/199
f 123/116/176 124/139/199 127/140/200 126/117/177
f 124/139/199 125/127/187 128/128/188 127/140/200
f 126/117/177 127/140/200 130/141/201 129/118/178
f 127/140/200 128/128/188 131/129/189 130/141/201
f 129/118/178 130/141/201 133/142/202 132/119/179
f 130/141/201 131/129/189 134/130/190 133/142/202
f 132/119/179 133/142/202 136/143/203 135/120/180
f 133/142/202 134/130/190 137/131/191 136/143/203
f 135/120/180 136/143/203 139/144/204 138/121/181
f 136/143/203 137/131/191 140/132/192 139/144/204
f 138/121/181 139/144/204 142/175/205 141/173/182
f 139/144/204 140/132/192 143/133/193 142/175/205
f 141/122/182 142/145/205 145/146/206 144/112/172
f 142/145/205 143/172/193 146/134/194 145/146/206
f 113/124/184 112/135/195 145/146/206 146/134/194
f 112/135/195 111/111/171 144/112/172 145/146/206
g default
v 3.828124 101.573411 -2.210168
v 3.828124 140.007189 -2.210168
v 2.210168 101.573411 -3.828124
v 2.210168 140.007189 -3.828124
v 0.000000 101.573411 -4.420337
v 0.000000 140.007189 -4.420337
v -2.210168 101.573411 -3.828124
v -2.210168 140.007189 -3.828124
v -3.828124 101.573411 -2.210168
v -3.828124 140.007189 -2.210168
v -4.420337 101.573411 0.000000
v -4.420337 140.007189 0.000000
v -3.828124 101.573411 2.210168
v -3.828124 140.007189 2.210168
v -2.210168 101.573411 3.828124
v -2.210168 140.007189 3.828124
v 0.000000 101.573411 4.420337
v 0.000000 140.007189 4.420337
v 2.210168 101.573411 3.828124
v 2.210168 140.007189 3.828124
v 3.828124 101.573411 2.210168
v 3.828124 140.007189 2.210168
v 4.420337 101.573411 0.000000
v 4.420337 140.007189 0.000000
v 4.389398 140.052230 -2.534221
v 4.784146 139.863987 -2.762128
v 4.950559 139.355516 -2.858208
v 5.716415 139.355516 0.000000
v 5.524256 139.863987 0.000000
v 5.068442 140.052230 0.000000
v 4.950559 102.281632 -2.858208
v 4.789902 101.773245 -2.765452
v 4.403096 101.566161 -2.542130
v 5.084259 101.566161 0.000000
v 5.530904 101.773245 0.000000
v 5.716415 102.281632 0.000000
v 2.858208 102.281632 -4.950559
v 2.765452 101.773245 -4.789902
v 2.542130 101.566161 -4.403096
v 2.534221 140.052230 -4.389398
v 2.762128 139.863987 -4.784146
v 2.858208 139.355516 -4.950559
v 0.000000 102.281632 -5.716415
v 0.000000 101.773245 -5.530904
v 0.000000 101.566161 -5.084259
v 0.000000 140.052230 -5.068442
v 0.000000 139.863987 -5.524256
v 0.000000 139.355516 -5.716415
v -2.858208 102.281632 -4.950559
v -2.765452 101.773245 -4.789902
v -2.542130 101.566161 -4.403096
v -2.534221 140.052230 -4.389398
v -2.762128 139.863987 -4.784146
v -2.858208 139.355516 -4.950559
v -4.950559 102.281632 -2.858208
v -4.789902 101.773245 -2.765452
v -4.403096 101.566161 -2.542130
v -4.389398 140.052230 -2.534221
v -4.784146 139.863987 -2.762128
v -4.950559 139.355516 -2.858208
v -5.716415 102.281632 0.000000
v -5.530904 101.773245 0.000000
v -5.084259 101.566161 0.000000
v -5.068442 140.052230 0.000000
v -5.524256 139.863987 0.000000
v -5.716415 139.355516 0.000000
v -4.950559 102.281632 2.858208
v -4.789902 101.773245 2.765452
v -4.403096 101.566161 2.542130
v -4.389398 140.052230 2.534221
v -4.784146 139.863987 2.762128
v -4.950559 139.355516 2.858208
v -2.858208 102.281632 4.950559
v -2.765452 101.773245 4.789902
v -2.542130 101.566161 4.403096
v -2.534221 140.052230 4.389398
v -2.762128 139.863987 4.784146
v -2.858208 139.355516 4.950559
v 0.000000 102.281632 5.716415
v 0.000000 101.773245 5.530904
v 0.000000 101.566161 5.084259
v 0.000000 140.052230 5.068442
v 0.000000 139.863987 5.524256
v 0.000000 139.355516 5.716415
v 2.858208 102.281632 4.950559
v 2.765452 101.773245 4.789902
v 2.542130 101.566161 4.403096
v 2.534221 140.052230 4.389398
v 2.762128 139.863987 4.784146
v 2.858208 139.355516 4.950559
v 4.950559 102.281632 2.858208
v 4.789902 101.773245 2.765452
v 4.403096 101.566161 2.542130
v 4.389398 140.052230 2.534221
v 4.784146 139.863987 2.762128
v 4.950559 139.355516 2.858208
v 4.950559 104.475167 -2.858208
v 5.716415 104.475179 0.000000
v 4.950559 104.475167 2.858208
v 2.858208 104.475167 4.950559
v 0.000000 104.475167 5.716415
v -2.858208 104.475167 4.950559
v -4.950559 104.475167 2.858207
v -5.716415 104.475167 0.000000
v -4.950559 104.475167 -2.858208
v -2.858208 104.475167 -4.950559
v 0.000000 104.475167 -5.716415
v 2.858208 104.475167 -4.950559
v 4.950559 137.161945 -2.858208
v 5.716415 137.161957 0.000000
v 4.950559 137.161945 2.858208
v 2.858208 137.161945 4.950559
v 0.000000 137.161945 5.716415
v -2.858208 137.161945 4.950559
v -4.950559 137.161945 2.858208
v -5.716415 137.161945 0.000000
v -4.950559 137.161945 -2.858208
v -2.858208 137.161945 -4.950559
v 0.000000 137.161945 -5.716415
v 2.858208 137.161945 -4.950559
v 22.015453 127.284004 4.755093
v 21.443484 127.284004 6.889714
v 21.443484 114.353132 6.889714
v 22.015453 114.353132 4.755093
v 6.889712 127.283979 21.443481
v 4.755094 127.283979 22.015453
v 4.755094 114.353132 22.015453
v 6.889712 114.353132 21.443481
v -15.125747 127.284004 16.688400
v -16.688396 127.284004 15.125750
v -16.688400 114.353132 15.125752
v -15.125747 114.353132 16.688400
v -22.015451 127.283979 -4.755089
v -21.443481 127.283979 -6.889709
v -21.443481 114.353132 -6.889709
v -22.015451 114.353132 -4.755089
v -6.889711 127.283979 -21.443481
v -4.755092 127.283979 -22.015453
v -4.755092 114.353132 -22.015453
v -6.889711 114.353132 -21.443481
v 15.125750 127.284004 -16.688400
v 16.688400 127.284004 -15.125750
v 16.688400 114.353132 -15.125750
v 15.125750 114.353132 -16.688400
v 21.346834 114.353132 7.250410
v 21.346831 127.284004 7.250410
v 23.511004 112.324959 7.830300
v 23.511004 129.312212 7.830309
v 22.112103 127.284004 4.394399
v 22.112103 114.353132 4.394399
v 24.276268 129.312212 4.974299
v 24.276263 112.324959 4.974291
v 6.093679 137.566916 -0.680815
v 4.936862 137.566867 3.636440
v 7.342902 140.132224 4.727295
v 8.722773 140.132236 -0.422447
v 6.196807 103.933907 -0.692337
v 5.020415 103.933907 3.697982
v 8.443836 101.504960 -0.408962
v 7.108102 101.504912 4.576100
v 4.394399 114.353132 22.112101
v 4.394399 127.283979 22.112101
v 4.974287 112.324935 24.276281
v 4.974287 129.312212 24.276263
v 7.250409 114.353132 21.346834
v 7.250409 127.283979 21.346834
v 7.830298 129.312212 23.511012
v 7.830298 112.324935 23.511012
v 3.636441 137.566867 4.936865
v -0.680817 137.566867 6.093675
v -0.422473 140.132236 8.722784
v 4.727266 140.132224 7.342912
v 3.697984 103.933883 5.020420
v -0.692339 103.933907 6.196801
v 4.576093 101.504936 7.108098
v -0.408967 101.504912 8.443841
v -16.952447 114.353132 14.861704
v -16.952443 127.284004 14.861703
v -18.536728 112.324959 16.445990
v -18.536728 129.312212 16.445989
v -14.861699 114.353132 16.952448
v -14.861699 127.284004 16.952448
v -16.445995 129.312212 18.536732
v -16.445986 112.324959 18.536732
v -2.457231 137.566867 5.617680
v -5.617679 137.566867 2.457232
v -7.765380 140.132224 3.995501
v -3.995510 140.132188 7.765364
v -2.498813 103.933907 5.712749
v -5.712754 103.933883 2.498819
v -3.867744 101.504936 7.517065
v -7.517059 101.504912 3.867750
v -21.346834 114.353132 -7.250403
v -21.346834 127.283979 -7.250403
v -23.511004 112.324935 -7.830293
v -23.511009 129.312212 -7.830295
v -22.112101 114.353132 -4.394394
v -22.112101 127.283979 -4.394393
v -24.276263 129.312212 -4.974285
v -24.276263 112.324935 -4.974285
v -6.093677 137.566903 0.680816
v -4.936867 137.566867 -3.636442
v -7.342904 140.132224 -4.727270
v -8.722776 140.132224 0.422469
v -6.196802 103.933907 0.692338
v -5.020415 103.933907 -3.697983
v -8.443832 101.504936 0.408962
v -7.108098 101.504912 -4.576100
v -4.394396 114.353132 -22.112101
v -4.394396 127.283979 -22.112101
v -4.974285 112.324935 -24.276281
v -4.974285 129.312212 -24.276263
v -7.250407 114.353132 -21.346834
v -7.250407 127.283979 -21.346834
v -7.830297 129.312212 -23.511012
v -7.830297 112.324935 -23.511012
v -3.636441 137.566867 -4.936865
v 0.680816 137.566903 -6.093677
v 0.422476 140.132224 -8.722779
v -4.727265 140.132224 -7.342914
v -3.697984 103.933883 -5.020417
v 0.692338 103.933907 -6.196800
v -4.576094 101.504936 -7.108096
v 0.408966 101.504936 -8.443841
v 16.952447 114.353132 -14.861703
v 16.952447 127.284004 -14.861703
v 18.536732 112.324959 -16.445990
v 18.536732 129.312212 -16.445989
v 14.861700 114.353132 -16.952448
v 14.861700 127.284004 -16.952448
v 16.445995 129.312212 -18.536732
v 16.445989 112.324959 -18.536732
v 2.457231 137.566867 -5.617679
v 5.617677 137.566867 -2.457229
v 7.765388 140.132236 -3.995510
v 3.995511 140.132188 -7.765366
v 2.498812 103.933907 -5.712749
v 5.712751 103.933883 -2.498817
v 3.867743 101.504936 -7.517065
v 7.517057 101.504912 -3.867750
v 11.149422 131.350329 1.585030
v 10.969128 131.450570 1.062763
v 12.410365 133.493881 1.448963
v 11.472161 133.493869 4.950389
v 10.030914 131.450546 4.564188
v 10.448195 131.350317 4.202042
v 10.448195 110.286819 4.202042
v 10.030918 110.186577 4.564189
v 11.472169 108.143279 4.950374
v 12.410366 108.143303 1.448947
v 10.969129 110.186601 1.062763
v 11.149422 110.286819 1.585030
v 16.582438 128.693207 3.170062
v 16.540615 128.743334 2.728581
v 18.343317 130.583348 3.211631
v 17.491586 130.583348 6.390348
v 15.688873 128.743322 5.907298
v 15.945837 128.693195 5.545879
v 15.945840 112.943952 5.545879
v 15.688876 112.893814 5.907300
v 17.491587 111.053824 6.390337
v 18.343315 111.053824 3.211618
v 16.540615 112.893814 2.728581
v 16.582438 112.943952 3.170062
v 4.202041 131.350317 10.448193
v 4.564188 131.450534 10.030917
v 4.950371 133.493869 11.472169
v 1.448945 133.493869 12.410370
v 1.062763 131.450534 10.969126
v 1.585030 131.350317 11.149422
v 1.585030 110.286819 11.149422
v 1.062763 110.186577 10.969126
v 1.448943 108.143279 12.410374
v 4.950370 108.143279 11.472167
v 4.564189 110.186577 10.030921
v 4.202041 110.286819 10.448195
v 5.545877 128.693195 15.945837
v 5.907298 128.743286 15.688876
v 6.390334 130.583336 17.491589
v 3.211616 130.583348 18.343317
v 2.728581 128.743286 16.540611
v 3.170062 128.693195 16.582438
v 3.170062 112.943952 16.582438
v 2.728581 112.893814 16.540611
v 3.211615 111.053824 18.343325
v 6.390334 111.053824 17.491589
v 5.907300 112.893814 15.688877
v 5.545877 112.943952 15.945837
v -6.947383 131.350317 8.863169
v -6.404937 131.450546 8.968158
v -7.460005 133.493857 10.023216
v -10.023223 133.493869 7.459999
v -8.968156 131.450534 6.404938
v -8.863167 131.350317 6.947384
v -8.863169 110.286819 6.947385
v -8.968160 110.186577 6.404940
v -10.023223 108.143279 7.460007
v -7.460004 108.143279 10.023228
v -6.404935 110.186577 8.968156
v -6.947383 110.286819 8.863169
v -11.036564 128.693195 12.775784
v -10.633318 128.743322 12.960303
v -11.952999 130.583336 14.279974
v -14.279975 130.583348 11.952992
v -12.960299 128.743322 10.633321
v -12.775782 128.693195 11.036567
v -12.775785 112.943952 11.036568
v -12.960303 112.893814 10.633322
v -14.279975 111.053824 11.952998
v -11.952996 111.053824 14.279980
v -10.633317 112.893814 12.960303
v -11.036564 112.943952 12.775785
v -11.149421 131.350317 -1.585028
v -10.969126 131.450546 -1.062762
v -12.410366 133.493869 -1.448945
v -11.472165 133.493869 -4.950371
v -10.030919 131.450534 -4.564187
v -10.448193 131.350317 -4.202040
v -10.448195 110.286819 -4.202040
v -10.030918 110.186577 -4.564187
v -11.472165 108.143279 -4.950371
v -12.410363 108.143279 -1.448945
v -10.969126 110.186577 -1.062761
v -11.149421 110.286819 -1.585028
v -16.582435 128.693195 -3.170058
v -16.540611 128.743322 -2.728577
v -18.343315 130.583336 -3.211615
v -17.491587 130.583348 -6.390333
v -15.688877 128.743286 -5.907296
v -15.945837 128.693195 -5.545874
v -15.945837 112.943952 -5.545874
v -15.688876 112.893814 -5.907294
v -17.491586 111.053824 -6.390332
v -18.343314 111.053824 -3.211615
v -16.540611 112.893814 -2.728577
v -16.582435 112.943952 -3.170058
v -4.202040 131.350317 -10.448193
v -4.564187 131.450534 -10.030917
v -4.950370 133.493869 -11.472169
v -1.448943 133.493869 -12.410366
v -1.062762 131.450546 -10.969127
v -1.585029 131.350317 -11.149422
v -1.585029 110.286819 -11.149422
v -1.062762 110.186577 -10.969126
v -1.448943 108.143279 -12.410374
v -4.950369 108.143279 -11.472167
v -4.564188 110.186577 -10.030919
v -4.202040 110.286819 -10.448195
v -5.545876 128.693195 -15.945837
v -5.907296 128.743286 -15.688876
v -6.390333 130.583336 -17.491589
v -3.211614 130.583336 -18.343315
v -2.728579 128.743322 -16.540614
v -3.170060 128.693195 -16.582438
v -3.170060 112.943952 -16.582438
v -2.728579 112.893814 -16.540611
v -3.211614 111.053824 -18.343325
v -6.390333 111.053824 -17.491589
v -5.907298 112.893814 -15.688877
v -5.545876 112.943952 -15.945837
v 6.947384 131.350317 -8.863169
v 6.404938 131.450546 -8.968158
v 7.460005 133.493857 -10.023216
v 10.023226 133.493869 -7.460002
v 8.968156 131.450534 -6.404937
v 8.863167 131.350317 -6.947384
v 8.863169 110.286819 -6.947384
v 8.968158 110.186577 -6.404939
v 10.023225 108.143279 -7.460007
v 7.460005 108.143279 -10.023228
v 6.404936 110.186577 -8.968156
v 6.947384 110.286819 -8.863169
v 11.036567 128.693195 -12.775784
v 10.633319 128.743322 -12.960303
v 11.952999 130.583336 -14.279974
v 14.279980 130.583348 -11.952994
v 12.960301 128.743322 -10.633320
v 12.775783 128.693195 -11.036567
v 12.775784 112.943952 -11.036567
v 12.960301 112.893814 -10.633321
v 14.279978 111.053824 -11.952998
v 11.952996 111.053824 -14.279980
v 10.633319 112.893814 -12.960303
v 11.036567 112.943952 -12.775785
vt 0.007475 0.847015
vt 0.007475 0.848130
vt 0.082572 0.853293
vt 0.083375 0.852348
vt 0.007475 0.849241
vt 0.001562 0.850931
vt 0.007475 0.765764
vt 0.007475 0.766879
vt 0.083089 0.762363
vt 0.082148 0.761540
vt 0.007475 0.767987
vt 0.000000 0.766346
vt 0.936560 0.143246
vt 0.582001 0.926943
vt 0.916939 0.132633
vt 0.014377 0.768639
vt 0.331104 0.769017
vt 0.021431 0.768928
vt 0.351080 0.778945
vt 0.028568 0.769070
vt 0.930196 0.155057
vt 0.035747 0.769141
vt 0.949846 0.165617
vt 0.042891 0.769170
vt 0.922575 0.935332
vt 0.050074 0.769161
vt 0.903011 0.924615
vt 0.057203 0.769089
vt 0.760996 0.920643
vt 0.064256 0.768906
vt 0.741444 0.909903
vt 0.071154 0.768465
vt 0.601910 0.937005
vt 0.077767 0.767306
vt 0.007475 0.850759
vt 0.002623 0.852335
vt 0.080813 0.760462
vt 0.007475 0.764244
vt 0.014377 0.764821
vt 0.014377 0.766380
vt 0.014377 0.850231
vt 0.014377 0.848691
vt 0.021431 0.765076
vt 0.021431 0.766647
vt 0.021431 0.850035
vt 0.021431 0.848490
vt 0.028568 0.765200
vt 0.028568 0.766777
vt 0.028568 0.849969
vt 0.028568 0.848422
vt 0.035747 0.765264
vt 0.035747 0.766844
vt 0.035747 0.849960
vt 0.035747 0.848414
vt 0.042891 0.765292
vt 0.042891 0.766873
vt 0.042891 0.849985
vt 0.042891 0.848440
vt 0.050074 0.765287
vt 0.050074 0.766869
vt 0.050074 0.850042
vt 0.050074 0.848499
vt 0.057203 0.765231
vt 0.057203 0.766811
vt 0.057203 0.850152
vt 0.057203 0.848614
vt 0.064256 0.765078
vt 0.064256 0.766652
vt 0.064256 0.850368
vt 0.064256 0.848842
vt 0.071154 0.764690
vt 0.071154 0.766247
vt 0.071154 0.850819
vt 0.071154 0.849318
vt 0.077767 0.763630
vt 0.077767 0.765123
vt 0.077767 0.851936
vt 0.077767 0.850513
vt 0.014377 0.847558
vt 0.014377 0.846425
vt 0.014377 0.767512
vt 0.021431 0.767787
vt 0.021431 0.847347
vt 0.021431 0.846201
vt 0.028568 0.767922
vt 0.028568 0.847272
vt 0.028568 0.846119
vt 0.035747 0.767990
vt 0.035747 0.847262
vt 0.035747 0.846105
vt 0.042891 0.768020
vt 0.042891 0.847287
vt 0.042891 0.846130
vt 0.050074 0.768013
vt 0.050074 0.847348
vt 0.050074 0.846194
vt 0.057203 0.767949
vt 0.057203 0.847466
vt 0.057203 0.846319
vt 0.064256 0.767780
vt 0.064256 0.847705
vt 0.064256 0.846571
vt 0.071154 0.767358
vt 0.071154 0.848197
vt 0.071154 0.847083
vt 0.077767 0.766210
vt 0.077767 0.849413
vt 0.077767 0.848315
vt 0.950610 0.011558
vt 0.592233 0.793964
vt 0.612506 0.805030
vt 0.755900 0.777363
vt 0.775833 0.789029
vt 0.916821 0.792179
vt 0.937115 0.803347
vt 0.937356 0.298149
vt 0.916939 0.287206
vt 0.341739 0.911989
vt 0.321393 0.901060
vt 0.930612 0.000000
vt 0.877288 0.938403
vt 0.607826 0.894638
vt 0.891119 0.908775
vt 0.605888 0.851720
vt 0.259341 0.929675
vt 0.259339 0.897136
vt 0.273172 0.900047
vt 0.587473 0.879556
vt 0.694362 0.971897
vt 0.768357 0.878495
vt 0.708195 0.942270
vt 0.767808 0.835516
vt 0.455264 0.879823
vt 0.455262 0.847284
vt 0.469095 0.850195
vt 0.748515 0.862750
vt 0.141879 0.929429
vt 0.929898 0.893186
vt 0.155711 0.899801
vt 0.929379 0.850221
vt 0.812754 0.937851
vt 0.812753 0.905312
vt 0.826586 0.908223
vt 0.910060 0.877435
vt 0.508655 0.912929
vt 0.923222 0.197271
vt 0.522487 0.883301
vt 0.924164 0.240240
vt 0.944607 0.744915
vt 0.944606 0.712376
vt 0.958439 0.715287
vt 0.943209 0.212833
vt 0.562044 0.969597
vt 0.325471 0.811422
vt 0.575879 0.939970
vt 0.327697 0.854326
vt 0.088492 0.912750
vt 0.088488 0.880211
vt 0.102321 0.883120
vt 0.345925 0.826368
vt 0.845717 0.873706
vt 0.943650 0.101053
vt 0.859549 0.844077
vt 0.942840 0.058083
vt 0.312732 0.954180
vt 0.312731 0.921641
vt 0.326564 0.924552
vt 0.923711 0.085431
vt 0.604942 0.851702
vt 0.605787 0.879435
vt 0.600416 0.880748
vt 0.599981 0.850490
vt 0.588419 0.879574
vt 0.587580 0.851835
vt 0.592948 0.850524
vt 0.593382 0.880785
vt 0.581408 0.804426
vt 0.610503 0.804322
vt 0.602391 0.803553
vt 0.589488 0.803494
vt 0.600660 0.838688
vt 0.605816 0.835863
vt 0.586562 0.836097
vt 0.591775 0.838910
vt 0.611402 0.926827
vt 0.584307 0.927617
vt 0.591604 0.928332
vt 0.604163 0.927859
vt 0.592706 0.892586
vt 0.587538 0.895439
vt 0.606825 0.895180
vt 0.601611 0.892358
vt 0.766864 0.835468
vt 0.766824 0.863222
vt 0.761415 0.864361
vt 0.761944 0.834100
vt 0.749459 0.862798
vt 0.749506 0.835055
vt 0.754915 0.833913
vt 0.754382 0.864170
vt 0.744767 0.787497
vt 0.773852 0.788262
vt 0.765767 0.787251
vt 0.752871 0.786806
vt 0.762984 0.822322
vt 0.768224 0.819654
vt 0.748971 0.819303
vt 0.754096 0.822272
vt 0.770833 0.910796
vt 0.743726 0.910657
vt 0.750994 0.911622
vt 0.763563 0.911579
vt 0.753314 0.875938
vt 0.748054 0.878615
vt 0.767338 0.879003
vt 0.762222 0.876007
vt 0.928435 0.850172
vt 0.928369 0.877922
vt 0.922958 0.879058
vt 0.923515 0.848799
vt 0.911004 0.877485
vt 0.911076 0.849736
vt 0.916485 0.848603
vt 0.915926 0.878861
vt 0.906016 0.802532
vt 0.935119 0.802612
vt 0.927022 0.801673
vt 0.914106 0.801757
vt 0.924581 0.837029
vt 0.929833 0.834364
vt 0.910577 0.833976
vt 0.915686 0.836953
vt 0.932399 0.925474
vt 0.905294 0.925365
vt 0.912563 0.926322
vt 0.925131 0.926265
vt 0.914854 0.890631
vt 0.909593 0.893307
vt 0.928879 0.893694
vt 0.923762 0.890701
vt 0.925109 0.240280
vt 0.924896 0.212528
vt 0.930294 0.211340
vt 0.930042 0.241604
vt 0.942263 0.212794
vt 0.942472 0.240538
vt 0.937074 0.241728
vt 0.937328 0.211467
vt 0.948046 0.287676
vt 0.918943 0.287919
vt 0.927050 0.288768
vt 0.939964 0.288541
vt 0.929101 0.253385
vt 0.923877 0.256106
vt 0.943138 0.256287
vt 0.937998 0.253367
vt 0.920450 0.164995
vt 0.947557 0.164884
vt 0.940280 0.163986
vt 0.927712 0.164144
vt 0.938288 0.199689
vt 0.943524 0.196965
vt 0.924237 0.196754
vt 0.929380 0.199702
vt 0.328643 0.854338
vt 0.327612 0.826611
vt 0.332974 0.825262
vt 0.333613 0.855517
vt 0.344980 0.826356
vt 0.346004 0.854089
vt 0.340644 0.855436
vt 0.340009 0.825178
vt 0.352494 0.901455
vt 0.323400 0.901755
vt 0.331517 0.902469
vt 0.344421 0.902442
vt 0.333013 0.867323
vt 0.327875 0.870183
vt 0.347128 0.869820
vt 0.341896 0.867041
vt 0.321680 0.779258
vt 0.348769 0.778286
vt 0.341468 0.777620
vt 0.328912 0.778178
vt 0.340605 0.813373
vt 0.345754 0.810486
vt 0.326469 0.810874
vt 0.331702 0.813661
vt 0.941896 0.058040
vt 0.942022 0.085793
vt 0.936620 0.086964
vt 0.936968 0.056701
vt 0.924655 0.085474
vt 0.924536 0.057729
vt 0.929938 0.056555
vt 0.929586 0.086815
vt 0.919535 0.010194
vt 0.948624 0.010801
vt 0.940534 0.009833
vt 0.927635 0.009459
vt 0.937941 0.044918
vt 0.943166 0.042222
vt 0.923912 0.041978
vt 0.929053 0.044918
vt 0.946334 0.133335
vt 0.919226 0.133371
vt 0.926500 0.134290
vt 0.939069 0.134166
vt 0.928592 0.098591
vt 0.923348 0.101301
vt 0.942634 0.101567
vt 0.937500 0.098605
vt 0.585274 0.821772
vt 0.245506 0.891647
vt 0.591165 0.821617
vt 0.600932 0.821378
vt 0.606821 0.821514
vt 0.863455 0.943893
vt 0.609135 0.908605
vt 0.608104 0.909523
vt 0.602235 0.909695
vt 0.592541 0.909820
vt 0.586668 0.909918
vt 0.245508 0.935165
vt 0.748113 0.804950
vt 0.441429 0.841795
vt 0.754006 0.804971
vt 0.763776 0.805025
vt 0.769659 0.805337
vt 0.680529 0.977387
vt 0.769190 0.892504
vt 0.768130 0.893387
vt 0.762258 0.893358
vt 0.752566 0.893154
vt 0.746692 0.893051
vt 0.441431 0.885314
vt 0.909714 0.819683
vt 0.798919 0.899822
vt 0.915604 0.819592
vt 0.925357 0.819790
vt 0.931248 0.819991
vt 0.128047 0.934919
vt 0.930738 0.907188
vt 0.929678 0.908072
vt 0.923806 0.908048
vt 0.914113 0.907850
vt 0.908239 0.907752
vt 0.798921 0.943341
vt 0.944158 0.270568
vt 0.930773 0.706887
vt 0.938269 0.270724
vt 0.928513 0.270633
vt 0.922621 0.270497
vt 0.494822 0.918420
vt 0.922260 0.183270
vt 0.923312 0.182377
vt 0.929185 0.182352
vt 0.938878 0.182467
vt 0.944752 0.182517
vt 0.930775 0.750406
vt 0.348512 0.884136
vt 0.074654 0.874723
vt 0.342622 0.884330
vt 0.332857 0.884635
vt 0.326966 0.884538
vt 0.548211 0.975086
vt 0.324069 0.797465
vt 0.325093 0.796539
vt 0.330962 0.796329
vt 0.340654 0.796138
vt 0.346527 0.796001
vt 0.074660 0.918241
vt 0.922975 0.027629
vt 0.298897 0.916152
vt 0.928869 0.027617
vt 0.938639 0.027618
vt 0.944523 0.027899
vt 0.831884 0.879196
vt 0.944573 0.115055
vt 0.943518 0.115945
vt 0.937646 0.115954
vt 0.927953 0.115812
vt 0.922079 0.115746
vt 0.298899 0.959670
vt 0.014377 0.841989
vt 0.007475 0.842499
vt 0.028568 0.841589
vt 0.021431 0.841715
vt 0.042891 0.841573
vt 0.035747 0.841552
vt 0.057203 0.841824
vt 0.050074 0.841654
vt 0.071154 0.842723
vt 0.064256 0.842146
vt 0.085874 0.848393
vt 0.077767 0.843672
vt 0.014377 0.773075
vt 0.007475 0.772501
vt 0.028568 0.773598
vt 0.021431 0.773413
vt 0.042891 0.773726
vt 0.035747 0.773693
vt 0.057203 0.773593
vt 0.050074 0.773702
vt 0.071154 0.772835
vt 0.064256 0.773338
vt 0.000000 0.771690
vt 0.077767 0.771956
vt 0.922354 0.100740
vt 0.326564 0.951268
vt 0.845716 0.841166
vt 0.942964 0.085735
vt 0.944159 0.042786
vt 0.859550 0.870793
vt 0.922897 0.042495
vt 0.923593 0.057788
vt 0.921036 0.114832
vt 0.831883 0.835677
vt 0.945537 0.028837
vt 0.921930 0.028529
vt 0.346767 0.811012
vt 0.102325 0.909836
vt 0.562045 0.937058
vt 0.326672 0.826700
vt 0.326865 0.869650
vt 0.575878 0.966685
vt 0.348126 0.869272
vt 0.346945 0.854001
vt 0.347601 0.796878
vt 0.548213 0.931567
vt 0.325924 0.883633
vt 0.349529 0.883203
vt 0.944520 0.197522
vt 0.958440 0.742003
vt 0.508653 0.880390
vt 0.923953 0.212589
vt 0.922882 0.255548
vt 0.522488 0.910017
vt 0.944150 0.255766
vt 0.943415 0.240477
vt 0.945797 0.183428
vt 0.494820 0.874901
vt 0.921592 0.269572
vt 0.945188 0.269655
vt 0.908602 0.892740
vt 0.826587 0.934939
vt 0.141878 0.896890
vt 0.929312 0.877869
vt 0.930823 0.834934
vt 0.155712 0.926517
vt 0.909559 0.834486
vt 0.910133 0.849788
vt 0.907201 0.906834
vt 0.128045 0.891401
vt 0.932266 0.820928
vt 0.908674 0.820585
vt 0.694362 0.939358
vt 0.767767 0.863171
vt 0.769214 0.820223
vt 0.708195 0.968986
vt 0.747953 0.819814
vt 0.748563 0.835108
vt 0.680529 0.933869
vt 0.770667 0.806280
vt 0.747063 0.805845
vt 0.586529 0.894906
vt 0.273173 0.926763
vt 0.606823 0.836402
vt 0.891121 0.935491
vt 0.585560 0.836638
vt 0.586639 0.851917
vt 0.585600 0.909034
vt 0.607857 0.822426
vt 0.584251 0.822698
vt 0.285067 0.971678
vt 0.818049 0.823671
vt 0.818052 0.891204
vt 0.285064 0.904145
vt 0.060828 0.930250
vt 0.534380 0.919560
vt 0.534378 0.987093
vt 0.060820 0.862717
vt 0.916942 0.762413
vt 0.480987 0.862894
vt 0.480990 0.930427
vt 0.916939 0.694880
vt 0.785089 0.955349
vt 0.114211 0.879394
vt 0.114214 0.946927
vt 0.785086 0.887816
vt 0.666696 0.921861
vt 0.666696 0.989394
vt 0.427595 0.829788
vt 0.231675 0.947173
vt 0.849622 0.955901
vt 0.231672 0.879640
vt 0.747063 0.878048
vt 0.469097 0.876911
vt 0.745656 0.892130
vt 0.427598 0.897321
vt 0.877287 0.905864
vt 0.606728 0.879352
vt 0.863453 0.900375
vt 0.849620 0.888368
vt 0.928235 0.156452
vt 0.939574 0.156279
vt 0.918164 0.165727
vt 0.937584 0.154945
vt 0.939221 0.297120
vt 0.928082 0.297355
vt 0.929978 0.298303
vt 0.950039 0.286946
vt 0.928707 0.000950
vt 0.939862 0.001180
vt 0.938000 0.000153
vt 0.917522 0.010877
vt 0.329189 0.770473
vt 0.340517 0.769939
vt 0.319420 0.780062
vt 0.338485 0.768669
vt 0.914945 0.793187
vt 0.926085 0.793076
vt 0.924200 0.792106
vt 0.904014 0.803240
vt 0.753990 0.778303
vt 0.765143 0.778594
vt 0.763287 0.777556
vt 0.742751 0.788169
vt 0.590352 0.794960
vt 0.601508 0.794919
vt 0.599623 0.793937
vt 0.579413 0.805158
vt 0.938525 0.141857
vt 0.927185 0.141999
vt 0.948621 0.132610
vt 0.929172 0.143338
vt 0.343613 0.910981
vt 0.332457 0.911097
vt 0.334349 0.912067
vt 0.354484 0.900710
vt 0.924547 0.933952
vt 0.913207 0.934035
vt 0.934690 0.924761
vt 0.915186 0.935385
vt 0.762969 0.919266
vt 0.751629 0.919335
vt 0.773124 0.910085
vt 0.753607 0.920687
vt 0.603835 0.935561
vt 0.592503 0.936020
vt 0.613668 0.926039
vt 0.594527 0.937303
vt 0.080307 0.855144
vt 0.081610 0.854120
vt 0.000000 0.848610
vt 0.000000 0.843252
vt 0.000000 0.849823
vt 0.086358 0.767286
vt 0.083883 0.763311
vt 0.001970 0.764020
vt 0.003056 0.762624
vt 0.000000 0.765136
vn 0.864131 0.066100 -0.498908
vn 0.810104 0.353512 -0.467719
vn 0.935430 0.353513 0.000000
vn 0.997813 0.066100 0.000000
vn 0.330572 0.924282 -0.190856
vn 0.155162 0.983819 -0.089584
vn 0.179166 0.983819 0.000000
vn 0.381711 0.924282 0.000003
vn 0.195049 -0.974307 -0.112614
vn 0.364278 -0.907230 -0.210319
vn 0.420633 -0.907231 0.000000
vn 0.225223 -0.974307 -0.000001
vn 0.813554 -0.342792 -0.469706
vn 0.864252 -0.063967 -0.498976
vn 0.997952 -0.063967 0.000000
vn 0.939411 -0.342792 0.000000
vn 0.957782 -0.000000 -0.287495
vn 0.965926 0.000000 -0.258820
vn 0.287495 -0.000000 -0.957782
vn 0.498976 -0.063967 -0.864252
vn 0.258820 0.000000 -0.965926
vn -0.000000 -0.063967 -0.997952
vn -0.685716 -0.000000 -0.727869
vn -0.258819 -0.000000 -0.965926
vn -0.498975 -0.063967 -0.864252
vn -0.727869 0.000000 -0.685716
vn -0.864251 -0.063967 -0.498977
vn -0.965926 0.000000 -0.258819
vn -0.997952 -0.063967 0.000000
vn -0.957782 0.000000 0.287495
vn -0.965926 0.000000 0.258820
vn -0.864252 -0.063967 0.498976
vn -0.287495 0.000000 0.957782
vn -0.498976 -0.063967 0.864252
vn -0.258820 0.000000 0.965926
vn 0.000000 -0.063967 0.997952
vn 0.685716 -0.000000 0.727869
vn 0.258819 -0.000000 0.965926
vn 0.498975 -0.063967 0.864252
vn 0.727869 0.000000 0.685716
vn 0.864252 -0.063966 0.498976
vn 0.965926 0.000000 0.258819
vn -0.060041 0.997594 0.034661
vn -0.069329 0.997594 -0.000003
vn -0.010920 -0.999940 -0.000001
vn -0.009457 -0.999940 0.005458
vn -0.005460 -0.999940 0.009456
vn 0.112611 -0.974307 -0.195050
vn -0.034665 0.997594 0.060037
vn 0.089583 0.983819 -0.155162
vn 0.000000 -0.999940 0.010917
vn -0.000000 -0.974307 -0.225224
vn 0.000000 0.997594 0.069323
vn -0.000000 0.983819 -0.179166
vn 0.005460 -0.999940 0.009455
vn -0.112611 -0.974307 -0.195050
vn 0.034665 0.997594 0.060039
vn -0.089583 0.983819 -0.155161
vn 0.009457 -0.999940 0.005461
vn -0.195049 -0.974307 -0.112612
vn 0.060041 0.997594 0.034667
vn -0.155162 0.983819 -0.089582
vn 0.010920 -0.999940 0.000001
vn -0.225223 -0.974307 0.000001
vn 0.069329 0.997594 0.000003
vn -0.179166 0.983819 0.000001
vn 0.009457 -0.999940 -0.005458
vn -0.195049 -0.974307 0.112614
vn 0.060041 0.997594 -0.034661
vn -0.155162 0.983819 0.089584
vn 0.005460 -0.999940 -0.009456
vn -0.112611 -0.974307 0.195050
vn 0.034665 0.997594 -0.060037
vn -0.089583 0.983819 0.155162
vn 0.000000 -0.999940 -0.010917
vn 0.000000 -0.974307 0.225224
vn 0.000000 0.997594 -0.069323
vn 0.000000 0.983819 0.179166
vn -0.005460 -0.999940 -0.009455
vn 0.112611 -0.974307 0.195050
vn -0.034665 0.997594 -0.060039
vn 0.089583 0.983819 0.155161
vn -0.009457 -0.999940 -0.005461
vn 0.195049 -0.974307 0.112612
vn -0.060041 0.997594 -0.034667
vn 0.155162 0.983819 0.089584
vn 0.190856 0.924283 -0.330568
vn 0.498906 0.066100 -0.864132
vn 0.467714 0.353512 -0.810107
vn 0.469707 -0.342793 -0.813553
vn 0.210316 -0.907231 -0.364280
vn -0.000001 -0.342794 -0.939411
vn -0.000000 -0.907231 -0.420632
vn -0.000000 0.924283 -0.381707
vn -0.000000 0.066100 -0.997813
vn -0.000000 0.353514 -0.935429
vn -0.469703 -0.342791 -0.813556
vn -0.210316 -0.907231 -0.364280
vn -0.190856 0.924283 -0.330568
vn -0.498906 0.066100 -0.864132
vn -0.467714 0.353511 -0.810107
vn -0.813552 -0.342791 -0.469710
vn -0.364278 -0.907231 -0.210319
vn -0.330572 0.924282 -0.190856
vn -0.864131 0.066100 -0.498908
vn -0.810104 0.353511 -0.467720
vn -0.939411 -0.342792 0.000000
vn -0.420633 -0.907231 0.000000
vn -0.381711 0.924282 0.000000
vn -0.997813 0.066100 0.000000
vn -0.935430 0.353513 0.000000
vn -0.813554 -0.342792 0.469706
vn -0.364278 -0.907230 0.210319
vn -0.330572 0.924282 0.190856
vn -0.864131 0.066100 0.498907
vn -0.810104 0.353512 0.467719
vn -0.469707 -0.342793 0.813553
vn -0.210316 -0.907231 0.364280
vn -0.190856 0.924283 0.330568
vn -0.498906 0.066100 0.864132
vn -0.467714 0.353512 0.810107
vn 0.000001 -0.342794 0.939411
vn 0.000000 -0.907231 0.420632
vn 0.000000 0.924283 0.381707
vn 0.000000 0.066100 0.997813
vn 0.000000 0.353514 0.935429
vn 0.469703 -0.342791 0.813556
vn 0.210316 -0.907231 0.364280
vn 0.190856 0.924283 0.330568
vn 0.498906 0.066100 0.864132
vn 0.467714 0.353511 0.810107
vn 0.813552 -0.342791 0.469710
vn 0.364278 -0.907231 0.210319
vn 0.330571 0.924281 0.190859
vn 0.864131 0.066100 0.498908
vn 0.810104 0.353511 0.467720
vn 0.957782 0.000000 -0.287496
vn 0.965926 0.000000 -0.258820
vn 0.727869 0.000000 0.685716
vn 0.685716 0.000000 0.727869
vn -0.258820 0.000000 0.965926
vn -0.287496 0.000000 0.957782
vn -0.957782 -0.000000 0.287496
vn -0.965926 -0.000000 0.258820
vn -0.727869 0.000000 -0.685716
vn -0.685716 0.000000 -0.727869
vn 0.258820 0.000000 -0.965926
vn 0.287496 0.000000 -0.957782
vn 0.965926 0.000000 0.258818
vn 0.258819 0.000000 0.965926
vn -0.965926 0.000000 -0.258819
vn -0.258819 0.000000 -0.965926
vn -0.237448 -0.000000 0.971400
vn -0.237448 -0.000000 0.971400
vn -0.237447 -0.000000 0.971400
vn -0.237447 -0.000000 0.971400
vn 0.280065 0.000000 -0.959981
vn 0.280065 0.000000 -0.959981
vn 0.280065 0.000000 -0.959981
vn 0.280065 0.000000 -0.959981
vn -0.959981 0.000000 0.280066
vn -0.959981 0.000000 0.280066
vn -0.959981 0.000000 0.280065
vn -0.959981 0.000000 0.280065
vn 0.971400 0.000000 -0.237448
vn 0.971400 0.000000 -0.237448
vn 0.971400 0.000000 -0.237447
vn 0.971400 0.000000 -0.237448
vn -0.722534 0.000000 -0.691335
vn -0.722534 0.000000 -0.691335
vn -0.722534 0.000000 -0.691335
vn -0.722534 0.000000 -0.691335
vn 0.691335 0.000000 0.722534
vn 0.691335 0.000000 0.722534
vn 0.691335 0.000000 0.722534
vn 0.691335 0.000000 0.722534
vn 0.237447 -0.000000 -0.971400
vn 0.237447 -0.000000 -0.971400
vn 0.237447 0.000000 -0.971400
vn 0.237447 0.000000 -0.971400
vn -0.280065 0.000000 0.959981
vn -0.280065 0.000000 0.959981
vn -0.280065 0.000000 0.959981
vn -0.280065 0.000000 0.959981
vn 0.959981 0.000000 -0.280065
vn 0.959981 0.000000 -0.280065
vn 0.959981 0.000000 -0.280065
vn 0.959981 0.000000 -0.280065
vn -0.971400 0.000000 0.237448
vn -0.971400 0.000000 0.237448
vn -0.971400 0.000000 0.237447
vn -0.971400 0.000000 0.237448
vn 0.722534 0.000000 0.691336
vn 0.722534 0.000000 0.691336
vn 0.722534 0.000000 0.691336
vn 0.722534 0.000000 0.691336
vn -0.691335 0.000000 -0.722534
vn -0.691335 0.000000 -0.722534
vn -0.691335 0.000000 -0.722534
vn -0.691335 0.000000 -0.722534
vn -0.252185 -0.007282 0.967652
vn -0.252185 0.007280 0.967652
vn -0.252771 0.006638 0.967503
vn -0.252771 -0.006640 0.967503
vn 0.265433 0.007280 -0.964102
vn 0.265433 -0.007278 -0.964102
vn 0.264852 -0.006637 -0.964266
vn 0.264852 0.006638 -0.964266
vn -0.677571 0.712697 -0.181551
vn -0.677571 0.712697 -0.181551
vn -0.677571 0.712697 -0.181551
vn -0.677571 0.712697 -0.181551
vn -0.237930 -0.021476 0.971045
vn -0.238888 -0.018988 0.970862
vn 0.278554 -0.018976 -0.960233
vn 0.279474 -0.021464 -0.959913
vn -0.709519 -0.678556 -0.190119
vn -0.709519 -0.678556 -0.190119
vn -0.709519 -0.678556 -0.190119
vn -0.709519 -0.678556 -0.190119
vn 0.279474 0.021469 -0.959913
vn 0.278554 0.018981 -0.960233
vn -0.238885 0.018983 0.970862
vn -0.237928 0.021471 0.971045
vn -0.964103 -0.007280 0.265430
vn -0.964103 0.007281 0.265430
vn -0.964267 0.006639 0.264848
vn -0.964267 -0.006638 0.264849
vn 0.967652 0.007280 -0.252183
vn 0.967652 -0.007280 -0.252183
vn 0.967504 -0.006638 -0.252769
vn 0.967504 0.006638 -0.252769
vn -0.181555 0.712694 -0.677573
vn -0.181555 0.712694 -0.677573
vn -0.181555 0.712694 -0.677573
vn -0.181555 0.712694 -0.677573
vn -0.959914 -0.021469 0.279472
vn -0.960234 -0.018982 0.278551
vn 0.970862 -0.018982 -0.238884
vn 0.971045 -0.021470 -0.237928
vn -0.190115 -0.678557 -0.709519
vn -0.190115 -0.678557 -0.709519
vn -0.190115 -0.678557 -0.709519
vn -0.190115 -0.678557 -0.709519
vn 0.971045 0.021470 -0.237928
vn 0.970862 0.018982 -0.238885
vn -0.960233 0.018983 0.278553
vn -0.959914 0.021471 0.279472
vn -0.711921 -0.007280 -0.702222
vn -0.711921 0.007280 -0.702222
vn -0.711500 0.006638 -0.702655
vn -0.711500 -0.006639 -0.702655
vn 0.702222 0.007280 0.711921
vn 0.702221 -0.007279 0.711921
vn 0.702655 -0.006637 0.711500
vn 0.702655 0.006638 0.711500
vn 0.496019 0.712695 -0.496015
vn 0.496019 0.712695 -0.496015
vn 0.496019 0.712695 -0.496015
vn 0.496019 0.712695 -0.496015
vn -0.721987 -0.021472 -0.691573
vn -0.721351 -0.018984 -0.692310
vn 0.692311 -0.018980 0.721350
vn 0.691574 -0.021467 0.721987
vn 0.519406 -0.678556 -0.519403
vn 0.519406 -0.678556 -0.519403
vn 0.519406 -0.678556 -0.519403
vn 0.519406 -0.678556 -0.519403
vn 0.691574 0.021470 0.721987
vn 0.692310 0.018983 0.721351
vn -0.721349 0.018982 -0.692312
vn -0.721986 0.021469 -0.691574
vn 0.252183 -0.007280 -0.967652
vn 0.252183 0.007280 -0.967652
vn 0.252769 0.006639 -0.967504
vn 0.252769 -0.006639 -0.967504
vn -0.265432 0.007280 0.964102
vn -0.265431 -0.007279 0.964102
vn -0.264850 -0.006638 0.964267
vn -0.264850 0.006638 0.964267
vn 0.677572 0.712696 0.181551
vn 0.677572 0.712696 0.181551
vn 0.677572 0.712696 0.181551
vn 0.677572 0.712696 0.181551
vn 0.237928 -0.021471 -0.971045
vn 0.238885 -0.018983 -0.970862
vn -0.278553 -0.018981 0.960233
vn -0.279472 -0.021468 0.959914
vn 0.709522 -0.678554 0.190115
vn 0.709522 -0.678554 0.190115
vn 0.709522 -0.678554 0.190115
vn 0.709522 -0.678554 0.190115
vn -0.279473 0.021469 0.959914
vn -0.278552 0.018981 0.960234
vn 0.238884 0.018983 -0.970863
vn 0.237928 0.021471 -0.971046
vn 0.964103 -0.007280 -0.265430
vn 0.964103 0.007280 -0.265430
vn 0.964267 0.006639 -0.264849
vn 0.964267 -0.006638 -0.264849
vn -0.967652 0.007280 0.252183
vn -0.967652 -0.007280 0.252183
vn -0.967504 -0.006639 0.252769
vn -0.967504 0.006638 0.252769
vn 0.181552 0.712698 0.677569
vn 0.181552 0.712698 0.677569
vn 0.181552 0.712698 0.677569
vn 0.181552 0.712698 0.677569
vn 0.959914 -0.021470 -0.279472
vn 0.960234 -0.018982 -0.278551
vn -0.970863 -0.018983 0.238884
vn -0.971046 -0.021470 0.237928
vn 0.190117 -0.678558 0.709518
vn 0.190117 -0.678557 0.709518
vn 0.190117 -0.678557 0.709518
vn 0.190117 -0.678557 0.709518
vn -0.971045 0.021470 0.237929
vn -0.970862 0.018983 0.238886
vn 0.960234 0.018983 -0.278552
vn 0.959914 0.021471 -0.279472
vn 0.711921 -0.007280 0.702221
vn 0.711921 0.007280 0.702222
vn 0.711499 0.006638 0.702656
vn 0.711500 -0.006639 0.702655
vn -0.702222 0.007280 -0.711921
vn -0.702221 -0.007279 -0.711921
vn -0.702655 -0.006638 -0.711500
vn -0.702656 0.006638 -0.711499
vn -0.496019 0.712695 0.496016
vn -0.496019 0.712695 0.496016
vn -0.496019 0.712695 0.496016
vn -0.496019 0.712695 0.496016
vn 0.721989 -0.021471 0.691572
vn 0.721351 -0.018984 0.692309
vn -0.692311 -0.018980 -0.721350
vn -0.691574 -0.021467 -0.721987
vn -0.519406 -0.678557 0.519402
vn -0.519406 -0.678557 0.519402
vn -0.519406 -0.678557 0.519402
vn -0.519406 -0.678557 0.519402
vn -0.691575 0.021470 -0.721985
vn -0.692312 0.018983 -0.721349
vn 0.721348 0.018982 0.692312
vn 0.721986 0.021470 0.691575
vn -0.965924 -0.000000 -0.258827
vn -0.965924 -0.000000 -0.258827
vn -0.965924 -0.000000 -0.258827
vn -0.965924 -0.000000 -0.258827
vn -0.965924 0.000000 -0.258824
vn -0.965924 0.000000 -0.258824
vn -0.965924 0.000000 -0.258824
vn -0.965924 0.000000 -0.258824
vn 0.965926 -0.000000 0.258818
vn 0.965926 -0.000000 0.258818
vn 0.965926 -0.000000 0.258818
vn 0.965926 -0.000000 0.258818
vn -0.855685 -0.337660 -0.392159
vn -0.937121 -0.337659 -0.088267
vn -0.810488 -0.585544 -0.015732
vn -0.709749 -0.585532 -0.391673
vn -0.341417 -0.930210 -0.134701
vn -0.303314 -0.947318 -0.102904
vn -0.237642 -0.970115 -0.049030
vn -0.237642 -0.970115 -0.049030
vn 0.316521 0.944786 0.084813
vn 0.316521 0.944786 0.084813
vn 0.194392 0.979540 0.052089
vn 0.194392 0.979540 0.052089
vn -0.230320 -0.970115 -0.076345
vn -0.314135 -0.947317 -0.062523
vn -0.363031 -0.930209 -0.054038
vn -0.230320 -0.970115 -0.076345
vn -0.970437 0.240297 -0.022577
vn -0.851712 0.240300 -0.465664
vn -0.705013 0.511792 -0.490943
vn -0.856030 0.511793 0.072666
vn -0.363031 0.930209 -0.054043
vn -0.314131 0.947318 -0.062532
vn -0.230313 0.970116 -0.076360
vn -0.230313 0.970116 -0.076360
vn -0.237645 0.970114 -0.049034
vn -0.303318 0.947315 -0.102916
vn -0.341422 0.930206 -0.134717
vn -0.237645 0.970114 -0.049034
vn 0.194392 -0.979540 0.052085
vn 0.194392 -0.979540 0.052085
vn 0.316523 -0.944786 0.084806
vn 0.316523 -0.944786 0.084806
vn -0.258813 0.000000 -0.965927
vn -0.258813 0.000000 -0.965927
vn -0.258813 0.000000 -0.965927
vn -0.258813 0.000000 -0.965927
vn 0.258818 0.000001 0.965926
vn 0.258818 0.000001 0.965926
vn 0.258818 0.000001 0.965926
vn 0.258818 0.000001 0.965926
vn -0.258812 0.000000 -0.965928
vn -0.258812 0.000000 -0.965928
vn -0.258812 0.000000 -0.965928
vn -0.258812 0.000000 -0.965928
vn -0.088262 -0.337667 -0.937118
vn -0.392128 -0.337665 -0.855697
vn -0.391628 -0.585547 -0.709762
vn -0.015724 -0.585548 -0.810485
vn -0.053994 -0.930207 -0.363043
vn -0.062485 -0.947317 -0.314144
vn -0.076319 -0.970117 -0.230323
vn -0.076319 -0.970117 -0.230323
vn 0.084813 0.944786 0.316521
vn 0.084813 0.944786 0.316521
vn 0.052088 0.979540 0.194393
vn 0.052088 0.979540 0.194393
vn -0.049071 -0.970114 -0.237635
vn -0.102960 -0.947315 -0.303306
vn -0.134762 -0.930205 -0.341405
vn -0.049071 -0.970114 -0.237635
vn -0.465663 0.240294 -0.851714
vn -0.022567 0.240297 -0.970437
vn 0.072678 0.511785 -0.856034
vn -0.490946 0.511790 -0.705013
vn -0.134695 0.930210 -0.341419
vn -0.102894 0.947318 -0.303317
vn -0.049012 0.970115 -0.237645
vn -0.049012 0.970115 -0.237645
vn -0.076375 0.970114 -0.230317
vn -0.062548 0.947316 -0.314134
vn -0.054060 0.930206 -0.363035
vn -0.076375 0.970114 -0.230317
vn 0.052086 -0.979541 0.194388
vn 0.052086 -0.979541 0.194389
vn 0.084812 -0.944786 0.316521
vn 0.084812 -0.944786 0.316521
vn 0.707106 -0.000000 -0.707107
vn 0.707106 -0.000000 -0.707107
vn 0.707106 -0.000000 -0.707107
vn 0.707106 -0.000000 -0.707107
vn -0.707108 -0.000000 0.707106
vn -0.707108 -0.000000 0.707106
vn -0.707108 -0.000000 0.707106
vn -0.707108 -0.000000 0.707106
vn 0.707107 0.000000 -0.707107
vn 0.707107 0.000000 -0.707107
vn 0.707107 0.000000 -0.707107
vn 0.707107 0.000000 -0.707107
vn 0.767442 -0.337668 -0.544989
vn 0.544996 -0.337665 -0.767439
vn 0.418861 -0.585544 -0.694042
vn 0.694043 -0.585547 -0.418855
vn 0.287382 -0.930209 -0.228305
vn 0.240787 -0.947318 -0.211209
vn 0.161281 -0.970117 -0.181280
vn 0.161281 -0.970117 -0.181280
vn 0.181289 -0.970115 -0.161278
vn 0.211221 -0.947320 -0.240772
vn 0.228318 -0.930212 -0.287360
vn 0.181289 -0.970115 -0.161278
vn -0.231707 0.944787 0.231709
vn -0.231708 0.944787 0.231710
vn -0.142303 0.979540 0.142306
vn -0.142303 0.979540 0.142306
vn 0.504766 0.240302 -0.829136
vn 0.829131 0.240297 -0.504776
vn 0.777674 0.511791 -0.365093
vn 0.365079 0.511789 -0.777682
vn 0.228331 0.930206 -0.287369
vn 0.211232 0.947317 -0.240772
vn 0.181299 0.970116 -0.161264
vn 0.181299 0.970116 -0.161264
vn 0.161270 0.970115 -0.181298
vn 0.240770 0.947319 -0.211225
vn 0.287363 0.930211 -0.228320
vn 0.161270 0.970115 -0.181298
vn -0.142304 -0.979540 0.142306
vn -0.142304 -0.979540 0.142306
vn -0.231711 -0.944786 0.231711
vn -0.231711 -0.944786 0.231711
vn 0.965926 0.000000 0.258818
vn 0.965926 0.000000 0.258818
vn 0.965926 0.000000 0.258818
vn 0.965926 0.000000 0.258818
vn -0.965927 -0.000000 -0.258816
vn -0.965927 -0.000000 -0.258816
vn -0.965927 -0.000000 -0.258816
vn -0.965927 -0.000000 -0.258816
vn 0.965925 0.000000 0.258824
vn 0.965925 0.000000 0.258824
vn 0.965925 0.000000 0.258824
vn 0.965925 0.000000 0.258824
vn 0.855691 -0.337660 0.392145
vn 0.937122 -0.337655 0.088263
vn 0.810489 -0.585543 0.015723
vn 0.709758 -0.585536 0.391653
vn 0.341406 -0.930208 0.134740
vn 0.303307 -0.947316 0.102941
vn 0.237634 -0.970115 0.049057
vn 0.237634 -0.970115 0.049057
vn 0.230323 -0.970113 0.076374
vn 0.314137 -0.947315 0.062550
vn 0.363034 -0.930206 0.054063
vn 0.230323 -0.970113 0.076374
vn -0.194391 0.979540 -0.052089
vn -0.194391 0.979540 -0.052089
vn -0.316522 0.944786 -0.084811
vn -0.316522 0.944786 -0.084810
vn 0.970436 0.240299 0.022576
vn 0.851710 0.240299 0.465667
vn 0.705009 0.511794 0.490946
vn 0.856030 0.511794 -0.072666
vn 0.363029 0.930209 0.054058
vn 0.314130 0.947318 0.062542
vn 0.230313 0.970116 0.076360
vn 0.230313 0.970116 0.076360
vn 0.237646 0.970114 0.049019
vn 0.303319 0.947316 0.102908
vn 0.341422 0.930206 0.134712
vn 0.237646 0.970114 0.049019
vn -0.194388 -0.979541 -0.052085
vn -0.194388 -0.979541 -0.052085
vn -0.316521 -0.944786 -0.084811
vn -0.316522 -0.944786 -0.084811
vn 0.258813 0.000000 0.965927
vn 0.258813 0.000000 0.965927
vn 0.258813 0.000000 0.965927
vn 0.258813 0.000000 0.965927
vn -0.258818 0.000001 -0.965926
vn -0.258818 0.000001 -0.965926
vn -0.258818 0.000001 -0.965926
vn -0.258818 0.000001 -0.965926
vn 0.258813 0.000000 0.965927
vn 0.258813 0.000000 0.965927
vn 0.258813 0.000000 0.965927
vn 0.258813 0.000000 0.965927
vn 0.088264 -0.337647 0.937125
vn 0.392139 -0.337652 0.855698
vn 0.391650 -0.585533 0.709761
vn 0.015726 -0.585540 0.810491
vn 0.054042 -0.930207 0.363034
vn 0.062533 -0.947317 0.314134
vn 0.076364 -0.970115 0.230316
vn 0.076364 -0.970115 0.230316
vn -0.084811 0.944786 -0.316522
vn -0.084811 0.944786 -0.316522
vn -0.052086 0.979541 -0.194390
vn -0.052086 0.979541 -0.194390
vn 0.049071 -0.970114 0.237635
vn 0.102960 -0.947314 0.303307
vn 0.134762 -0.930205 0.341406
vn 0.049071 -0.970114 0.237635
vn 0.465661 0.240294 0.851715
vn 0.022569 0.240299 0.970436
vn -0.072675 0.511787 0.856033
vn 0.490943 0.511788 0.705016
vn 0.134695 0.930210 0.341419
vn 0.102894 0.947318 0.303317
vn 0.049012 0.970115 0.237645
vn 0.049012 0.970115 0.237645
vn 0.076375 0.970116 0.230309
vn 0.062549 0.947318 0.314128
vn 0.054060 0.930208 0.363029
vn 0.076375 0.970116 0.230309
vn -0.052086 -0.979541 -0.194388
vn -0.052086 -0.979541 -0.194388
vn -0.084812 -0.944786 -0.316521
vn -0.084812 -0.944786 -0.316521
vn -0.707106 0.000000 0.707107
vn -0.707106 0.000000 0.707107
vn -0.707106 0.000000 0.707107
vn -0.707106 0.000000 0.707107
vn 0.707107 -0.000000 -0.707106
vn 0.707107 -0.000000 -0.707106
vn 0.707107 -0.000000 -0.707106
vn 0.707107 -0.000000 -0.707106
vn -0.707105 0.000000 0.707109
vn -0.707105 0.000000 0.707109
vn -0.707105 0.000000 0.707109
vn -0.707105 0.000000 0.707109
vn -0.767436 -0.337663 0.545001
vn -0.544994 -0.337662 0.767441
vn -0.418862 -0.585543 0.694041
vn -0.694040 -0.585545 0.418863
vn -0.287383 -0.930207 0.228309
vn -0.240788 -0.947317 0.211217
vn -0.161281 -0.970114 0.181294
vn -0.161281 -0.970114 0.181294
vn 0.231707 0.944788 -0.231707
vn 0.231707 0.944788 -0.231707
vn 0.142303 0.979541 -0.142300
vn 0.142303 0.979541 -0.142300
vn -0.181289 -0.970113 0.161291
vn -0.211220 -0.947318 0.240779
vn -0.228317 -0.930211 0.287363
vn -0.181289 -0.970113 0.161291
vn -0.504765 0.240306 0.829135
vn -0.829129 0.240302 0.504777
vn -0.777672 0.511793 0.365094
vn -0.365080 0.511790 0.777681
vn -0.228331 0.930209 0.287362
vn -0.211232 0.947318 0.240767
vn -0.181299 0.970116 0.161264
vn -0.181299 0.970116 0.161264
vn -0.161270 0.970115 0.181298
vn -0.240770 0.947318 0.211230
vn -0.287363 0.930209 0.228327
vn -0.161270 0.970115 0.181298
vn 0.142304 -0.979540 -0.142306
vn 0.142304 -0.979540 -0.142306
vn 0.231711 -0.944786 -0.231711
vn 0.231711 -0.944786 -0.231711
vn -0.611709 -0.722298 -0.322643
vn -0.540197 -0.816806 -0.202523
vn 0.268603 -0.063207 -0.961175
vn 0.267622 -0.067914 -0.961128
vn 0.261492 -0.096632 -0.960356
vn 0.261492 -0.096632 -0.960356
vn 0.824785 0.520469 0.221001
vn 0.824785 0.520469 0.221001
vn 0.694218 0.695312 0.186016
vn 0.694218 0.695312 0.186016
vn -0.253731 -0.096642 0.962435
vn -0.248807 -0.067925 0.966168
vn -0.247980 -0.063218 0.966700
vn -0.253731 -0.096642 0.962435
vn -0.569080 -0.816808 -0.094726
vn -0.691068 -0.722305 -0.026484
vn -0.237448 0.000000 0.971400
vn -0.237448 0.000000 0.971400
vn -0.237448 -0.000000 0.971400
vn -0.237448 -0.000000 0.971400
vn -0.706959 0.704013 0.067635
vn -0.585686 0.809615 -0.038675
vn -0.240860 0.054017 0.969055
vn -0.240977 0.057996 0.968796
vn -0.241618 0.082671 0.966843
vn -0.241618 0.082671 0.966843
vn 0.810026 -0.544749 0.217039
vn 0.681129 -0.709054 0.182500
vn 0.681129 -0.709054 0.182500
vn 0.810026 -0.544749 0.217039
vn 0.274177 0.082670 -0.958119
vn 0.275708 0.057995 -0.959490
vn 0.275939 0.054016 -0.959656
vn 0.274177 0.082670 -0.958119
vn -0.526556 0.809614 -0.259352
vn -0.578427 0.704015 -0.412050
vn 0.280066 0.000000 -0.959981
vn 0.280066 0.000000 -0.959981
vn 0.280066 0.000000 -0.959981
vn 0.280066 0.000000 -0.959981
vn -0.026493 -0.722306 -0.691066
vn -0.094762 -0.816806 -0.569076
vn 0.966702 -0.063213 -0.247975
vn 0.966170 -0.067919 -0.248801
vn 0.962437 -0.096637 -0.253726
vn 0.962437 -0.096637 -0.253726
vn 0.221002 0.520468 0.824785
vn 0.221002 0.520468 0.824785
vn 0.186017 0.695312 0.694218
vn 0.186016 0.695312 0.694218
vn -0.960358 -0.096637 0.261486
vn -0.961129 -0.067919 0.267617
vn -0.961176 -0.063213 0.268598
vn -0.960358 -0.096637 0.261486
vn -0.202472 -0.816806 -0.540216
vn -0.322591 -0.722305 -0.611727
vn -0.959981 0.000000 0.280066
vn -0.959981 0.000000 0.280066
vn -0.959981 0.000000 0.280066
vn -0.959981 0.000000 0.280066
vn -0.412058 0.704012 -0.578425
vn -0.259359 0.809614 -0.526554
vn -0.959656 0.054017 0.275938
vn -0.959491 0.057996 0.275707
vn -0.958120 0.082671 0.274175
vn -0.958120 0.082671 0.274175
vn 0.217047 -0.544749 0.810024
vn 0.182509 -0.709053 0.681127
vn 0.182509 -0.709054 0.681127
vn 0.217047 -0.544749 0.810024
vn 0.966844 0.082670 -0.241617
vn 0.968797 0.057995 -0.240977
vn 0.969056 0.054016 -0.240860
vn 0.966844 0.082670 -0.241617
vn -0.038655 0.809616 -0.585686
vn 0.067652 0.704011 -0.706959
vn 0.971400 -0.000000 -0.237448
vn 0.971400 -0.000000 -0.237448
vn 0.971400 -0.000000 -0.237448
vn 0.971400 -0.000000 -0.237448
vn 0.585245 -0.722305 -0.368461
vn 0.445474 -0.816810 -0.366570
vn 0.698103 -0.063211 0.713202
vn 0.698552 -0.067918 0.712328
vn 0.700950 -0.096636 0.706634
vn 0.700950 -0.096636 0.706634
vn -0.603782 0.520471 0.603786
vn -0.508201 0.695314 0.508204
vn -0.508200 0.695314 0.508203
vn -0.603782 0.520471 0.603786
vn -0.706632 -0.096638 -0.700951
vn -0.712328 -0.067921 -0.698553
vn -0.713201 -0.063214 -0.698103
vn -0.706632 -0.096638 -0.700951
vn 0.366590 -0.816806 -0.445466
vn 0.368471 -0.722303 -0.585241
vn -0.722534 0.000000 -0.691336
vn -0.722534 0.000000 -0.691336
vn -0.722534 0.000000 -0.691336
vn -0.722534 0.000000 -0.691336
vn 0.294895 0.704014 -0.646066
vn 0.326323 0.809620 -0.487882
vn -0.718797 0.054016 -0.693118
vn -0.718514 0.057995 -0.693090
vn -0.716504 0.082670 -0.692667
vn -0.716504 0.082670 -0.692667
vn -0.592978 -0.544749 0.592980
vn -0.498620 -0.709053 0.498620
vn -0.498619 -0.709053 0.498620
vn -0.592978 -0.544749 0.592980
vn 0.692668 0.082671 0.716502
vn 0.693090 0.057996 0.718515
vn 0.693118 0.054017 0.718798
vn 0.692668 0.082671 0.716502
vn 0.487882 0.809614 -0.326338
vn 0.646061 0.704011 -0.294911
vn 0.691335 0.000000 0.722534
vn 0.691335 0.000000 0.722534
vn 0.691335 0.000000 0.722534
vn 0.691335 0.000000 0.722534
vn 0.611714 -0.722300 0.322627
vn 0.540200 -0.816803 0.202526
vn -0.268600 -0.063212 0.961176
vn -0.267618 -0.067918 0.961128
vn -0.261486 -0.096636 0.960357
vn -0.261486 -0.096636 0.960357
vn -0.824785 0.520469 -0.221000
vn -0.694219 0.695312 -0.186013
vn -0.694219 0.695312 -0.186013
vn -0.824785 0.520469 -0.221000
vn 0.253727 -0.096638 -0.962436
vn 0.248803 -0.067920 -0.966170
vn 0.247976 -0.063214 -0.966702
vn 0.253727 -0.096638 -0.962436
vn 0.569078 -0.816807 0.094746
vn 0.691067 -0.722306 0.026485
vn 0.237447 -0.000000 -0.971400
vn 0.237447 -0.000000 -0.971400
vn 0.237447 -0.000000 -0.971400
vn 0.237447 -0.000000 -0.971400
vn 0.706960 0.704012 -0.067635
vn 0.585686 0.809615 0.038675
vn 0.240860 0.054017 -0.969055
vn 0.240977 0.057997 -0.968796
vn 0.241618 0.082671 -0.966843
vn 0.241618 0.082671 -0.966843
vn -0.810025 -0.544749 -0.217044
vn -0.681128 -0.709053 -0.182506
vn -0.681128 -0.709053 -0.182506
vn -0.810025 -0.544749 -0.217044
vn -0.274177 0.082670 0.958119
vn -0.275708 0.057995 0.959491
vn -0.275938 0.054015 0.959656
vn -0.274177 0.082670 0.958119
vn 0.526550 0.809615 0.259362
vn 0.578424 0.704012 0.412058
vn -0.280065 0.000000 0.959981
vn -0.280065 0.000000 0.959981
vn -0.280065 0.000000 0.959981
vn -0.280065 0.000000 0.959981
vn 0.026493 -0.722306 0.691066
vn 0.094763 -0.816806 0.569077
vn -0.966702 -0.063213 0.247975
vn -0.966170 -0.067919 0.248801
vn -0.962437 -0.096636 0.253726
vn -0.962437 -0.096636 0.253726
vn -0.221000 0.520469 -0.824785
vn -0.221000 0.520469 -0.824785
vn -0.186015 0.695312 -0.694219
vn -0.186014 0.695312 -0.694219
vn 0.960357 -0.096637 -0.261486
vn 0.961129 -0.067919 -0.267616
vn 0.961176 -0.063213 -0.268598
vn 0.960357 -0.096637 -0.261486
vn 0.202511 -0.816805 0.540203
vn 0.322622 -0.722301 0.611716
vn 0.959981 0.000000 -0.280066
vn 0.959981 0.000000 -0.280066
vn 0.959981 0.000000 -0.280066
vn 0.959981 0.000000 -0.280066
vn 0.412056 0.704010 0.578428
vn 0.259359 0.809614 0.526553
vn 0.959656 0.054017 -0.275938
vn 0.959491 0.057996 -0.275707
vn 0.958119 0.082671 -0.274176
vn 0.958119 0.082671 -0.274176
vn -0.217046 -0.544750 -0.810024
vn -0.182508 -0.709054 -0.681127
vn -0.182508 -0.709054 -0.681127
vn -0.217046 -0.544750 -0.810024
vn -0.966844 0.082670 0.241617
vn -0.968796 0.057996 0.240978
vn -0.969055 0.054016 0.240861
vn -0.966844 0.082670 0.241617
vn 0.038656 0.809617 0.585684
vn -0.067650 0.704012 0.706958
vn -0.971400 -0.000000 0.237448
vn -0.971400 -0.000000 0.237448
vn -0.971400 -0.000000 0.237448
vn -0.971400 -0.000000 0.237448
vn -0.585243 -0.722304 0.368465
vn -0.445472 -0.816811 0.366572
vn -0.698103 -0.063211 -0.713202
vn -0.698552 -0.067918 -0.712328
vn -0.700950 -0.096636 -0.706634
vn -0.700950 -0.096636 -0.706634
vn 0.603780 0.520469 -0.603789
vn 0.603780 0.520469 -0.603789
vn 0.508200 0.695313 -0.508205
vn 0.508199 0.695313 -0.508205
vn 0.706631 -0.096638 0.700953
vn 0.712327 -0.067920 0.698554
vn 0.713201 -0.063214 0.698103
vn 0.706631 -0.096638 0.700953
vn -0.366591 -0.816806 0.445465
vn -0.368473 -0.722304 0.585239
vn 0.722534 0.000000 0.691336
vn 0.722534 0.000000 0.691336
vn 0.722534 0.000000 0.691336
vn 0.722534 0.000000 0.691336
vn -0.294896 0.704013 0.646067
vn -0.326324 0.809617 0.487886
vn 0.718797 0.054016 0.693119
vn 0.718514 0.057995 0.693090
vn 0.716504 0.082670 0.692667
vn 0.716504 0.082670 0.692667
vn 0.592978 -0.544749 -0.592980
vn 0.498619 -0.709053 -0.498620
vn 0.498619 -0.709054 -0.498620
vn 0.592978 -0.544749 -0.592980
vn -0.692667 0.082671 -0.716504
vn -0.693090 0.057997 -0.718515
vn -0.693118 0.054017 -0.718797
vn -0.692667 0.082671 -0.716504
vn -0.487883 0.809615 0.326333
vn -0.646061 0.704011 0.294911
vn -0.691335 0.000000 -0.722534
vn -0.691335 0.000000 -0.722534
vn -0.691335 0.000000 -0.722534
vn -0.691335 0.000000 -0.722534
s 1
g Mace Head
usemtl initialShadingGroup
f 197/235/207 196/236/208 199/791/209 198/789/210
s 2
f 196/236/211 195/239/212 200/240/213 199/791/214
s 3
f 203/241/215 202/242/216 205/796/217 204/794/218
s 1
f 202/242/219 201/245/220 206/246/221 205/796/222
f 201/245/220 267/632/223 268/641/224 206/246/221
f 278/631/225 267/632/223 201/245/220 207/250/226
f 277/634/227 278/631/225 207/250/226 213/252/228
f 276/633/229 277/634/230 213/252/228 219/254/231
f 275/636/232 276/633/229 219/254/231 225/256/233
f 274/635/234 275/636/232 225/256/233 231/258/235
f 273/638/236 274/635/237 231/258/235 237/260/238
f 272/637/239 273/638/236 237/260/238 243/262/240
f 271/640/241 272/637/239 243/262/240 249/264/242
f 270/639/243 271/640/244 249/264/242 255/266/245
f 269/642/246 270/639/243 255/266/245 261/268/247
f 268/792/248 269/642/246 261/268/247 206/793/221
s 2
f 172/269/249 194/270/250 200/240/213 195/239/212
s 3
f 193/795/251 171/272/252 203/241/215 204/794/218
f 171/272/252 173/273/253 209/274/254 203/241/215
s 2
f 174/275/255 172/269/249 195/239/212 210/276/256
s 3
f 173/273/253 175/277/257 215/278/258 209/274/254
s 2
f 176/279/259 174/275/255 210/276/256 216/280/260
s 3
f 175/277/257 177/281/261 221/282/262 215/278/258
s 2
f 178/283/263 176/279/259 216/280/260 222/284/264
s 3
f 177/281/261 179/285/265 227/286/266 221/282/262
s 2
f 180/287/267 178/283/263 222/284/264 228/288/268
s 3
f 179/285/265 181/289/269 233/290/270 227/286/266
s 2
f 182/291/271 180/287/267 228/288/268 234/292/272
s 3
f 181/289/269 183/293/273 239/294/274 233/290/270
s 2
f 184/295/275 182/291/271 234/292/272 240/296/276
s 3
f 183/293/273 185/297/277 245/298/278 239/294/274
s 2
f 186/299/279 184/295/275 240/296/276 246/300/280
s 3
f 185/297/277 187/301/281 251/302/282 245/298/278
s 2
f 188/303/283 186/299/279 246/300/280 252/304/284
s 3
f 187/301/281 189/305/285 257/306/286 251/302/282
s 2
f 190/307/287 188/303/283 252/304/284 258/308/288
s 3
f 189/305/285 191/309/289 263/310/290 257/306/286
s 2
f 192/311/291 190/307/287 258/308/288 264/312/292
s 3
f 191/309/289 193/271/251 204/244/218 263/310/290
s 2
f 194/787/250 192/311/291 264/312/292 200/788/213
f 195/239/212 196/236/211 211/313/293 210/276/256
s 1
f 196/236/208 197/235/207 212/314/294 211/313/295
f 201/245/220 202/242/219 208/315/296 207/250/226
s 3
f 202/242/216 203/241/215 209/274/254 208/315/297
s 1
f 207/250/226 208/315/296 214/316/298 213/252/228
s 3
f 208/315/297 209/274/254 215/278/258 214/316/299
s 2
f 210/276/256 211/313/293 217/317/300 216/280/260
s 1
f 211/313/295 212/314/294 218/318/301 217/317/302
f 213/252/228 214/316/298 220/319/303 219/254/231
s 3
f 214/316/299 215/278/258 221/282/262 220/319/304
s 2
f 216/280/260 217/317/300 223/320/305 222/284/264
s 1
f 217/317/302 218/318/301 224/321/306 223/320/307
f 219/254/231 220/319/303 226/322/308 225/256/233
s 3
f 220/319/304 221/282/262 227/286/266 226/322/309
s 2
f 222/284/264 223/320/305 229/323/310 228/288/268
s 1
f 223/320/307 224/321/306 230/324/311 229/323/312
f 225/256/233 226/322/308 232/325/313 231/258/235
s 3
f 226/322/309 227/286/266 233/290/270 232/325/314
s 2
f 228/288/268 229/323/310 235/326/315 234/292/272
s 1
f 229/323/312 230/324/311 236/327/316 235/326/317
f 231/258/235 232/325/313 238/328/318 237/260/238
s 3
f 232/325/314 233/290/270 239/294/274 238/328/319
s 2
f 234/292/272 235/326/315 241/329/320 240/296/276
s 1
f 235/326/317 236/327/316 242/330/321 241/329/322
f 237/260/238 238/328/318 244/331/323 243/262/240
s 3
f 238/328/319 239/294/274 245/298/278 244/331/324
s 2
f 240/296/276 241/329/320 247/332/325 246/300/280
s 1
f 241/329/322 242/330/321 248/333/326 247/332/327
f 243/262/240 244/331/323 250/334/328 249/264/242
s 3
f 244/331/324 245/298/278 251/302/282 250/334/329
s 2
f 246/300/280 247/332/325 253/335/330 252/304/284
s 1
f 247/332/327 248/333/326 254/336/331 253/335/332
f 249/264/242 250/334/328 256/337/333 255/266/245
s 3
f 250/334/329 251/302/282 257/306/286 256/337/334
s 2
f 252/304/284 253/335/330 259/338/335 258/308/288
s 1
f 253/335/332 254/336/331 260/339/336 259/338/337
f 255/266/245 256/337/333 262/340/338 261/268/247
s 3
f 256/337/334 257/306/286 263/310/290 262/340/339
s 2
f 258/308/288 259/338/335 265/341/340 264/312/292
s 1
f 259/338/337 260/339/336 266/342/341 265/341/342
s 3
f 204/244/218 205/243/217 262/340/339 263/310/290
s 1
f 205/243/222 206/793/221 261/268/247 262/340/338
f 198/238/210 199/237/209 265/341/342 266/342/341
s 2
f 199/237/214 200/788/213 264/312/292 265/341/340
s 1
f 268/641/224 267/632/223 279/620/343 280/790/344
f 281/630/345 282/627/346 270/639/243 269/642/246
f 283/628/347 284/625/348 272/637/239 271/640/241
f 285/626/349 286/623/350 274/635/237 273/638/236
f 287/624/351 288/621/352 276/633/229 275/636/232
f 289/622/353 290/619/354 278/631/225 277/634/227
f 280/790/344 279/620/343 197/235/207 198/789/210
f 266/342/341 281/630/345 280/629/355 198/238/210
f 260/339/336 282/627/346 281/630/345 266/342/341
f 254/336/331 283/628/356 282/627/346 260/339/336
f 248/333/326 284/625/348 283/628/347 254/336/331
f 242/330/321 285/626/349 284/625/348 248/333/326
f 236/327/316 286/623/350 285/626/349 242/330/321
f 230/324/311 287/624/351 286/623/357 236/327/316
f 224/321/306 288/621/352 287/624/351 230/324/311
f 218/318/301 289/622/358 288/621/352 224/321/306
f 212/314/294 290/619/354 289/622/353 218/318/301
f 197/235/207 279/620/343 290/619/354 212/314/294
s 8
f 428/355/359 429/735/360 293/357/361 292/703/362
s 9
f 434/359/363 423/360/364 291/361/365 294/701/366
s 10
f 452/363/367 453/691/368 297/365/369 296/694/370
s 11
f 458/367/371 447/368/372 295/369/373 298/732/374
s 12
f 476/371/375 477/681/376 301/373/377 300/684/378
s 13
f 482/375/379 471/376/380 299/377/381 302/680/382
s 14
f 500/379/383 501/669/384 305/381/385 304/672/386
s 15
f 506/383/387 495/384/388 303/385/389 306/668/390
s 16
f 524/387/391 525/657/392 309/389/393 308/660/394
s 17
f 530/391/395 519/392/396 307/393/397 310/656/398
s 18
f 548/395/399 549/645/400 313/397/401 312/648/402
s 19
f 554/399/403 543/400/404 311/401/405 314/644/406
s 20
f 316/403/407 315/404/408 317/405/409 318/406/410
s 21
f 320/407/411 319/408/412 321/409/413 322/410/414
s off
f 323/763/415 324/764/416 325/413/417 326/414/418
s 20
f 426/415/419 427/416/420 316/403/407 318/406/410
s 21
f 319/408/412 424/417/421 425/418/422 321/409/413
s off
f 328/783/423 327/784/424 329/421/425 330/422/426
s 21
f 432/423/427 433/424/428 320/407/411 322/410/414
s 20
f 315/404/408 430/425/429 431/426/430 317/405/409
s 22
f 332/427/431 331/428/432 333/429/433 334/430/434
s 23
f 335/431/435 336/432/436 337/433/437 338/434/438
s off
f 339/759/439 340/760/440 341/437/441 342/438/442
s 22
f 450/439/443 451/440/444 332/427/431 334/430/434
s 23
f 336/432/436 448/441/445 449/442/446 337/433/437
s off
f 344/779/447 343/780/448 345/445/449 346/446/450
s 23
f 456/447/451 457/448/452 335/431/435 338/434/438
s 22
f 331/428/432 454/449/453 455/450/454 333/429/433
s 24
f 348/451/455 347/452/456 349/453/457 350/454/458
s 25
f 351/455/459 352/456/460 353/457/461 354/458/462
s off
f 355/755/463 356/756/464 357/461/465 358/462/466
s 24
f 474/463/467 475/464/468 348/451/455 350/454/458
s 25
f 352/456/460 472/465/469 473/466/470 353/457/461
s off
f 360/775/471 359/776/472 361/469/473 362/470/474
s 25
f 480/471/475 481/472/476 351/455/459 354/458/462
s 24
f 347/452/456 478/473/477 479/474/478 349/453/457
s 26
f 364/475/479 363/476/480 365/477/481 366/478/482
s 27
f 367/479/483 368/480/484 369/481/485 370/482/486
s off
f 371/743/487 372/744/488 373/485/489 374/486/490
s 26
f 498/487/491 499/488/492 364/475/479 366/478/482
s 27
f 368/480/484 496/489/493 497/490/494 369/481/485
s off
f 376/739/495 375/740/496 377/493/497 378/494/498
s 27
f 504/495/499 505/496/500 367/479/483 370/482/486
s 26
f 363/476/480 502/497/501 503/498/502 365/477/481
s 28
f 380/499/503 379/500/504 381/501/505 382/502/506
s 29
f 383/503/507 384/504/508 385/505/509 386/506/510
s off
f 387/771/511 388/772/512 389/509/513 390/510/514
s 28
f 522/511/515 523/512/516 380/499/503 382/502/506
s 29
f 384/504/508 520/513/517 521/514/518 385/505/509
s off
f 392/751/519 391/752/520 393/517/521 394/518/522
s 29
f 528/519/523 529/520/524 383/503/507 386/506/510
s 28
f 379/500/504 526/521/525 527/522/526 381/501/505
s 30
f 396/523/527 395/524/528 397/525/529 398/526/530
s 31
f 399/527/531 400/528/532 401/529/533 402/530/534
s off
f 403/747/535 404/748/536 405/533/537 406/534/538
s 30
f 546/535/539 547/536/540 396/523/527 398/526/530
s 31
f 400/528/532 544/537/541 545/538/542 401/529/533
s off
f 408/767/543 407/768/544 409/541/545 410/542/546
s 31
f 552/543/547 553/544/548 399/527/531 402/530/534
s 30
f 395/524/528 550/545/549 551/546/550 397/525/529
s off
f 292/358/551 293/736/552 315/404/553 316/403/554
f 294/362/555 291/705/556 319/408/557 320/407/558
f 322/410/559 321/409/560 318/406/561 317/405/562
s 32
f 280/344/563 281/765/564 324/764/565 323/763/566
f 427/416/567 428/702/568 292/358/569 316/403/570
s 34
f 425/418/571 426/415/572 318/406/573 321/409/574
s 32
f 291/705/575 423/704/576 424/417/577 319/408/578
s 36
f 269/267/579 268/786/580 327/784/581 328/783/582
f 433/424/583 434/700/584 294/362/585 320/407/586
f 293/736/587 429/356/588 430/425/589 315/404/590
s 39
f 322/410/591 317/405/592 431/426/593 432/423/594
s off
f 296/366/595 297/692/596 331/428/597 332/427/598
f 334/430/599 333/429/600 338/434/601 337/433/602
f 298/370/603 295/696/604 336/432/605 335/431/606
s 40
f 282/346/607 283/761/608 340/760/609 339/759/610
f 451/440/611 452/693/612 296/366/613 332/427/614
s 42
f 449/442/615 450/439/616 334/430/617 337/433/618
s 40
f 295/696/619 447/695/620 448/441/621 336/432/622
s 44
f 271/263/623 270/782/624 343/780/625 344/779/626
f 457/448/627 458/731/628 298/370/629 335/431/630
f 297/692/631 453/364/632 454/449/633 331/428/634
s 47
f 338/434/635 333/429/636 455/450/637 456/447/638
s off
f 300/374/639 301/682/640 347/452/641 348/451/642
f 350/454/643 349/453/644 354/458/645 353/457/646
f 302/378/647 299/686/648 352/456/649 351/455/650
s 48
f 284/348/651 285/757/652 356/756/653 355/755/654
f 475/464/655 476/683/656 300/374/657 348/451/658
f 299/686/659 471/685/660 472/465/661 352/456/662
s 51
f 473/466/663 474/463/664 350/454/665 353/457/666
s 52
f 273/259/667 272/778/668 359/776/669 360/775/670
f 481/472/671 482/679/672 302/378/673 351/455/674
f 301/682/675 477/372/676 478/473/677 347/452/678
s 55
f 354/458/679 349/453/680 479/474/681 480/471/682
s off
f 304/382/683 305/670/684 363/476/685 364/475/686
f 366/478/687 365/477/688 370/482/689 369/481/690
f 306/386/691 303/674/692 368/480/693 367/479/694
s 56
f 286/350/695 287/745/696 372/744/697 371/743/698
f 499/488/699 500/671/700 304/382/701 364/475/702
f 303/674/703 495/673/704 496/489/705 368/480/706
s 59
f 366/478/707 369/481/708 497/490/709 498/487/710
s 60
f 275/255/711 274/742/712 375/740/713 376/739/714
f 505/496/715 506/667/716 306/386/717 367/479/718
f 305/670/719 501/380/720 502/497/721 363/476/722
s 63
f 370/482/723 365/477/724 503/498/725 504/495/726
s off
f 308/390/727 309/658/728 379/500/729 380/499/730
f 382/502/731 381/501/732 386/506/733 385/505/734
f 310/394/735 307/662/736 384/504/737 383/503/738
s 64
f 288/352/739 289/773/740 388/772/741 387/771/742
f 523/512/743 524/659/744 308/390/745 380/499/746
s 66
f 521/514/747 522/511/748 382/502/749 385/505/750
s 64
f 307/662/751 519/661/752 520/513/753 384/504/754
s 68
f 277/251/755 276/754/756 391/752/757 392/751/758
f 529/520/759 530/655/760 310/394/761 383/503/762
f 309/658/763 525/388/764 526/521/765 379/500/766
s 71
f 386/506/767 381/501/768 527/522/769 528/519/770
s off
f 312/398/771 313/646/772 395/524/773 396/523/774
f 398/526/775 397/525/776 402/530/777 401/529/778
f 314/402/779 311/650/780 400/528/781 399/527/782
s 72
f 290/354/783 279/749/784 404/748/785 403/747/786
f 547/536/787 548/647/788 312/398/789 396/523/790
s 74
f 545/538/791 546/535/792 398/526/793 401/529/794
s 72
f 311/650/795 543/649/796 544/537/797 400/528/798
s 76
f 267/247/799 278/770/800 407/768/801 408/767/802
f 553/544/803 554/643/804 314/402/805 399/527/806
f 313/646/807 549/396/808 550/545/809 395/524/810
s 79
f 402/530/811 397/525/812 551/546/813 552/543/814
s 32
f 412/547/815 411/708/816 280/766/563 323/411/566
s 21
f 413/549/817 412/547/818 323/411/819 326/414/820
s 34
f 326/414/821 325/413/822 414/550/823 413/549/824
s 20
f 324/412/825 415/551/826 414/550/827 325/413/828
s 32
f 281/345/564 416/707/829 415/551/830 324/412/565
s 8
f 281/729/831 269/738/832 417/737/833 416/552/834
s 36
f 418/554/835 417/553/836 269/785/579 328/419/582
s 20
f 419/555/837 418/554/838 328/419/839 330/422/840
s 39
f 329/421/841 420/556/842 419/555/843 330/422/844
s 21
f 327/420/845 421/557/846 420/556/847 329/421/848
s 36
f 268/248/580 422/706/849 421/557/850 327/420/581
s 9
f 268/728/851 280/730/852 411/548/853 422/558/854
s 32
f 424/417/577 423/704/576 411/708/816 412/547/815
s 21
f 425/418/422 424/417/421 412/547/818 413/549/817
s 34
f 413/549/824 414/550/823 426/415/572 425/418/571
s 20
f 414/550/827 415/551/826 427/416/420 426/415/419
s 32
f 415/551/830 416/707/829 428/702/568 427/416/567
s 8
f 416/552/834 417/737/833 429/735/360 428/355/359
s 36
f 430/425/589 429/356/588 417/553/836 418/554/835
s 20
f 431/426/430 430/425/429 418/554/838 419/555/837
s 39
f 432/423/594 431/426/593 419/555/843 420/556/842
s 21
f 420/556/847 421/557/846 433/424/428 432/423/427
s 36
f 421/557/850 422/706/849 434/700/584 433/424/583
s 9
f 422/558/854 411/548/853 423/360/364 434/359/363
s 40
f 436/559/855 435/699/856 282/762/607 339/435/610
s 23
f 437/561/857 436/559/858 339/435/859 342/438/860
s 42
f 342/438/861 341/437/862 438/562/863 437/561/864
s 22
f 340/436/865 439/563/866 438/562/867 341/437/868
s 40
f 283/347/608 440/698/869 439/563/870 340/436/609
s 10
f 283/726/871 271/725/872 441/697/873 440/564/874
s 44
f 442/566/875 441/565/876 271/781/623 344/443/626
s 22
f 443/567/877 442/566/878 344/443/879 346/446/880
s 47
f 345/445/881 444/568/882 443/567/883 346/446/884
s 23
f 343/444/885 445/569/886 444/568/887 345/445/888
s 44
f 270/265/624 446/733/889 445/569/890 343/444/625
s 11
f 270/734/891 282/727/892 435/560/893 446/570/894
s 40
f 448/441/621 447/695/620 435/699/856 436/559/855
s 23
f 449/442/446 448/441/445 436/559/858 437/561/857
s 42
f 437/561/864 438/562/863 450/439/616 449/442/615
s 22
f 438/562/867 439/563/866 451/440/444 450/439/443
s 40
f 439/563/870 440/698/869 452/693/612 451/440/611
s 10
f 440/564/874 441/697/873 453/691/368 452/363/367
s 44
f 454/449/633 453/364/632 441/565/876 442/566/875
s 22
f 455/450/454 454/449/453 442/566/878 443/567/877
s 47
f 456/447/638 455/450/637 443/567/883 444/568/882
s 23
f 444/568/887 445/569/886 457/448/452 456/447/451
s 44
f 445/569/890 446/733/889 458/731/628 457/448/627
s 11
f 446/570/894 435/560/893 447/368/372 458/367/371
s 48
f 460/571/895 459/690/896 284/758/651 355/459/654
s 25
f 461/573/897 460/571/898 355/459/899 358/462/900
s 51
f 357/461/901 462/574/902 461/573/903 358/462/904
s 24
f 356/460/905 463/575/906 462/574/907 357/461/908
s 48
f 285/349/652 464/689/909 463/575/910 356/460/653
s 12
f 285/723/911 273/722/912 465/688/913 464/576/914
s 52
f 466/578/915 465/577/916 273/777/667 360/467/670
s 24
f 467/579/917 466/578/918 360/467/919 362/470/920
s 55
f 361/469/921 468/580/922 467/579/923 362/470/924
s 25
f 359/468/925 469/581/926 468/580/927 361/469/928
s 52
f 272/261/668 470/687/929 469/581/930 359/468/669
s 13
f 272/721/931 284/724/932 459/572/933 470/582/934
s 48
f 472/465/661 471/685/660 459/690/896 460/571/895
s 25
f 473/466/470 472/465/469 460/571/898 461/573/897
s 51
f 461/573/903 462/574/902 474/463/664 473/466/663
s 24
f 462/574/907 463/575/906 475/464/468 474/463/467
s 48
f 463/575/910 464/689/909 476/683/656 475/464/655
s 12
f 464/576/914 465/688/913 477/681/376 476/371/375
s 52
f 478/473/677 477/372/676 465/577/916 466/578/915
s 24
f 479/474/478 478/473/477 466/578/918 467/579/917
s 55
f 480/471/682 479/474/681 467/579/923 468/580/922
s 25
f 468/580/927 469/581/926 481/472/476 480/471/475
s 52
f 469/581/930 470/687/929 482/679/672 481/472/671
s 13
f 470/582/934 459/572/933 471/376/380 482/375/379
s 56
f 484/583/935 483/678/936 286/746/695 371/483/698
s 27
f 485/585/937 484/583/938 371/483/939 374/486/940
s 59
f 373/485/941 486/586/942 485/585/943 374/486/944
s 26
f 372/484/945 487/587/946 486/586/947 373/485/948
s 56
f 287/351/696 488/677/949 487/587/950 372/484/697
s 14
f 287/719/951 275/718/952 489/676/953 488/588/954
s 60
f 490/590/955 489/589/956 275/741/711 376/491/714
s 26
f 491/591/957 490/590/958 376/491/959 378/494/960
s 63
f 377/493/961 492/592/962 491/591/963 378/494/964
s 27
f 375/492/965 493/593/966 492/592/967 377/493/968
s 60
f 274/257/712 494/675/969 493/593/970 375/492/713
s 15
f 274/717/971 286/720/972 483/584/973 494/594/974
s 56
f 496/489/705 495/673/704 483/678/936 484/583/935
s 27
f 497/490/494 496/489/493 484/583/938 485/585/937
s 59
f 498/487/710 497/490/709 485/585/943 486/586/942
s 26
f 486/586/947 487/587/946 499/488/492 498/487/491
s 56
f 487/587/950 488/677/949 500/671/700 499/488/699
s 14
f 488/588/954 489/676/953 501/669/384 500/379/383
s 60
f 502/497/721 501/380/720 489/589/956 490/590/955
s 26
f 503/498/502 502/497/501 490/590/958 491/591/957
s 63
f 504/495/726 503/498/725 491/591/963 492/592/962
s 27
f 492/592/967 493/593/966 505/496/500 504/495/499
s 60
f 493/593/970 494/675/969 506/667/716 505/496/715
s 15
f 494/594/974 483/584/973 495/384/388 506/383/387
s 64
f 508/595/975 507/666/976 288/774/739 387/507/742
s 29
f 509/597/977 508/595/978 387/507/979 390/510/980
s 66
f 390/510/981 389/509/982 510/598/983 509/597/984
s 28
f 388/508/985 511/599/986 510/598/987 389/509/988
s 64
f 289/353/740 512/665/989 511/599/990 388/508/741
s 16
f 289/715/991 277/714/992 513/664/993 512/600/994
s 68
f 514/602/995 513/601/996 277/753/755 392/515/758
s 28
f 515/603/997 514/602/998 392/515/999 394/518/1000
s 71
f 393/517/1001 516/604/1002 515/603/1003 394/518/1004
s 29
f 391/516/1005 517/605/1006 516/604/1007 393/517/1008
s 68
f 276/253/756 518/663/1009 517/605/1010 391/516/757
s 17
f 276/713/1011 288/716/1012 507/596/1013 518/606/1014
s 64
f 520/513/753 519/661/752 507/666/976 508/595/975
s 29
f 521/514/518 520/513/517 508/595/978 509/597/977
s 66
f 509/597/984 510/598/983 522/511/748 521/514/747
s 28
f 510/598/987 511/599/986 523/512/516 522/511/515
s 64
f 511/599/990 512/665/989 524/659/744 523/512/743
s 16
f 512/600/994 513/664/993 525/657/392 524/387/391
s 68
f 526/521/765 525/388/764 513/601/996 514/602/995
s 28
f 527/522/526 526/521/525 514/602/998 515/603/997
s 71
f 528/519/770 527/522/769 515/603/1003 516/604/1002
s 29
f 516/604/1007 517/605/1006 529/520/524 528/519/523
s 68
f 517/605/1010 518/663/1009 530/655/760 529/520/759
s 17
f 518/606/1014 507/596/1013 519/392/396 530/391/395
s 72
f 532/607/1015 531/654/1016 290/750/783 403/531/786
s 31
f 533/609/1017 532/607/1018 403/531/1019 406/534/1020
s 74
f 406/534/1021 405/533/1022 534/610/1023 533/609/1024
s 30
f 404/532/1025 535/611/1026 534/610/1027 405/533/1028
s 72
f 279/343/784 536/653/1029 535/611/1030 404/532/785
s 18
f 279/711/1031 267/710/1032 537/652/1033 536/612/1034
s 76
f 538/614/1035 537/613/1036 267/769/799 408/539/802
s 30
f 539/615/1037 538/614/1038 408/539/1039 410/542/1040
s 79
f 409/541/1041 540/616/1042 539/615/1043 410/542/1044
s 31
f 407/540/1045 541/617/1046 540/616/1047 409/541/1048
s 76
f 278/249/800 542/651/1049 541/617/1050 407/540/801
s 19
f 278/709/1051 290/712/1052 531/608/1053 542/618/1054
s 72
f 544/537/797 543/649/796 531/654/1016 532/607/1015
s 31
f 545/538/542 544/537/541 532/607/1018 533/609/1017
s 74
f 533/609/1024 534/610/1023 546/535/792 545/538/791
s 30
f 534/610/1027 535/611/1026 547/536/540 546/535/539
s 72
f 535/611/1030 536/653/1029 548/647/788 547/536/787
s 18
f 536/612/1034 537/652/1033 549/645/400 548/395/399
s 76
f 550/545/809 549/396/808 537/613/1036 538/614/1035
s 30
f 551/546/550 550/545/549 538/614/1038 539/615/1037
s 79
f 552/543/814 551/546/813 539/615/1043 540/616/1042
s 31
f 540/616/1047 541/617/1046 553/544/548 552/543/547
s 76
f 541/617/1050 542/651/1049 554/643/804 553/544/803
s 19
f 542/618/1054 531/608/1053 543/400/404 554/399/403
