%YAML 1.1
%TAG !u! tag:unity3d.com,2011:
--- !u!1001 &4020251078746053055
PrefabInstance:
  m_ObjectHideFlags: 0
  serializedVersion: 2
  m_Modification:
    m_TransformParent: {fileID: 2382484942164921311}
    m_Modifications:
    - target: {fileID: 1981552001649860323, guid: a670e5e999d5d1941bd1663f2ee44550,
        type: 3}
      propertyPath: m_Name
      value: EndGoalParticleEffect
      objectReference: {fileID: 0}
    - target: {fileID: 1981552001649860320, guid: a670e5e999d5d1941bd1663f2ee44550,
        type: 3}
      propertyPath: m_LocalPosition.x
      value: 0
      objectReference: {fileID: 0}
    - target: {fileID: 1981552001649860320, guid: a670e5e999d5d1941bd1663f2ee44550,
        type: 3}
      propertyPath: m_LocalPosition.y
      value: 6.25
      objectReference: {fileID: 0}
    - target: {fileID: 1981552001649860320, guid: a670e5e999d5d1941bd1663f2ee44550,
        type: 3}
      propertyPath: m_LocalPosition.z
      value: 0
      objectReference: {fileID: 0}
    - target: {fileID: 1981552001649860320, guid: a670e5e999d5d1941bd1663f2ee44550,
        type: 3}
      propertyPath: m_LocalRotation.x
      value: -0
      objectReference: {fileID: 0}
    - target: {fileID: 1981552001649860320, guid: a670e5e999d5d1941bd1663f2ee44550,
        type: 3}
      propertyPath: m_LocalRotation.y
      value: -0
      objectReference: {fileID: 0}
    - target: {fileID: 1981552001649860320, guid: a670e5e999d5d1941bd1663f2ee44550,
        type: 3}
      propertyPath: m_LocalRotation.z
      value: -0
      objectReference: {fileID: 0}
    - target: {fileID: 1981552001649860320, guid: a670e5e999d5d1941bd1663f2ee44550,
        type: 3}
      propertyPath: m_LocalRotation.w
      value: 1
      objectReference: {fileID: 0}
    - target: {fileID: 1981552001649860320, guid: a670e5e999d5d1941bd1663f2ee44550,
        type: 3}
      propertyPath: m_RootOrder
      value: 4
      objectReference: {fileID: 0}
    - target: {fileID: 1981552001649860320, guid: a670e5e999d5d1941bd1663f2ee44550,
        type: 3}
      propertyPath: m_LocalEulerAnglesHint.x
      value: 0
      objectReference: {fileID: 0}
    - target: {fileID: 1981552001649860320, guid: a670e5e999d5d1941bd1663f2ee44550,
        type: 3}
      propertyPath: m_LocalEulerAnglesHint.y
      value: 0
      objectReference: {fileID: 0}
    - target: {fileID: 1981552001649860320, guid: a670e5e999d5d1941bd1663f2ee44550,
        type: 3}
      propertyPath: m_LocalEulerAnglesHint.z
      value: 0
      objectReference: {fileID: 0}
    - target: {fileID: 1981552001649860320, guid: a670e5e999d5d1941bd1663f2ee44550,
        type: 3}
      propertyPath: m_LocalScale.x
      value: 1.2932326
      objectReference: {fileID: 0}
    - target: {fileID: 1981552001649860320, guid: a670e5e999d5d1941bd1663f2ee44550,
        type: 3}
      propertyPath: m_LocalScale.y
      value: 1.2932326
      objectReference: {fileID: 0}
    - target: {fileID: 1981552001649860320, guid: a670e5e999d5d1941bd1663f2ee44550,
        type: 3}
      propertyPath: m_LocalScale.z
      value: 1.2932326
      objectReference: {fileID: 0}
    m_RemovedComponents: []
  m_SourcePrefab: {fileID: 100100000, guid: a670e5e999d5d1941bd1663f2ee44550, type: 3}
--- !u!1001 &4020251079007827388
PrefabInstance:
  m_ObjectHideFlags: 0
  serializedVersion: 2
  m_Modification:
    m_TransformParent: {fileID: 0}
    m_Modifications:
    - target: {fileID: 1642604155539115726, guid: 1757ff718342e73438a31d3791444292,
        type: 3}
      propertyPath: fsm.states.Array.data[0].transitions.Array.size
      value: 1
      objectReference: {fileID: 0}
    - target: {fileID: 1642604155539115726, guid: 1757ff718342e73438a31d3791444292,
        type: 3}
      propertyPath: fsm.states.Array.data[1].transitions.Array.size
      value: 1
      objectReference: {fileID: 0}
    - target: {fileID: 1642604155539115726, guid: 1757ff718342e73438a31d3791444292,
        type: 3}
      propertyPath: fsm.states.Array.data[2].actionData.actionNames.Array.size
      value: 10
      objectReference: {fileID: 0}
    - target: {fileID: 1642604155539115726, guid: 1757ff718342e73438a31d3791444292,
        type: 3}
      propertyPath: fsm.states.Array.data[2].actionData.customNames.Array.size
      value: 10
      objectReference: {fileID: 0}
    - target: {fileID: 1642604155539115726, guid: 1757ff718342e73438a31d3791444292,
        type: 3}
      propertyPath: fsm.states.Array.data[2].actionData.actionEnabled.Array.size
      value: 10
      objectReference: {fileID: 0}
    - target: {fileID: 1642604155539115726, guid: 1757ff718342e73438a31d3791444292,
        type: 3}
      propertyPath: fsm.states.Array.data[2].actionData.actionIsOpen.Array.size
      value: 10
      objectReference: {fileID: 0}
    - target: {fileID: 1642604155539115726, guid: 1757ff718342e73438a31d3791444292,
        type: 3}
      propertyPath: fsm.states.Array.data[2].actionData.actionStartIndex.Array.size
      value: 10
      objectReference: {fileID: 0}
    - target: {fileID: 1642604155539115726, guid: 1757ff718342e73438a31d3791444292,
        type: 3}
      propertyPath: fsm.states.Array.data[2].actionData.actionHashCodes.Array.size
      value: 10
      objectReference: {fileID: 0}
    - target: {fileID: 1642604155539115726, guid: 1757ff718342e73438a31d3791444292,
        type: 3}
      propertyPath: fsm.states.Array.data[2].actionData.fsmPropertyParams.Array.size
      value: 0
      objectReference: {fileID: 0}
    - target: {fileID: 1642604155539115726, guid: 1757ff718342e73438a31d3791444292,
        type: 3}
      propertyPath: fsm.states.Array.data[2].actionData.byteData.Array.size
      value: 18
      objectReference: {fileID: 0}
    - target: {fileID: 1642604155539115726, guid: 1757ff718342e73438a31d3791444292,
        type: 3}
      propertyPath: fsm.states.Array.data[2].actionData.paramDataType.Array.size
      value: 46
      objectReference: {fileID: 0}
    - target: {fileID: 1642604155539115726, guid: 1757ff718342e73438a31d3791444292,
        type: 3}
      propertyPath: fsm.states.Array.data[2].actionData.paramName.Array.size
      value: 46
      objectReference: {fileID: 0}
    - target: {fileID: 1642604155539115726, guid: 1757ff718342e73438a31d3791444292,
        type: 3}
      propertyPath: fsm.states.Array.data[2].actionData.paramDataPos.Array.size
      value: 46
      objectReference: {fileID: 0}
    - target: {fileID: 1642604155539115726, guid: 1757ff718342e73438a31d3791444292,
        type: 3}
      propertyPath: fsm.states.Array.data[2].actionData.paramByteDataSize.Array.size
      value: 46
      objectReference: {fileID: 0}
    - target: {fileID: 1642604155539115726, guid: 1757ff718342e73438a31d3791444292,
        type: 3}
      propertyPath: fsm.states.Array.data[2].actionData.fsmOwnerDefaultParams.Array.size
      value: 9
      objectReference: {fileID: 0}
    - target: {fileID: 1642604155539115726, guid: 1757ff718342e73438a31d3791444292,
        type: 3}
      propertyPath: fsm.states.Array.data[2].actionData.fsmBoolParams.Array.size
      value: 18
      objectReference: {fileID: 0}
    - target: {fileID: 1642604155539115726, guid: 1757ff718342e73438a31d3791444292,
        type: 3}
      propertyPath: fsm.states.Array.data[2].actionData.stringParams.Array.size
      value: 1
      objectReference: {fileID: 0}
    - target: {fileID: 1642604155539115726, guid: 1757ff718342e73438a31d3791444292,
        type: 3}
      propertyPath: fsm.states.Array.size
      value: 4
      objectReference: {fileID: 0}
    - target: {fileID: 1642604155539115726, guid: 1757ff718342e73438a31d3791444292,
        type: 3}
      propertyPath: fsm.states.Array.data[2].transitions.Array.size
      value: 1
      objectReference: {fileID: 0}
    - target: {fileID: 1642604155539115726, guid: 1757ff718342e73438a31d3791444292,
        type: 3}
      propertyPath: fsm.states.Array.data[3].actionData.actionNames.Array.size
      value: 1
      objectReference: {fileID: 0}
    - target: {fileID: 1642604155539115726, guid: 1757ff718342e73438a31d3791444292,
        type: 3}
      propertyPath: fsm.states.Array.data[3].actionData.customNames.Array.size
      value: 1
      objectReference: {fileID: 0}
    - target: {fileID: 1642604155539115726, guid: 1757ff718342e73438a31d3791444292,
        type: 3}
      propertyPath: fsm.states.Array.data[3].actionData.actionEnabled.Array.size
      value: 1
      objectReference: {fileID: 0}
    - target: {fileID: 1642604155539115726, guid: 1757ff718342e73438a31d3791444292,
        type: 3}
      propertyPath: fsm.states.Array.data[3].actionData.actionIsOpen.Array.size
      value: 1
      objectReference: {fileID: 0}
    - target: {fileID: 1642604155539115726, guid: 1757ff718342e73438a31d3791444292,
        type: 3}
      propertyPath: fsm.states.Array.data[3].actionData.actionStartIndex.Array.size
      value: 1
      objectReference: {fileID: 0}
    - target: {fileID: 1642604155539115726, guid: 1757ff718342e73438a31d3791444292,
        type: 3}
      propertyPath: fsm.states.Array.data[3].actionData.actionHashCodes.Array.size
      value: 1
      objectReference: {fileID: 0}
    - target: {fileID: 1642604155539115726, guid: 1757ff718342e73438a31d3791444292,
        type: 3}
      propertyPath: fsm.states.Array.data[3].actionData.fsmBoolParams.Array.size
      value: 1
      objectReference: {fileID: 0}
    - target: {fileID: 1642604155539115726, guid: 1757ff718342e73438a31d3791444292,
        type: 3}
      propertyPath: fsm.states.Array.data[3].actionData.paramDataType.Array.size
      value: 1
      objectReference: {fileID: 0}
    - target: {fileID: 1642604155539115726, guid: 1757ff718342e73438a31d3791444292,
        type: 3}
      propertyPath: fsm.states.Array.data[3].actionData.paramName.Array.size
      value: 1
      objectReference: {fileID: 0}
    - target: {fileID: 1642604155539115726, guid: 1757ff718342e73438a31d3791444292,
        type: 3}
      propertyPath: fsm.states.Array.data[3].actionData.paramDataPos.Array.size
      value: 1
      objectReference: {fileID: 0}
    - target: {fileID: 1642604155539115726, guid: 1757ff718342e73438a31d3791444292,
        type: 3}
      propertyPath: fsm.states.Array.data[3].actionData.paramByteDataSize.Array.size
      value: 1
      objectReference: {fileID: 0}
    - target: {fileID: 1642604155539115726, guid: 1757ff718342e73438a31d3791444292,
        type: 3}
      propertyPath: fsm.states.Array.data[0].position.height
      value: 32
      objectReference: {fileID: 0}
    - target: {fileID: 1642604155539115726, guid: 1757ff718342e73438a31d3791444292,
        type: 3}
      propertyPath: fsm.states.Array.data[0].transitions.Array.data[0].fsmEvent.name
      value: next
      objectReference: {fileID: 0}
    - target: {fileID: 1642604155539115726, guid: 1757ff718342e73438a31d3791444292,
        type: 3}
      propertyPath: fsm.states.Array.data[1].position.height
      value: 32
      objectReference: {fileID: 0}
    - target: {fileID: 1642604155539115726, guid: 1757ff718342e73438a31d3791444292,
        type: 3}
      propertyPath: fsm.states.Array.data[1].transitions.Array.data[0].fsmEvent.name
      value: next
      objectReference: {fileID: 0}
    - target: {fileID: 1642604155539115726, guid: 1757ff718342e73438a31d3791444292,
        type: 3}
      propertyPath: fsm.states.Array.data[1].transitions.Array.data[0].toState
      value: State 3
      objectReference: {fileID: 0}
    - target: {fileID: 1642604155539115726, guid: 1757ff718342e73438a31d3791444292,
        type: 3}
      propertyPath: fsm.states.Array.data[0].transitions.Array.data[0].toState
      value: State 2
      objectReference: {fileID: 0}
    - target: {fileID: 1642604155539115726, guid: 1757ff718342e73438a31d3791444292,
        type: 3}
      propertyPath: fsm.states.Array.data[2].actionData.actionNames.Array.data[0]
      value: HutongGames.PlayMaker.Actions.ActivateGameObject
      objectReference: {fileID: 0}
    - target: {fileID: 1642604155539115726, guid: 1757ff718342e73438a31d3791444292,
        type: 3}
      propertyPath: fsm.states.Array.data[2].actionData.actionEnabled.Array.data[0]
      value: 1
      objectReference: {fileID: 0}
    - target: {fileID: 1642604155539115726, guid: 1757ff718342e73438a31d3791444292,
        type: 3}
      propertyPath: fsm.states.Array.data[2].actionData.actionIsOpen.Array.data[0]
      value: 1
      objectReference: {fileID: 0}
    - target: {fileID: 1642604155539115726, guid: 1757ff718342e73438a31d3791444292,
        type: 3}
      propertyPath: fsm.states.Array.data[2].actionData.actionHashCodes.Array.data[0]
      value: 1101746
      objectReference: {fileID: 0}
    - target: {fileID: 1642604155539115726, guid: 1757ff718342e73438a31d3791444292,
        type: 3}
      propertyPath: fsm.states.Array.data[2].actionData.fsmPropertyParams.Array.data[0].TargetObject.typeName
      value: UnityEngine.Object
      objectReference: {fileID: 0}
    - target: {fileID: 1642604155539115726, guid: 1757ff718342e73438a31d3791444292,
        type: 3}
      propertyPath: fsm.states.Array.data[2].actionData.fsmPropertyParams.Array.data[0].TargetObject.value
      value: 
      objectReference: {fileID: 0}
    - target: {fileID: 1642604155539115726, guid: 1757ff718342e73438a31d3791444292,
        type: 3}
      propertyPath: fsm.states.Array.data[2].actionData.fsmPropertyParams.Array.data[0].TargetTypeName
      value: UnityEngine.GameObject
      objectReference: {fileID: 0}
    - target: {fileID: 1642604155539115726, guid: 1757ff718342e73438a31d3791444292,
        type: 3}
      propertyPath: fsm.states.Array.data[2].actionData.fsmPropertyParams.Array.data[0].ColorParameter.value.a
      value: 1
      objectReference: {fileID: 0}
    - target: {fileID: 1642604155539115726, guid: 1757ff718342e73438a31d3791444292,
        type: 3}
      propertyPath: fsm.states.Array.data[2].actionData.fsmPropertyParams.Array.data[0].ArrayParameter.type
      value: -1
      objectReference: {fileID: 0}
    - target: {fileID: 1642604155539115726, guid: 1757ff718342e73438a31d3791444292,
        type: 3}
      propertyPath: fsm.states.Array.data[2].actionData.fsmPropertyParams.Array.data[0].setProperty
      value: 1
      objectReference: {fileID: 0}
    - target: {fileID: 1642604155539115726, guid: 1757ff718342e73438a31d3791444292,
        type: 3}
      propertyPath: fsm.states.Array.data[2].actionData.paramDataType.Array.data[0]
      value: 20
      objectReference: {fileID: 0}
    - target: {fileID: 1642604155539115726, guid: 1757ff718342e73438a31d3791444292,
        type: 3}
      propertyPath: fsm.states.Array.data[2].actionData.paramDataType.Array.data[1]
      value: 17
      objectReference: {fileID: 0}
    - target: {fileID: 1642604155539115726, guid: 1757ff718342e73438a31d3791444292,
        type: 3}
      propertyPath: fsm.states.Array.data[2].actionData.paramName.Array.data[0]
      value: gameObject
      objectReference: {fileID: 0}
    - target: {fileID: 1642604155539115726, guid: 1757ff718342e73438a31d3791444292,
        type: 3}
      propertyPath: fsm.states.Array.data[2].actionData.paramName.Array.data[1]
      value: activate
      objectReference: {fileID: 0}
    - target: {fileID: 1642604155539115726, guid: 1757ff718342e73438a31d3791444292,
        type: 3}
      propertyPath: fsm.states.Array.data[2].actionData.paramByteDataSize.Array.data[1]
      value: 0
      objectReference: {fileID: 0}
    - target: {fileID: 1642604155539115726, guid: 1757ff718342e73438a31d3791444292,
        type: 3}
      propertyPath: fsm.states.Array.data[2].actionData.fsmPropertyParams.Array.data[0].PropertyName
      value: active
      objectReference: {fileID: 0}
    - target: {fileID: 1642604155539115726, guid: 1757ff718342e73438a31d3791444292,
        type: 3}
      propertyPath: fsm.states.Array.data[2].actionData.fsmPropertyParams.Array.data[0].ObjectParameter.typeName
      value: System.Boolean
      objectReference: {fileID: 0}
    - target: {fileID: 1642604155539115726, guid: 1757ff718342e73438a31d3791444292,
        type: 3}
      propertyPath: fsm.states.Array.data[2].actionData.fsmBoolParams.Array.data[0].value
      value: 0
      objectReference: {fileID: 0}
    - target: {fileID: 1642604155539115726, guid: 1757ff718342e73438a31d3791444292,
        type: 3}
      propertyPath: fsm.states.Array.data[2].actionData.fsmBoolParams.Array.data[1].value
      value: 1
      objectReference: {fileID: 0}
    - target: {fileID: 1642604155539115726, guid: 1757ff718342e73438a31d3791444292,
        type: 3}
      propertyPath: fsm.states.Array.data[2].actionData.paramDataType.Array.data[2]
      value: 17
      objectReference: {fileID: 0}
    - target: {fileID: 1642604155539115726, guid: 1757ff718342e73438a31d3791444292,
        type: 3}
      propertyPath: fsm.states.Array.data[2].actionData.paramDataType.Array.data[3]
      value: 1
      objectReference: {fileID: 0}
    - target: {fileID: 1642604155539115726, guid: 1757ff718342e73438a31d3791444292,
        type: 3}
      propertyPath: fsm.states.Array.data[2].actionData.paramDataType.Array.data[4]
      value: 1
      objectReference: {fileID: 0}
    - target: {fileID: 1642604155539115726, guid: 1757ff718342e73438a31d3791444292,
        type: 3}
      propertyPath: fsm.states.Array.data[2].actionData.paramName.Array.data[2]
      value: recursive
      objectReference: {fileID: 0}
    - target: {fileID: 1642604155539115726, guid: 1757ff718342e73438a31d3791444292,
        type: 3}
      propertyPath: fsm.states.Array.data[2].actionData.paramName.Array.data[3]
      value: resetOnExit
      objectReference: {fileID: 0}
    - target: {fileID: 1642604155539115726, guid: 1757ff718342e73438a31d3791444292,
        type: 3}
      propertyPath: fsm.states.Array.data[2].actionData.paramName.Array.data[4]
      value: everyFrame
      objectReference: {fileID: 0}
    - target: {fileID: 1642604155539115726, guid: 1757ff718342e73438a31d3791444292,
        type: 3}
      propertyPath: fsm.states.Array.data[2].actionData.paramDataPos.Array.data[2]
      value: 1
      objectReference: {fileID: 0}
    - target: {fileID: 1642604155539115726, guid: 1757ff718342e73438a31d3791444292,
        type: 3}
      propertyPath: fsm.states.Array.data[2].actionData.paramDataPos.Array.data[4]
      value: 1
      objectReference: {fileID: 0}
    - target: {fileID: 1642604155539115726, guid: 1757ff718342e73438a31d3791444292,
        type: 3}
      propertyPath: fsm.states.Array.data[2].actionData.paramByteDataSize.Array.data[3]
      value: 1
      objectReference: {fileID: 0}
    - target: {fileID: 1642604155539115726, guid: 1757ff718342e73438a31d3791444292,
        type: 3}
      propertyPath: fsm.states.Array.data[2].actionData.paramByteDataSize.Array.data[4]
      value: 1
      objectReference: {fileID: 0}
    - target: {fileID: 1642604155539115726, guid: 1757ff718342e73438a31d3791444292,
        type: 3}
      propertyPath: fsm.states.Array.data[2].actionData.fsmOwnerDefaultParams.Array.data[0].ownerOption
      value: 1
      objectReference: {fileID: 0}
    - target: {fileID: 1642604155539115726, guid: 1757ff718342e73438a31d3791444292,
        type: 3}
      propertyPath: fsm.states.Array.data[2].actionData.fsmOwnerDefaultParams.Array.data[0].gameObject.value
      value: 
      objectReference: {fileID: 0}
    - target: {fileID: 1642604155539115726, guid: 1757ff718342e73438a31d3791444292,
        type: 3}
      propertyPath: fsm.states.Array.data[2].actionData.actionNames.Array.data[1]
      value: HutongGames.PlayMaker.Actions.ActivateGameObject
      objectReference: {fileID: 0}
    - target: {fileID: 1642604155539115726, guid: 1757ff718342e73438a31d3791444292,
        type: 3}
      propertyPath: fsm.states.Array.data[2].actionData.actionEnabled.Array.data[1]
      value: 1
      objectReference: {fileID: 0}
    - target: {fileID: 1642604155539115726, guid: 1757ff718342e73438a31d3791444292,
        type: 3}
      propertyPath: fsm.states.Array.data[2].actionData.actionIsOpen.Array.data[1]
      value: 1
      objectReference: {fileID: 0}
    - target: {fileID: 1642604155539115726, guid: 1757ff718342e73438a31d3791444292,
        type: 3}
      propertyPath: fsm.states.Array.data[2].actionData.actionStartIndex.Array.data[1]
      value: 5
      objectReference: {fileID: 0}
    - target: {fileID: 1642604155539115726, guid: 1757ff718342e73438a31d3791444292,
        type: 3}
      propertyPath: fsm.states.Array.data[2].actionData.actionHashCodes.Array.data[1]
      value: 1101746
      objectReference: {fileID: 0}
    - target: {fileID: 1642604155539115726, guid: 1757ff718342e73438a31d3791444292,
        type: 3}
      propertyPath: fsm.states.Array.data[2].actionData.fsmOwnerDefaultParams.Array.data[1].ownerOption
      value: 1
      objectReference: {fileID: 0}
    - target: {fileID: 1642604155539115726, guid: 1757ff718342e73438a31d3791444292,
        type: 3}
      propertyPath: fsm.states.Array.data[2].actionData.fsmOwnerDefaultParams.Array.data[1].gameObject.value
      value: 
      objectReference: {fileID: 0}
    - target: {fileID: 1642604155539115726, guid: 1757ff718342e73438a31d3791444292,
        type: 3}
      propertyPath: fsm.states.Array.data[2].actionData.fsmBoolParams.Array.data[2].value
      value: 0
      objectReference: {fileID: 0}
    - target: {fileID: 1642604155539115726, guid: 1757ff718342e73438a31d3791444292,
        type: 3}
      propertyPath: fsm.states.Array.data[2].actionData.fsmBoolParams.Array.data[3].value
      value: 1
      objectReference: {fileID: 0}
    - target: {fileID: 1642604155539115726, guid: 1757ff718342e73438a31d3791444292,
        type: 3}
      propertyPath: fsm.states.Array.data[2].actionData.paramDataType.Array.data[5]
      value: 20
      objectReference: {fileID: 0}
    - target: {fileID: 1642604155539115726, guid: 1757ff718342e73438a31d3791444292,
        type: 3}
      propertyPath: fsm.states.Array.data[2].actionData.paramDataType.Array.data[6]
      value: 17
      objectReference: {fileID: 0}
    - target: {fileID: 1642604155539115726, guid: 1757ff718342e73438a31d3791444292,
        type: 3}
      propertyPath: fsm.states.Array.data[2].actionData.paramDataType.Array.data[7]
      value: 17
      objectReference: {fileID: 0}
    - target: {fileID: 1642604155539115726, guid: 1757ff718342e73438a31d3791444292,
        type: 3}
      propertyPath: fsm.states.Array.data[2].actionData.paramDataType.Array.data[8]
      value: 1
      objectReference: {fileID: 0}
    - target: {fileID: 1642604155539115726, guid: 1757ff718342e73438a31d3791444292,
        type: 3}
      propertyPath: fsm.states.Array.data[2].actionData.paramDataType.Array.data[9]
      value: 1
      objectReference: {fileID: 0}
    - target: {fileID: 1642604155539115726, guid: 1757ff718342e73438a31d3791444292,
        type: 3}
      propertyPath: fsm.states.Array.data[2].actionData.paramName.Array.data[5]
      value: gameObject
      objectReference: {fileID: 0}
    - target: {fileID: 1642604155539115726, guid: 1757ff718342e73438a31d3791444292,
        type: 3}
      propertyPath: fsm.states.Array.data[2].actionData.paramName.Array.data[6]
      value: activate
      objectReference: {fileID: 0}
    - target: {fileID: 1642604155539115726, guid: 1757ff718342e73438a31d3791444292,
        type: 3}
      propertyPath: fsm.states.Array.data[2].actionData.paramName.Array.data[7]
      value: recursive
      objectReference: {fileID: 0}
    - target: {fileID: 1642604155539115726, guid: 1757ff718342e73438a31d3791444292,
        type: 3}
      propertyPath: fsm.states.Array.data[2].actionData.paramName.Array.data[8]
      value: resetOnExit
      objectReference: {fileID: 0}
    - target: {fileID: 1642604155539115726, guid: 1757ff718342e73438a31d3791444292,
        type: 3}
      propertyPath: fsm.states.Array.data[2].actionData.paramName.Array.data[9]
      value: everyFrame
      objectReference: {fileID: 0}
    - target: {fileID: 1642604155539115726, guid: 1757ff718342e73438a31d3791444292,
        type: 3}
      propertyPath: fsm.states.Array.data[2].actionData.paramDataPos.Array.data[5]
      value: 1
      objectReference: {fileID: 0}
    - target: {fileID: 1642604155539115726, guid: 1757ff718342e73438a31d3791444292,
        type: 3}
      propertyPath: fsm.states.Array.data[2].actionData.paramDataPos.Array.data[6]
      value: 2
      objectReference: {fileID: 0}
    - target: {fileID: 1642604155539115726, guid: 1757ff718342e73438a31d3791444292,
        type: 3}
      propertyPath: fsm.states.Array.data[2].actionData.paramDataPos.Array.data[7]
      value: 3
      objectReference: {fileID: 0}
    - target: {fileID: 1642604155539115726, guid: 1757ff718342e73438a31d3791444292,
        type: 3}
      propertyPath: fsm.states.Array.data[2].actionData.paramDataPos.Array.data[8]
      value: 2
      objectReference: {fileID: 0}
    - target: {fileID: 1642604155539115726, guid: 1757ff718342e73438a31d3791444292,
        type: 3}
      propertyPath: fsm.states.Array.data[2].actionData.paramDataPos.Array.data[9]
      value: 3
      objectReference: {fileID: 0}
    - target: {fileID: 1642604155539115726, guid: 1757ff718342e73438a31d3791444292,
        type: 3}
      propertyPath: fsm.states.Array.data[2].actionData.paramByteDataSize.Array.data[8]
      value: 1
      objectReference: {fileID: 0}
    - target: {fileID: 1642604155539115726, guid: 1757ff718342e73438a31d3791444292,
        type: 3}
      propertyPath: fsm.states.Array.data[2].actionData.paramByteDataSize.Array.data[9]
      value: 1
      objectReference: {fileID: 0}
    - target: {fileID: 1642604155539115726, guid: 1757ff718342e73438a31d3791444292,
        type: 3}
      propertyPath: fsm.states.Array.data[2].actionData.actionNames.Array.data[2]
      value: HutongGames.PlayMaker.Actions.ActivateGameObject
      objectReference: {fileID: 0}
    - target: {fileID: 1642604155539115726, guid: 1757ff718342e73438a31d3791444292,
        type: 3}
      propertyPath: fsm.states.Array.data[2].actionData.actionEnabled.Array.data[2]
      value: 1
      objectReference: {fileID: 0}
    - target: {fileID: 1642604155539115726, guid: 1757ff718342e73438a31d3791444292,
        type: 3}
      propertyPath: fsm.states.Array.data[2].actionData.actionIsOpen.Array.data[2]
      value: 1
      objectReference: {fileID: 0}
    - target: {fileID: 1642604155539115726, guid: 1757ff718342e73438a31d3791444292,
        type: 3}
      propertyPath: fsm.states.Array.data[2].actionData.actionStartIndex.Array.data[2]
      value: 10
      objectReference: {fileID: 0}
    - target: {fileID: 1642604155539115726, guid: 1757ff718342e73438a31d3791444292,
        type: 3}
      propertyPath: fsm.states.Array.data[2].actionData.actionHashCodes.Array.data[2]
      value: 1101746
      objectReference: {fileID: 0}
    - target: {fileID: 1642604155539115726, guid: 1757ff718342e73438a31d3791444292,
        type: 3}
      propertyPath: fsm.states.Array.data[2].actionData.fsmOwnerDefaultParams.Array.data[2].ownerOption
      value: 1
      objectReference: {fileID: 0}
    - target: {fileID: 1642604155539115726, guid: 1757ff718342e73438a31d3791444292,
        type: 3}
      propertyPath: fsm.states.Array.data[2].actionData.fsmOwnerDefaultParams.Array.data[2].gameObject.value
      value: 
      objectReference: {fileID: 0}
    - target: {fileID: 1642604155539115726, guid: 1757ff718342e73438a31d3791444292,
        type: 3}
      propertyPath: fsm.states.Array.data[2].actionData.fsmBoolParams.Array.data[5].value
      value: 1
      objectReference: {fileID: 0}
    - target: {fileID: 1642604155539115726, guid: 1757ff718342e73438a31d3791444292,
        type: 3}
      propertyPath: fsm.states.Array.data[2].actionData.paramDataType.Array.data[10]
      value: 20
      objectReference: {fileID: 0}
    - target: {fileID: 1642604155539115726, guid: 1757ff718342e73438a31d3791444292,
        type: 3}
      propertyPath: fsm.states.Array.data[2].actionData.paramDataType.Array.data[11]
      value: 17
      objectReference: {fileID: 0}
    - target: {fileID: 1642604155539115726, guid: 1757ff718342e73438a31d3791444292,
        type: 3}
      propertyPath: fsm.states.Array.data[2].actionData.paramDataType.Array.data[12]
      value: 17
      objectReference: {fileID: 0}
    - target: {fileID: 1642604155539115726, guid: 1757ff718342e73438a31d3791444292,
        type: 3}
      propertyPath: fsm.states.Array.data[2].actionData.paramDataType.Array.data[13]
      value: 1
      objectReference: {fileID: 0}
    - target: {fileID: 1642604155539115726, guid: 1757ff718342e73438a31d3791444292,
        type: 3}
      propertyPath: fsm.states.Array.data[2].actionData.paramDataType.Array.data[14]
      value: 1
      objectReference: {fileID: 0}
    - target: {fileID: 1642604155539115726, guid: 1757ff718342e73438a31d3791444292,
        type: 3}
      propertyPath: fsm.states.Array.data[2].actionData.paramName.Array.data[10]
      value: gameObject
      objectReference: {fileID: 0}
    - target: {fileID: 1642604155539115726, guid: 1757ff718342e73438a31d3791444292,
        type: 3}
      propertyPath: fsm.states.Array.data[2].actionData.paramName.Array.data[11]
      value: activate
      objectReference: {fileID: 0}
    - target: {fileID: 1642604155539115726, guid: 1757ff718342e73438a31d3791444292,
        type: 3}
      propertyPath: fsm.states.Array.data[2].actionData.paramName.Array.data[12]
      value: recursive
      objectReference: {fileID: 0}
    - target: {fileID: 1642604155539115726, guid: 1757ff718342e73438a31d3791444292,
        type: 3}
      propertyPath: fsm.states.Array.data[2].actionData.paramName.Array.data[13]
      value: resetOnExit
      objectReference: {fileID: 0}
    - target: {fileID: 1642604155539115726, guid: 1757ff718342e73438a31d3791444292,
        type: 3}
      propertyPath: fsm.states.Array.data[2].actionData.paramName.Array.data[14]
      value: everyFrame
      objectReference: {fileID: 0}
    - target: {fileID: 1642604155539115726, guid: 1757ff718342e73438a31d3791444292,
        type: 3}
      propertyPath: fsm.states.Array.data[2].actionData.paramDataPos.Array.data[10]
      value: 2
      objectReference: {fileID: 0}
    - target: {fileID: 1642604155539115726, guid: 1757ff718342e73438a31d3791444292,
        type: 3}
      propertyPath: fsm.states.Array.data[2].actionData.paramDataPos.Array.data[11]
      value: 4
      objectReference: {fileID: 0}
    - target: {fileID: 1642604155539115726, guid: 1757ff718342e73438a31d3791444292,
        type: 3}
      propertyPath: fsm.states.Array.data[2].actionData.paramDataPos.Array.data[12]
      value: 5
      objectReference: {fileID: 0}
    - target: {fileID: 1642604155539115726, guid: 1757ff718342e73438a31d3791444292,
        type: 3}
      propertyPath: fsm.states.Array.data[2].actionData.paramDataPos.Array.data[13]
      value: 4
      objectReference: {fileID: 0}
    - target: {fileID: 1642604155539115726, guid: 1757ff718342e73438a31d3791444292,
        type: 3}
      propertyPath: fsm.states.Array.data[2].actionData.paramDataPos.Array.data[14]
      value: 5
      objectReference: {fileID: 0}
    - target: {fileID: 1642604155539115726, guid: 1757ff718342e73438a31d3791444292,
        type: 3}
      propertyPath: fsm.states.Array.data[2].actionData.paramByteDataSize.Array.data[13]
      value: 1
      objectReference: {fileID: 0}
    - target: {fileID: 1642604155539115726, guid: 1757ff718342e73438a31d3791444292,
        type: 3}
      propertyPath: fsm.states.Array.data[2].actionData.paramByteDataSize.Array.data[14]
      value: 1
      objectReference: {fileID: 0}
    - target: {fileID: 1642604155539115726, guid: 1757ff718342e73438a31d3791444292,
        type: 3}
      propertyPath: fsm.states.Array.data[2].actionData.actionNames.Array.data[3]
      value: HutongGames.PlayMaker.Actions.ActivateGameObject
      objectReference: {fileID: 0}
    - target: {fileID: 1642604155539115726, guid: 1757ff718342e73438a31d3791444292,
        type: 3}
      propertyPath: fsm.states.Array.data[2].actionData.actionNames.Array.data[4]
      value: HutongGames.PlayMaker.Actions.ActivateGameObject
      objectReference: {fileID: 0}
    - target: {fileID: 1642604155539115726, guid: 1757ff718342e73438a31d3791444292,
        type: 3}
      propertyPath: fsm.states.Array.data[2].actionData.actionNames.Array.data[5]
      value: HutongGames.PlayMaker.Actions.ActivateGameObject
      objectReference: {fileID: 0}
    - target: {fileID: 1642604155539115726, guid: 1757ff718342e73438a31d3791444292,
        type: 3}
      propertyPath: fsm.states.Array.data[2].actionData.actionEnabled.Array.data[3]
      value: 1
      objectReference: {fileID: 0}
    - target: {fileID: 1642604155539115726, guid: 1757ff718342e73438a31d3791444292,
        type: 3}
      propertyPath: fsm.states.Array.data[2].actionData.actionEnabled.Array.data[4]
      value: 1
      objectReference: {fileID: 0}
    - target: {fileID: 1642604155539115726, guid: 1757ff718342e73438a31d3791444292,
        type: 3}
      propertyPath: fsm.states.Array.data[2].actionData.actionEnabled.Array.data[5]
      value: 1
      objectReference: {fileID: 0}
    - target: {fileID: 1642604155539115726, guid: 1757ff718342e73438a31d3791444292,
        type: 3}
      propertyPath: fsm.states.Array.data[2].actionData.actionIsOpen.Array.data[3]
      value: 1
      objectReference: {fileID: 0}
    - target: {fileID: 1642604155539115726, guid: 1757ff718342e73438a31d3791444292,
        type: 3}
      propertyPath: fsm.states.Array.data[2].actionData.actionIsOpen.Array.data[4]
      value: 1
      objectReference: {fileID: 0}
    - target: {fileID: 1642604155539115726, guid: 1757ff718342e73438a31d3791444292,
        type: 3}
      propertyPath: fsm.states.Array.data[2].actionData.actionIsOpen.Array.data[5]
      value: 1
      objectReference: {fileID: 0}
    - target: {fileID: 1642604155539115726, guid: 1757ff718342e73438a31d3791444292,
        type: 3}
      propertyPath: fsm.states.Array.data[2].actionData.actionStartIndex.Array.data[3]
      value: 15
      objectReference: {fileID: 0}
    - target: {fileID: 1642604155539115726, guid: 1757ff718342e73438a31d3791444292,
        type: 3}
      propertyPath: fsm.states.Array.data[2].actionData.actionStartIndex.Array.data[4]
      value: 20
      objectReference: {fileID: 0}
    - target: {fileID: 1642604155539115726, guid: 1757ff718342e73438a31d3791444292,
        type: 3}
      propertyPath: fsm.states.Array.data[2].actionData.actionStartIndex.Array.data[5]
      value: 25
      objectReference: {fileID: 0}
    - target: {fileID: 1642604155539115726, guid: 1757ff718342e73438a31d3791444292,
        type: 3}
      propertyPath: fsm.states.Array.data[2].actionData.actionHashCodes.Array.data[3]
      value: 1101746
      objectReference: {fileID: 0}
    - target: {fileID: 1642604155539115726, guid: 1757ff718342e73438a31d3791444292,
        type: 3}
      propertyPath: fsm.states.Array.data[2].actionData.actionHashCodes.Array.data[4]
      value: 1101746
      objectReference: {fileID: 0}
    - target: {fileID: 1642604155539115726, guid: 1757ff718342e73438a31d3791444292,
        type: 3}
      propertyPath: fsm.states.Array.data[2].actionData.actionHashCodes.Array.data[5]
      value: 1101746
      objectReference: {fileID: 0}
    - target: {fileID: 1642604155539115726, guid: 1757ff718342e73438a31d3791444292,
        type: 3}
      propertyPath: fsm.states.Array.data[2].actionData.fsmOwnerDefaultParams.Array.data[3].ownerOption
      value: 1
      objectReference: {fileID: 0}
    - target: {fileID: 1642604155539115726, guid: 1757ff718342e73438a31d3791444292,
        type: 3}
      propertyPath: fsm.states.Array.data[2].actionData.fsmOwnerDefaultParams.Array.data[3].gameObject.value
      value: 
      objectReference: {fileID: 0}
    - target: {fileID: 1642604155539115726, guid: 1757ff718342e73438a31d3791444292,
        type: 3}
      propertyPath: fsm.states.Array.data[2].actionData.fsmOwnerDefaultParams.Array.data[4].ownerOption
      value: 1
      objectReference: {fileID: 0}
    - target: {fileID: 1642604155539115726, guid: 1757ff718342e73438a31d3791444292,
        type: 3}
      propertyPath: fsm.states.Array.data[2].actionData.fsmOwnerDefaultParams.Array.data[4].gameObject.value
      value: 
      objectReference: {fileID: 0}
    - target: {fileID: 1642604155539115726, guid: 1757ff718342e73438a31d3791444292,
        type: 3}
      propertyPath: fsm.states.Array.data[2].actionData.fsmOwnerDefaultParams.Array.data[5].ownerOption
      value: 1
      objectReference: {fileID: 0}
    - target: {fileID: 1642604155539115726, guid: 1757ff718342e73438a31d3791444292,
        type: 3}
      propertyPath: fsm.states.Array.data[2].actionData.fsmOwnerDefaultParams.Array.data[5].gameObject.value
      value: 
      objectReference: {fileID: 0}
    - target: {fileID: 1642604155539115726, guid: 1757ff718342e73438a31d3791444292,
        type: 3}
      propertyPath: fsm.states.Array.data[2].actionData.fsmBoolParams.Array.data[6].value
      value: 0
      objectReference: {fileID: 0}
    - target: {fileID: 1642604155539115726, guid: 1757ff718342e73438a31d3791444292,
        type: 3}
      propertyPath: fsm.states.Array.data[2].actionData.fsmBoolParams.Array.data[7].value
      value: 1
      objectReference: {fileID: 0}
    - target: {fileID: 1642604155539115726, guid: 1757ff718342e73438a31d3791444292,
        type: 3}
      propertyPath: fsm.states.Array.data[2].actionData.fsmBoolParams.Array.data[9].value
      value: 1
      objectReference: {fileID: 0}
    - target: {fileID: 1642604155539115726, guid: 1757ff718342e73438a31d3791444292,
        type: 3}
      propertyPath: fsm.states.Array.data[2].actionData.fsmBoolParams.Array.data[11].value
      value: 1
      objectReference: {fileID: 0}
    - target: {fileID: 1642604155539115726, guid: 1757ff718342e73438a31d3791444292,
        type: 3}
      propertyPath: fsm.states.Array.data[2].actionData.paramDataType.Array.data[15]
      value: 20
      objectReference: {fileID: 0}
    - target: {fileID: 1642604155539115726, guid: 1757ff718342e73438a31d3791444292,
        type: 3}
      propertyPath: fsm.states.Array.data[2].actionData.paramDataType.Array.data[16]
      value: 17
      objectReference: {fileID: 0}
    - target: {fileID: 1642604155539115726, guid: 1757ff718342e73438a31d3791444292,
        type: 3}
      propertyPath: fsm.states.Array.data[2].actionData.paramDataType.Array.data[17]
      value: 17
      objectReference: {fileID: 0}
    - target: {fileID: 1642604155539115726, guid: 1757ff718342e73438a31d3791444292,
        type: 3}
      propertyPath: fsm.states.Array.data[2].actionData.paramDataType.Array.data[18]
      value: 1
      objectReference: {fileID: 0}
    - target: {fileID: 1642604155539115726, guid: 1757ff718342e73438a31d3791444292,
        type: 3}
      propertyPath: fsm.states.Array.data[2].actionData.paramDataType.Array.data[19]
      value: 1
      objectReference: {fileID: 0}
    - target: {fileID: 1642604155539115726, guid: 1757ff718342e73438a31d3791444292,
        type: 3}
      propertyPath: fsm.states.Array.data[2].actionData.paramDataType.Array.data[20]
      value: 20
      objectReference: {fileID: 0}
    - target: {fileID: 1642604155539115726, guid: 1757ff718342e73438a31d3791444292,
        type: 3}
      propertyPath: fsm.states.Array.data[2].actionData.paramDataType.Array.data[21]
      value: 17
      objectReference: {fileID: 0}
    - target: {fileID: 1642604155539115726, guid: 1757ff718342e73438a31d3791444292,
        type: 3}
      propertyPath: fsm.states.Array.data[2].actionData.paramDataType.Array.data[22]
      value: 17
      objectReference: {fileID: 0}
    - target: {fileID: 1642604155539115726, guid: 1757ff718342e73438a31d3791444292,
        type: 3}
      propertyPath: fsm.states.Array.data[2].actionData.paramDataType.Array.data[23]
      value: 1
      objectReference: {fileID: 0}
    - target: {fileID: 1642604155539115726, guid: 1757ff718342e73438a31d3791444292,
        type: 3}
      propertyPath: fsm.states.Array.data[2].actionData.paramDataType.Array.data[24]
      value: 1
      objectReference: {fileID: 0}
    - target: {fileID: 1642604155539115726, guid: 1757ff718342e73438a31d3791444292,
        type: 3}
      propertyPath: fsm.states.Array.data[2].actionData.paramDataType.Array.data[25]
      value: 20
      objectReference: {fileID: 0}
    - target: {fileID: 1642604155539115726, guid: 1757ff718342e73438a31d3791444292,
        type: 3}
      propertyPath: fsm.states.Array.data[2].actionData.paramDataType.Array.data[26]
      value: 17
      objectReference: {fileID: 0}
    - target: {fileID: 1642604155539115726, guid: 1757ff718342e73438a31d3791444292,
        type: 3}
      propertyPath: fsm.states.Array.data[2].actionData.paramDataType.Array.data[27]
      value: 17
      objectReference: {fileID: 0}
    - target: {fileID: 1642604155539115726, guid: 1757ff718342e73438a31d3791444292,
        type: 3}
      propertyPath: fsm.states.Array.data[2].actionData.paramDataType.Array.data[28]
      value: 1
      objectReference: {fileID: 0}
    - target: {fileID: 1642604155539115726, guid: 1757ff718342e73438a31d3791444292,
        type: 3}
      propertyPath: fsm.states.Array.data[2].actionData.paramDataType.Array.data[29]
      value: 1
      objectReference: {fileID: 0}
    - target: {fileID: 1642604155539115726, guid: 1757ff718342e73438a31d3791444292,
        type: 3}
      propertyPath: fsm.states.Array.data[2].actionData.paramName.Array.data[15]
      value: gameObject
      objectReference: {fileID: 0}
    - target: {fileID: 1642604155539115726, guid: 1757ff718342e73438a31d3791444292,
        type: 3}
      propertyPath: fsm.states.Array.data[2].actionData.paramName.Array.data[16]
      value: activate
      objectReference: {fileID: 0}
    - target: {fileID: 1642604155539115726, guid: 1757ff718342e73438a31d3791444292,
        type: 3}
      propertyPath: fsm.states.Array.data[2].actionData.paramName.Array.data[17]
      value: recursive
      objectReference: {fileID: 0}
    - target: {fileID: 1642604155539115726, guid: 1757ff718342e73438a31d3791444292,
        type: 3}
      propertyPath: fsm.states.Array.data[2].actionData.paramName.Array.data[18]
      value: resetOnExit
      objectReference: {fileID: 0}
    - target: {fileID: 1642604155539115726, guid: 1757ff718342e73438a31d3791444292,
        type: 3}
      propertyPath: fsm.states.Array.data[2].actionData.paramName.Array.data[19]
      value: everyFrame
      objectReference: {fileID: 0}
    - target: {fileID: 1642604155539115726, guid: 1757ff718342e73438a31d3791444292,
        type: 3}
      propertyPath: fsm.states.Array.data[2].actionData.paramName.Array.data[20]
      value: gameObject
      objectReference: {fileID: 0}
    - target: {fileID: 1642604155539115726, guid: 1757ff718342e73438a31d3791444292,
        type: 3}
      propertyPath: fsm.states.Array.data[2].actionData.paramName.Array.data[21]
      value: activate
      objectReference: {fileID: 0}
    - target: {fileID: 1642604155539115726, guid: 1757ff718342e73438a31d3791444292,
        type: 3}
      propertyPath: fsm.states.Array.data[2].actionData.paramName.Array.data[22]
      value: recursive
      objectReference: {fileID: 0}
    - target: {fileID: 1642604155539115726, guid: 1757ff718342e73438a31d3791444292,
        type: 3}
      propertyPath: fsm.states.Array.data[2].actionData.paramName.Array.data[23]
      value: resetOnExit
      objectReference: {fileID: 0}
    - target: {fileID: 1642604155539115726, guid: 1757ff718342e73438a31d3791444292,
        type: 3}
      propertyPath: fsm.states.Array.data[2].actionData.paramName.Array.data[24]
      value: everyFrame
      objectReference: {fileID: 0}
    - target: {fileID: 1642604155539115726, guid: 1757ff718342e73438a31d3791444292,
        type: 3}
      propertyPath: fsm.states.Array.data[2].actionData.paramName.Array.data[25]
      value: gameObject
      objectReference: {fileID: 0}
    - target: {fileID: 1642604155539115726, guid: 1757ff718342e73438a31d3791444292,
        type: 3}
      propertyPath: fsm.states.Array.data[2].actionData.paramName.Array.data[26]
      value: activate
      objectReference: {fileID: 0}
    - target: {fileID: 1642604155539115726, guid: 1757ff718342e73438a31d3791444292,
        type: 3}
      propertyPath: fsm.states.Array.data[2].actionData.paramName.Array.data[27]
      value: recursive
      objectReference: {fileID: 0}
    - target: {fileID: 1642604155539115726, guid: 1757ff718342e73438a31d3791444292,
        type: 3}
      propertyPath: fsm.states.Array.data[2].actionData.paramName.Array.data[28]
      value: resetOnExit
      objectReference: {fileID: 0}
    - target: {fileID: 1642604155539115726, guid: 1757ff718342e73438a31d3791444292,
        type: 3}
      propertyPath: fsm.states.Array.data[2].actionData.paramName.Array.data[29]
      value: everyFrame
      objectReference: {fileID: 0}
    - target: {fileID: 1642604155539115726, guid: 1757ff718342e73438a31d3791444292,
        type: 3}
      propertyPath: fsm.states.Array.data[2].actionData.paramDataPos.Array.data[15]
      value: 3
      objectReference: {fileID: 0}
    - target: {fileID: 1642604155539115726, guid: 1757ff718342e73438a31d3791444292,
        type: 3}
      propertyPath: fsm.states.Array.data[2].actionData.paramDataPos.Array.data[16]
      value: 6
      objectReference: {fileID: 0}
    - target: {fileID: 1642604155539115726, guid: 1757ff718342e73438a31d3791444292,
        type: 3}
      propertyPath: fsm.states.Array.data[2].actionData.paramDataPos.Array.data[17]
      value: 7
      objectReference: {fileID: 0}
    - target: {fileID: 1642604155539115726, guid: 1757ff718342e73438a31d3791444292,
        type: 3}
      propertyPath: fsm.states.Array.data[2].actionData.paramDataPos.Array.data[18]
      value: 6
      objectReference: {fileID: 0}
    - target: {fileID: 1642604155539115726, guid: 1757ff718342e73438a31d3791444292,
        type: 3}
      propertyPath: fsm.states.Array.data[2].actionData.paramDataPos.Array.data[19]
      value: 7
      objectReference: {fileID: 0}
    - target: {fileID: 1642604155539115726, guid: 1757ff718342e73438a31d3791444292,
        type: 3}
      propertyPath: fsm.states.Array.data[2].actionData.paramDataPos.Array.data[20]
      value: 4
      objectReference: {fileID: 0}
    - target: {fileID: 1642604155539115726, guid: 1757ff718342e73438a31d3791444292,
        type: 3}
      propertyPath: fsm.states.Array.data[2].actionData.paramDataPos.Array.data[21]
      value: 8
      objectReference: {fileID: 0}
    - target: {fileID: 1642604155539115726, guid: 1757ff718342e73438a31d3791444292,
        type: 3}
      propertyPath: fsm.states.Array.data[2].actionData.paramDataPos.Array.data[22]
      value: 9
      objectReference: {fileID: 0}
    - target: {fileID: 1642604155539115726, guid: 1757ff718342e73438a31d3791444292,
        type: 3}
      propertyPath: fsm.states.Array.data[2].actionData.paramDataPos.Array.data[23]
      value: 8
      objectReference: {fileID: 0}
    - target: {fileID: 1642604155539115726, guid: 1757ff718342e73438a31d3791444292,
        type: 3}
      propertyPath: fsm.states.Array.data[2].actionData.paramDataPos.Array.data[24]
      value: 9
      objectReference: {fileID: 0}
    - target: {fileID: 1642604155539115726, guid: 1757ff718342e73438a31d3791444292,
        type: 3}
      propertyPath: fsm.states.Array.data[2].actionData.paramDataPos.Array.data[25]
      value: 5
      objectReference: {fileID: 0}
    - target: {fileID: 1642604155539115726, guid: 1757ff718342e73438a31d3791444292,
        type: 3}
      propertyPath: fsm.states.Array.data[2].actionData.paramDataPos.Array.data[26]
      value: 10
      objectReference: {fileID: 0}
    - target: {fileID: 1642604155539115726, guid: 1757ff718342e73438a31d3791444292,
        type: 3}
      propertyPath: fsm.states.Array.data[2].actionData.paramDataPos.Array.data[27]
      value: 11
      objectReference: {fileID: 0}
    - target: {fileID: 1642604155539115726, guid: 1757ff718342e73438a31d3791444292,
        type: 3}
      propertyPath: fsm.states.Array.data[2].actionData.paramDataPos.Array.data[28]
      value: 10
      objectReference: {fileID: 0}
    - target: {fileID: 1642604155539115726, guid: 1757ff718342e73438a31d3791444292,
        type: 3}
      propertyPath: fsm.states.Array.data[2].actionData.paramDataPos.Array.data[29]
      value: 11
      objectReference: {fileID: 0}
    - target: {fileID: 1642604155539115726, guid: 1757ff718342e73438a31d3791444292,
        type: 3}
      propertyPath: fsm.states.Array.data[2].actionData.paramByteDataSize.Array.data[18]
      value: 1
      objectReference: {fileID: 0}
    - target: {fileID: 1642604155539115726, guid: 1757ff718342e73438a31d3791444292,
        type: 3}
      propertyPath: fsm.states.Array.data[2].actionData.paramByteDataSize.Array.data[19]
      value: 1
      objectReference: {fileID: 0}
    - target: {fileID: 1642604155539115726, guid: 1757ff718342e73438a31d3791444292,
        type: 3}
      propertyPath: fsm.states.Array.data[2].actionData.paramByteDataSize.Array.data[23]
      value: 1
      objectReference: {fileID: 0}
    - target: {fileID: 1642604155539115726, guid: 1757ff718342e73438a31d3791444292,
        type: 3}
      propertyPath: fsm.states.Array.data[2].actionData.paramByteDataSize.Array.data[24]
      value: 1
      objectReference: {fileID: 0}
    - target: {fileID: 1642604155539115726, guid: 1757ff718342e73438a31d3791444292,
        type: 3}
      propertyPath: fsm.states.Array.data[2].actionData.paramByteDataSize.Array.data[28]
      value: 1
      objectReference: {fileID: 0}
    - target: {fileID: 1642604155539115726, guid: 1757ff718342e73438a31d3791444292,
        type: 3}
      propertyPath: fsm.states.Array.data[2].actionData.paramByteDataSize.Array.data[29]
      value: 1
      objectReference: {fileID: 0}
    - target: {fileID: 1642604155539115726, guid: 1757ff718342e73438a31d3791444292,
        type: 3}
      propertyPath: fsm.states.Array.data[2].actionData.actionNames.Array.data[6]
      value: HutongGames.PlayMaker.Actions.ActivateGameObject
      objectReference: {fileID: 0}
    - target: {fileID: 1642604155539115726, guid: 1757ff718342e73438a31d3791444292,
        type: 3}
      propertyPath: fsm.states.Array.data[2].actionData.actionEnabled.Array.data[6]
      value: 1
      objectReference: {fileID: 0}
    - target: {fileID: 1642604155539115726, guid: 1757ff718342e73438a31d3791444292,
        type: 3}
      propertyPath: fsm.states.Array.data[2].actionData.actionIsOpen.Array.data[6]
      value: 1
      objectReference: {fileID: 0}
    - target: {fileID: 1642604155539115726, guid: 1757ff718342e73438a31d3791444292,
        type: 3}
      propertyPath: fsm.states.Array.data[2].actionData.actionStartIndex.Array.data[6]
      value: 30
      objectReference: {fileID: 0}
    - target: {fileID: 1642604155539115726, guid: 1757ff718342e73438a31d3791444292,
        type: 3}
      propertyPath: fsm.states.Array.data[2].actionData.actionHashCodes.Array.data[6]
      value: 1101746
      objectReference: {fileID: 0}
    - target: {fileID: 1642604155539115726, guid: 1757ff718342e73438a31d3791444292,
        type: 3}
      propertyPath: fsm.states.Array.data[2].actionData.fsmOwnerDefaultParams.Array.data[6].ownerOption
      value: 1
      objectReference: {fileID: 0}
    - target: {fileID: 1642604155539115726, guid: 1757ff718342e73438a31d3791444292,
        type: 3}
      propertyPath: fsm.states.Array.data[2].actionData.fsmOwnerDefaultParams.Array.data[6].gameObject.value
      value: 
      objectReference: {fileID: 0}
    - target: {fileID: 1642604155539115726, guid: 1757ff718342e73438a31d3791444292,
        type: 3}
      propertyPath: fsm.states.Array.data[2].actionData.fsmBoolParams.Array.data[13].value
      value: 1
      objectReference: {fileID: 0}
    - target: {fileID: 1642604155539115726, guid: 1757ff718342e73438a31d3791444292,
        type: 3}
      propertyPath: fsm.states.Array.data[2].actionData.paramDataType.Array.data[30]
      value: 20
      objectReference: {fileID: 0}
    - target: {fileID: 1642604155539115726, guid: 1757ff718342e73438a31d3791444292,
        type: 3}
      propertyPath: fsm.states.Array.data[2].actionData.paramDataType.Array.data[31]
      value: 17
      objectReference: {fileID: 0}
    - target: {fileID: 1642604155539115726, guid: 1757ff718342e73438a31d3791444292,
        type: 3}
      propertyPath: fsm.states.Array.data[2].actionData.paramDataType.Array.data[32]
      value: 17
      objectReference: {fileID: 0}
    - target: {fileID: 1642604155539115726, guid: 1757ff718342e73438a31d3791444292,
        type: 3}
      propertyPath: fsm.states.Array.data[2].actionData.paramDataType.Array.data[33]
      value: 1
      objectReference: {fileID: 0}
    - target: {fileID: 1642604155539115726, guid: 1757ff718342e73438a31d3791444292,
        type: 3}
      propertyPath: fsm.states.Array.data[2].actionData.paramDataType.Array.data[34]
      value: 1
      objectReference: {fileID: 0}
    - target: {fileID: 1642604155539115726, guid: 1757ff718342e73438a31d3791444292,
        type: 3}
      propertyPath: fsm.states.Array.data[2].actionData.paramName.Array.data[30]
      value: gameObject
      objectReference: {fileID: 0}
    - target: {fileID: 1642604155539115726, guid: 1757ff718342e73438a31d3791444292,
        type: 3}
      propertyPath: fsm.states.Array.data[2].actionData.paramName.Array.data[31]
      value: activate
      objectReference: {fileID: 0}
    - target: {fileID: 1642604155539115726, guid: 1757ff718342e73438a31d3791444292,
        type: 3}
      propertyPath: fsm.states.Array.data[2].actionData.paramName.Array.data[32]
      value: recursive
      objectReference: {fileID: 0}
    - target: {fileID: 1642604155539115726, guid: 1757ff718342e73438a31d3791444292,
        type: 3}
      propertyPath: fsm.states.Array.data[2].actionData.paramName.Array.data[33]
      value: resetOnExit
      objectReference: {fileID: 0}
    - target: {fileID: 1642604155539115726, guid: 1757ff718342e73438a31d3791444292,
        type: 3}
      propertyPath: fsm.states.Array.data[2].actionData.paramName.Array.data[34]
      value: everyFrame
      objectReference: {fileID: 0}
    - target: {fileID: 1642604155539115726, guid: 1757ff718342e73438a31d3791444292,
        type: 3}
      propertyPath: fsm.states.Array.data[2].actionData.paramDataPos.Array.data[30]
      value: 6
      objectReference: {fileID: 0}
    - target: {fileID: 1642604155539115726, guid: 1757ff718342e73438a31d3791444292,
        type: 3}
      propertyPath: fsm.states.Array.data[2].actionData.paramDataPos.Array.data[31]
      value: 12
      objectReference: {fileID: 0}
    - target: {fileID: 1642604155539115726, guid: 1757ff718342e73438a31d3791444292,
        type: 3}
      propertyPath: fsm.states.Array.data[2].actionData.paramDataPos.Array.data[32]
      value: 13
      objectReference: {fileID: 0}
    - target: {fileID: 1642604155539115726, guid: 1757ff718342e73438a31d3791444292,
        type: 3}
      propertyPath: fsm.states.Array.data[2].actionData.paramDataPos.Array.data[33]
      value: 12
      objectReference: {fileID: 0}
    - target: {fileID: 1642604155539115726, guid: 1757ff718342e73438a31d3791444292,
        type: 3}
      propertyPath: fsm.states.Array.data[2].actionData.paramDataPos.Array.data[34]
      value: 13
      objectReference: {fileID: 0}
    - target: {fileID: 1642604155539115726, guid: 1757ff718342e73438a31d3791444292,
        type: 3}
      propertyPath: fsm.states.Array.data[2].actionData.paramByteDataSize.Array.data[33]
      value: 1
      objectReference: {fileID: 0}
    - target: {fileID: 1642604155539115726, guid: 1757ff718342e73438a31d3791444292,
        type: 3}
      propertyPath: fsm.states.Array.data[2].actionData.paramByteDataSize.Array.data[34]
      value: 1
      objectReference: {fileID: 0}
    - target: {fileID: 1642604155539115726, guid: 1757ff718342e73438a31d3791444292,
        type: 3}
      propertyPath: fsm.states.Array.data[2].actionData.actionNames.Array.data[7]
      value: HutongGames.PlayMaker.Actions.ActivateGameObject
      objectReference: {fileID: 0}
    - target: {fileID: 1642604155539115726, guid: 1757ff718342e73438a31d3791444292,
        type: 3}
      propertyPath: fsm.states.Array.data[2].actionData.actionEnabled.Array.data[7]
      value: 1
      objectReference: {fileID: 0}
    - target: {fileID: 1642604155539115726, guid: 1757ff718342e73438a31d3791444292,
        type: 3}
      propertyPath: fsm.states.Array.data[2].actionData.actionIsOpen.Array.data[7]
      value: 1
      objectReference: {fileID: 0}
    - target: {fileID: 1642604155539115726, guid: 1757ff718342e73438a31d3791444292,
        type: 3}
      propertyPath: fsm.states.Array.data[2].actionData.actionStartIndex.Array.data[7]
      value: 35
      objectReference: {fileID: 0}
    - target: {fileID: 1642604155539115726, guid: 1757ff718342e73438a31d3791444292,
        type: 3}
      propertyPath: fsm.states.Array.data[2].actionData.actionHashCodes.Array.data[7]
      value: 1101746
      objectReference: {fileID: 0}
    - target: {fileID: 1642604155539115726, guid: 1757ff718342e73438a31d3791444292,
        type: 3}
      propertyPath: fsm.states.Array.data[2].actionData.fsmOwnerDefaultParams.Array.data[7].ownerOption
      value: 1
      objectReference: {fileID: 0}
    - target: {fileID: 1642604155539115726, guid: 1757ff718342e73438a31d3791444292,
        type: 3}
      propertyPath: fsm.states.Array.data[2].actionData.fsmOwnerDefaultParams.Array.data[7].gameObject.value
      value: 
      objectReference: {fileID: 0}
    - target: {fileID: 1642604155539115726, guid: 1757ff718342e73438a31d3791444292,
        type: 3}
      propertyPath: fsm.states.Array.data[2].actionData.fsmBoolParams.Array.data[15].value
      value: 1
      objectReference: {fileID: 0}
    - target: {fileID: 1642604155539115726, guid: 1757ff718342e73438a31d3791444292,
        type: 3}
      propertyPath: fsm.states.Array.data[2].actionData.paramDataType.Array.data[35]
      value: 20
      objectReference: {fileID: 0}
    - target: {fileID: 1642604155539115726, guid: 1757ff718342e73438a31d3791444292,
        type: 3}
      propertyPath: fsm.states.Array.data[2].actionData.paramDataType.Array.data[36]
      value: 17
      objectReference: {fileID: 0}
    - target: {fileID: 1642604155539115726, guid: 1757ff718342e73438a31d3791444292,
        type: 3}
      propertyPath: fsm.states.Array.data[2].actionData.paramDataType.Array.data[37]
      value: 17
      objectReference: {fileID: 0}
    - target: {fileID: 1642604155539115726, guid: 1757ff718342e73438a31d3791444292,
        type: 3}
      propertyPath: fsm.states.Array.data[2].actionData.paramDataType.Array.data[38]
      value: 1
      objectReference: {fileID: 0}
    - target: {fileID: 1642604155539115726, guid: 1757ff718342e73438a31d3791444292,
        type: 3}
      propertyPath: fsm.states.Array.data[2].actionData.paramDataType.Array.data[39]
      value: 1
      objectReference: {fileID: 0}
    - target: {fileID: 1642604155539115726, guid: 1757ff718342e73438a31d3791444292,
        type: 3}
      propertyPath: fsm.states.Array.data[2].actionData.paramName.Array.data[35]
      value: gameObject
      objectReference: {fileID: 0}
    - target: {fileID: 1642604155539115726, guid: 1757ff718342e73438a31d3791444292,
        type: 3}
      propertyPath: fsm.states.Array.data[2].actionData.paramName.Array.data[36]
      value: activate
      objectReference: {fileID: 0}
    - target: {fileID: 1642604155539115726, guid: 1757ff718342e73438a31d3791444292,
        type: 3}
      propertyPath: fsm.states.Array.data[2].actionData.paramName.Array.data[37]
      value: recursive
      objectReference: {fileID: 0}
    - target: {fileID: 1642604155539115726, guid: 1757ff718342e73438a31d3791444292,
        type: 3}
      propertyPath: fsm.states.Array.data[2].actionData.paramName.Array.data[38]
      value: resetOnExit
      objectReference: {fileID: 0}
    - target: {fileID: 1642604155539115726, guid: 1757ff718342e73438a31d3791444292,
        type: 3}
      propertyPath: fsm.states.Array.data[2].actionData.paramName.Array.data[39]
      value: everyFrame
      objectReference: {fileID: 0}
    - target: {fileID: 1642604155539115726, guid: 1757ff718342e73438a31d3791444292,
        type: 3}
      propertyPath: fsm.states.Array.data[2].actionData.paramDataPos.Array.data[35]
      value: 7
      objectReference: {fileID: 0}
    - target: {fileID: 1642604155539115726, guid: 1757ff718342e73438a31d3791444292,
        type: 3}
      propertyPath: fsm.states.Array.data[2].actionData.paramDataPos.Array.data[36]
      value: 14
      objectReference: {fileID: 0}
    - target: {fileID: 1642604155539115726, guid: 1757ff718342e73438a31d3791444292,
        type: 3}
      propertyPath: fsm.states.Array.data[2].actionData.paramDataPos.Array.data[37]
      value: 15
      objectReference: {fileID: 0}
    - target: {fileID: 1642604155539115726, guid: 1757ff718342e73438a31d3791444292,
        type: 3}
      propertyPath: fsm.states.Array.data[2].actionData.paramDataPos.Array.data[38]
      value: 14
      objectReference: {fileID: 0}
    - target: {fileID: 1642604155539115726, guid: 1757ff718342e73438a31d3791444292,
        type: 3}
      propertyPath: fsm.states.Array.data[2].actionData.paramDataPos.Array.data[39]
      value: 15
      objectReference: {fileID: 0}
    - target: {fileID: 1642604155539115726, guid: 1757ff718342e73438a31d3791444292,
        type: 3}
      propertyPath: fsm.states.Array.data[2].actionData.paramByteDataSize.Array.data[38]
      value: 1
      objectReference: {fileID: 0}
    - target: {fileID: 1642604155539115726, guid: 1757ff718342e73438a31d3791444292,
        type: 3}
      propertyPath: fsm.states.Array.data[2].actionData.paramByteDataSize.Array.data[39]
      value: 1
      objectReference: {fileID: 0}
    - target: {fileID: 1642604155539115726, guid: 1757ff718342e73438a31d3791444292,
        type: 3}
      propertyPath: fsm.states.Array.data[2].actionData.actionNames.Array.data[8]
      value: HutongGames.PlayMaker.Actions.ActivateGameObject
      objectReference: {fileID: 0}
    - target: {fileID: 1642604155539115726, guid: 1757ff718342e73438a31d3791444292,
        type: 3}
      propertyPath: fsm.states.Array.data[2].actionData.actionEnabled.Array.data[8]
      value: 1
      objectReference: {fileID: 0}
    - target: {fileID: 1642604155539115726, guid: 1757ff718342e73438a31d3791444292,
        type: 3}
      propertyPath: fsm.states.Array.data[2].actionData.actionIsOpen.Array.data[8]
      value: 1
      objectReference: {fileID: 0}
    - target: {fileID: 1642604155539115726, guid: 1757ff718342e73438a31d3791444292,
        type: 3}
      propertyPath: fsm.states.Array.data[2].actionData.actionStartIndex.Array.data[8]
      value: 40
      objectReference: {fileID: 0}
    - target: {fileID: 1642604155539115726, guid: 1757ff718342e73438a31d3791444292,
        type: 3}
      propertyPath: fsm.states.Array.data[2].actionData.actionHashCodes.Array.data[8]
      value: 1101746
      objectReference: {fileID: 0}
    - target: {fileID: 1642604155539115726, guid: 1757ff718342e73438a31d3791444292,
        type: 3}
      propertyPath: fsm.states.Array.data[2].actionData.fsmOwnerDefaultParams.Array.data[8].ownerOption
      value: 1
      objectReference: {fileID: 0}
    - target: {fileID: 1642604155539115726, guid: 1757ff718342e73438a31d3791444292,
        type: 3}
      propertyPath: fsm.states.Array.data[2].actionData.fsmOwnerDefaultParams.Array.data[8].gameObject.value
      value: 
      objectReference: {fileID: 0}
    - target: {fileID: 1642604155539115726, guid: 1757ff718342e73438a31d3791444292,
        type: 3}
      propertyPath: fsm.states.Array.data[2].actionData.fsmBoolParams.Array.data[17].value
      value: 1
      objectReference: {fileID: 0}
    - target: {fileID: 1642604155539115726, guid: 1757ff718342e73438a31d3791444292,
        type: 3}
      propertyPath: fsm.states.Array.data[2].actionData.paramDataType.Array.data[40]
      value: 20
      objectReference: {fileID: 0}
    - target: {fileID: 1642604155539115726, guid: 1757ff718342e73438a31d3791444292,
        type: 3}
      propertyPath: fsm.states.Array.data[2].actionData.paramDataType.Array.data[41]
      value: 17
      objectReference: {fileID: 0}
    - target: {fileID: 1642604155539115726, guid: 1757ff718342e73438a31d3791444292,
        type: 3}
      propertyPath: fsm.states.Array.data[2].actionData.paramDataType.Array.data[42]
      value: 17
      objectReference: {fileID: 0}
    - target: {fileID: 1642604155539115726, guid: 1757ff718342e73438a31d3791444292,
        type: 3}
      propertyPath: fsm.states.Array.data[2].actionData.paramDataType.Array.data[43]
      value: 1
      objectReference: {fileID: 0}
    - target: {fileID: 1642604155539115726, guid: 1757ff718342e73438a31d3791444292,
        type: 3}
      propertyPath: fsm.states.Array.data[2].actionData.paramDataType.Array.data[44]
      value: 1
      objectReference: {fileID: 0}
    - target: {fileID: 1642604155539115726, guid: 1757ff718342e73438a31d3791444292,
        type: 3}
      propertyPath: fsm.states.Array.data[2].actionData.paramName.Array.data[40]
      value: gameObject
      objectReference: {fileID: 0}
    - target: {fileID: 1642604155539115726, guid: 1757ff718342e73438a31d3791444292,
        type: 3}
      propertyPath: fsm.states.Array.data[2].actionData.paramName.Array.data[41]
      value: activate
      objectReference: {fileID: 0}
    - target: {fileID: 1642604155539115726, guid: 1757ff718342e73438a31d3791444292,
        type: 3}
      propertyPath: fsm.states.Array.data[2].actionData.paramName.Array.data[42]
      value: recursive
      objectReference: {fileID: 0}
    - target: {fileID: 1642604155539115726, guid: 1757ff718342e73438a31d3791444292,
        type: 3}
      propertyPath: fsm.states.Array.data[2].actionData.paramName.Array.data[43]
      value: resetOnExit
      objectReference: {fileID: 0}
    - target: {fileID: 1642604155539115726, guid: 1757ff718342e73438a31d3791444292,
        type: 3}
      propertyPath: fsm.states.Array.data[2].actionData.paramName.Array.data[44]
      value: everyFrame
      objectReference: {fileID: 0}
    - target: {fileID: 1642604155539115726, guid: 1757ff718342e73438a31d3791444292,
        type: 3}
      propertyPath: fsm.states.Array.data[2].actionData.paramDataPos.Array.data[40]
      value: 8
      objectReference: {fileID: 0}
    - target: {fileID: 1642604155539115726, guid: 1757ff718342e73438a31d3791444292,
        type: 3}
      propertyPath: fsm.states.Array.data[2].actionData.paramDataPos.Array.data[41]
      value: 16
      objectReference: {fileID: 0}
    - target: {fileID: 1642604155539115726, guid: 1757ff718342e73438a31d3791444292,
        type: 3}
      propertyPath: fsm.states.Array.data[2].actionData.paramDataPos.Array.data[42]
      value: 17
      objectReference: {fileID: 0}
    - target: {fileID: 1642604155539115726, guid: 1757ff718342e73438a31d3791444292,
        type: 3}
      propertyPath: fsm.states.Array.data[2].actionData.paramDataPos.Array.data[43]
      value: 16
      objectReference: {fileID: 0}
    - target: {fileID: 1642604155539115726, guid: 1757ff718342e73438a31d3791444292,
        type: 3}
      propertyPath: fsm.states.Array.data[2].actionData.paramDataPos.Array.data[44]
      value: 17
      objectReference: {fileID: 0}
    - target: {fileID: 1642604155539115726, guid: 1757ff718342e73438a31d3791444292,
        type: 3}
      propertyPath: fsm.states.Array.data[2].actionData.paramByteDataSize.Array.data[43]
      value: 1
      objectReference: {fileID: 0}
    - target: {fileID: 1642604155539115726, guid: 1757ff718342e73438a31d3791444292,
        type: 3}
      propertyPath: fsm.states.Array.data[2].actionData.paramByteDataSize.Array.data[44]
      value: 1
      objectReference: {fileID: 0}
    - target: {fileID: 1642604155539115726, guid: 1757ff718342e73438a31d3791444292,
        type: 3}
      propertyPath: fsm.states.Array.data[2].actionData.actionNames.Array.data[9]
      value: HutongGames.PlayMaker.Actions.NextFrameEvent
      objectReference: {fileID: 0}
    - target: {fileID: 1642604155539115726, guid: 1757ff718342e73438a31d3791444292,
        type: 3}
      propertyPath: fsm.states.Array.data[2].actionData.actionEnabled.Array.data[9]
      value: 1
      objectReference: {fileID: 0}
    - target: {fileID: 1642604155539115726, guid: 1757ff718342e73438a31d3791444292,
        type: 3}
      propertyPath: fsm.states.Array.data[2].actionData.actionIsOpen.Array.data[9]
      value: 1
      objectReference: {fileID: 0}
    - target: {fileID: 1642604155539115726, guid: 1757ff718342e73438a31d3791444292,
        type: 3}
      propertyPath: fsm.states.Array.data[2].actionData.actionStartIndex.Array.data[9]
      value: 45
      objectReference: {fileID: 0}
    - target: {fileID: 1642604155539115726, guid: 1757ff718342e73438a31d3791444292,
        type: 3}
      propertyPath: fsm.states.Array.data[2].actionData.actionHashCodes.Array.data[9]
      value: 68575624
      objectReference: {fileID: 0}
    - target: {fileID: 1642604155539115726, guid: 1757ff718342e73438a31d3791444292,
        type: 3}
      propertyPath: fsm.states.Array.data[2].actionData.paramDataType.Array.data[45]
      value: 23
      objectReference: {fileID: 0}
    - target: {fileID: 1642604155539115726, guid: 1757ff718342e73438a31d3791444292,
        type: 3}
      propertyPath: fsm.states.Array.data[2].actionData.paramName.Array.data[45]
      value: sendEvent
      objectReference: {fileID: 0}
    - target: {fileID: 1642604155539115726, guid: 1757ff718342e73438a31d3791444292,
        type: 3}
      propertyPath: fsm.states.Array.data[2].actionData.paramDataPos.Array.data[3]
      value: 0
      objectReference: {fileID: 0}
    - target: {fileID: 1642604155539115726, guid: 1757ff718342e73438a31d3791444292,
        type: 3}
      propertyPath: fsm.states.Array.data[2].actionData.paramDataPos.Array.data[45]
      value: 0
      objectReference: {fileID: 0}
    - target: {fileID: 1642604155539115726, guid: 1757ff718342e73438a31d3791444292,
        type: 3}
      propertyPath: fsm.states.Array.data[2].actionData.paramByteDataSize.Array.data[5]
      value: 0
      objectReference: {fileID: 0}
    - target: {fileID: 1642604155539115726, guid: 1757ff718342e73438a31d3791444292,
        type: 3}
      propertyPath: fsm.states.Array.data[2].actionData.paramByteDataSize.Array.data[10]
      value: 0
      objectReference: {fileID: 0}
    - target: {fileID: 1642604155539115726, guid: 1757ff718342e73438a31d3791444292,
        type: 3}
      propertyPath: fsm.states.Array.data[2].actionData.paramByteDataSize.Array.data[15]
      value: 0
      objectReference: {fileID: 0}
    - target: {fileID: 1642604155539115726, guid: 1757ff718342e73438a31d3791444292,
        type: 3}
      propertyPath: fsm.states.Array.data[2].actionData.paramByteDataSize.Array.data[20]
      value: 0
      objectReference: {fileID: 0}
    - target: {fileID: 1642604155539115726, guid: 1757ff718342e73438a31d3791444292,
        type: 3}
      propertyPath: fsm.states.Array.data[2].actionData.paramByteDataSize.Array.data[25]
      value: 0
      objectReference: {fileID: 0}
    - target: {fileID: 1642604155539115726, guid: 1757ff718342e73438a31d3791444292,
        type: 3}
      propertyPath: fsm.states.Array.data[2].actionData.paramByteDataSize.Array.data[30]
      value: 0
      objectReference: {fileID: 0}
    - target: {fileID: 1642604155539115726, guid: 1757ff718342e73438a31d3791444292,
        type: 3}
      propertyPath: fsm.states.Array.data[2].actionData.paramByteDataSize.Array.data[35]
      value: 0
      objectReference: {fileID: 0}
    - target: {fileID: 1642604155539115726, guid: 1757ff718342e73438a31d3791444292,
        type: 3}
      propertyPath: fsm.states.Array.data[2].actionData.paramByteDataSize.Array.data[40]
      value: 0
      objectReference: {fileID: 0}
    - target: {fileID: 1642604155539115726, guid: 1757ff718342e73438a31d3791444292,
        type: 3}
      propertyPath: fsm.states.Array.data[2].actionData.paramByteDataSize.Array.data[45]
      value: 0
      objectReference: {fileID: 0}
    - target: {fileID: 1642604155539115726, guid: 1757ff718342e73438a31d3791444292,
        type: 3}
      propertyPath: fsm.states.Array.data[3].name
      value: State 4
      objectReference: {fileID: 0}
    - target: {fileID: 1642604155539115726, guid: 1757ff718342e73438a31d3791444292,
        type: 3}
      propertyPath: fsm.states.Array.data[3].position.x
      value: 646
      objectReference: {fileID: 0}
    - target: {fileID: 1642604155539115726, guid: 1757ff718342e73438a31d3791444292,
        type: 3}
      propertyPath: fsm.states.Array.data[3].position.y
      value: 131
      objectReference: {fileID: 0}
    - target: {fileID: 1642604155539115726, guid: 1757ff718342e73438a31d3791444292,
        type: 3}
      propertyPath: fsm.states.Array.data[3].position.width
      value: 100
      objectReference: {fileID: 0}
    - target: {fileID: 1642604155539115726, guid: 1757ff718342e73438a31d3791444292,
        type: 3}
      propertyPath: fsm.states.Array.data[3].position.height
      value: 16
      objectReference: {fileID: 0}
    - target: {fileID: 1642604155539115726, guid: 1757ff718342e73438a31d3791444292,
        type: 3}
      propertyPath: fsm.states.Array.data[2].actionData.stringParams.Array.data[0]
      value: next
      objectReference: {fileID: 0}
    - target: {fileID: 1642604155539115726, guid: 1757ff718342e73438a31d3791444292,
        type: 3}
      propertyPath: fsm.states.Array.data[2].position.height
      value: 32
      objectReference: {fileID: 0}
    - target: {fileID: 1642604155539115726, guid: 1757ff718342e73438a31d3791444292,
        type: 3}
      propertyPath: fsm.states.Array.data[2].transitions.Array.data[0].fsmEvent.name
      value: next
      objectReference: {fileID: 0}
    - target: {fileID: 1642604155539115726, guid: 1757ff718342e73438a31d3791444292,
        type: 3}
      propertyPath: fsm.states.Array.data[2].transitions.Array.data[0].toState
      value: State 4
      objectReference: {fileID: 0}
    - target: {fileID: 1642604155539115726, guid: 1757ff718342e73438a31d3791444292,
        type: 3}
      propertyPath: fsm.states.Array.data[3].actionData.actionNames.Array.data[0]
      value: HutongGames.PlayMaker.Actions.DestroySelf
      objectReference: {fileID: 0}
    - target: {fileID: 1642604155539115726, guid: 1757ff718342e73438a31d3791444292,
        type: 3}
      propertyPath: fsm.states.Array.data[3].actionData.actionEnabled.Array.data[0]
      value: 1
      objectReference: {fileID: 0}
    - target: {fileID: 1642604155539115726, guid: 1757ff718342e73438a31d3791444292,
        type: 3}
      propertyPath: fsm.states.Array.data[3].actionData.actionIsOpen.Array.data[0]
      value: 1
      objectReference: {fileID: 0}
    - target: {fileID: 1642604155539115726, guid: 1757ff718342e73438a31d3791444292,
        type: 3}
      propertyPath: fsm.states.Array.data[3].actionData.actionHashCodes.Array.data[0]
      value: 55769442
      objectReference: {fileID: 0}
    - target: {fileID: 1642604155539115726, guid: 1757ff718342e73438a31d3791444292,
        type: 3}
      propertyPath: fsm.states.Array.data[3].actionData.paramDataType.Array.data[0]
      value: 17
      objectReference: {fileID: 0}
    - target: {fileID: 1642604155539115726, guid: 1757ff718342e73438a31d3791444292,
        type: 3}
      propertyPath: fsm.states.Array.data[3].actionData.paramName.Array.data[0]
      value: detachChildren
      objectReference: {fileID: 0}
    - target: {fileID: 1642604155539115726, guid: 1757ff718342e73438a31d3791444292,
        type: 3}
      propertyPath: fsm.states.Array.data[2].actionData.fsmBoolParams.Array.data[4].value
      value: 0
      objectReference: {fileID: 0}
    - target: {fileID: 1642604155539115726, guid: 1757ff718342e73438a31d3791444292,
        type: 3}
      propertyPath: fsm.states.Array.data[2].actionData.fsmBoolParams.Array.data[10].value
      value: 0
      objectReference: {fileID: 0}
    - target: {fileID: 1642604155539115726, guid: 1757ff718342e73438a31d3791444292,
        type: 3}
      propertyPath: fsm.states.Array.data[2].actionData.fsmBoolParams.Array.data[12].value
      value: 0
      objectReference: {fileID: 0}
    - target: {fileID: 1642604155539115726, guid: 1757ff718342e73438a31d3791444292,
        type: 3}
      propertyPath: fsm.states.Array.data[2].actionData.fsmBoolParams.Array.data[14].value
      value: 0
      objectReference: {fileID: 0}
    - target: {fileID: 1642604155539115726, guid: 1757ff718342e73438a31d3791444292,
        type: 3}
      propertyPath: fsm.states.Array.data[2].actionData.fsmBoolParams.Array.data[16].value
      value: 1
      objectReference: {fileID: 0}
    - target: {fileID: 2342397064019151984, guid: 1757ff718342e73438a31d3791444292,
        type: 3}
      propertyPath: m_Name
      value: Swordpickup
      objectReference: {fileID: 0}
    - target: {fileID: 1646774165708045923, guid: 1757ff718342e73438a31d3791444292,
        type: 3}
      propertyPath: m_LocalPosition.x
      value: 7.11
      objectReference: {fileID: 0}
    - target: {fileID: 1646774165708045923, guid: 1757ff718342e73438a31d3791444292,
        type: 3}
      propertyPath: m_LocalPosition.y
      value: 0.56
      objectReference: {fileID: 0}
    - target: {fileID: 1646774165708045923, guid: 1757ff718342e73438a31d3791444292,
        type: 3}
      propertyPath: m_LocalPosition.z
      value: -21.02
      objectReference: {fileID: 0}
    - target: {fileID: 1646774165708045923, guid: 1757ff718342e73438a31d3791444292,
        type: 3}
      propertyPath: m_LocalRotation.x
      value: 0
      objectReference: {fileID: 0}
    - target: {fileID: 1646774165708045923, guid: 1757ff718342e73438a31d3791444292,
        type: 3}
      propertyPath: m_LocalRotation.y
      value: 0
      objectReference: {fileID: 0}
    - target: {fileID: 1646774165708045923, guid: 1757ff718342e73438a31d3791444292,
        type: 3}
      propertyPath: m_LocalRotation.z
      value: 0
      objectReference: {fileID: 0}
    - target: {fileID: 1646774165708045923, guid: 1757ff718342e73438a31d3791444292,
        type: 3}
      propertyPath: m_LocalRotation.w
      value: 1
      objectReference: {fileID: 0}
    - target: {fileID: 1646774165708045923, guid: 1757ff718342e73438a31d3791444292,
        type: 3}
      propertyPath: m_RootOrder
      value: 0
      objectReference: {fileID: 0}
    - target: {fileID: 1646774165708045923, guid: 1757ff718342e73438a31d3791444292,
        type: 3}
      propertyPath: m_LocalEulerAnglesHint.x
      value: 0
      objectReference: {fileID: 0}
    - target: {fileID: 1646774165708045923, guid: 1757ff718342e73438a31d3791444292,
        type: 3}
      propertyPath: m_LocalEulerAnglesHint.y
      value: 0
      objectReference: {fileID: 0}
    - target: {fileID: 1646774165708045923, guid: 1757ff718342e73438a31d3791444292,
        type: 3}
      propertyPath: m_LocalEulerAnglesHint.z
      value: 0
      objectReference: {fileID: 0}
    - target: {fileID: 4104481223317670074, guid: 1757ff718342e73438a31d3791444292,
        type: 3}
      propertyPath: m_IsActive
      value: 0
      objectReference: {fileID: 0}
    - target: {fileID: 1373335607032391773, guid: 1757ff718342e73438a31d3791444292,
        type: 3}
      propertyPath: m_IsActive
      value: 0
      objectReference: {fileID: 0}
    - target: {fileID: 1084810965032307709, guid: 1757ff718342e73438a31d3791444292,
        type: 3}
      propertyPath: m_IsActive
      value: 0
      objectReference: {fileID: 0}
    - target: {fileID: 5883015839104711578, guid: 1757ff718342e73438a31d3791444292,
        type: 3}
      propertyPath: m_IsActive
      value: 0
      objectReference: {fileID: 0}
    m_RemovedComponents: []
  m_SourcePrefab: {fileID: 100100000, guid: 1757ff718342e73438a31d3791444292, type: 3}
--- !u!4 &2382484942164921311 stripped
Transform:
  m_CorrespondingSourceObject: {fileID: 1646774165708045923, guid: 1757ff718342e73438a31d3791444292,
    type: 3}
  m_PrefabInstance: {fileID: 4020251079007827388}
  m_PrefabAsset: {fileID: 0}
--- !u!1001 &4020251079010538977
PrefabInstance:
  m_ObjectHideFlags: 0
  serializedVersion: 2
  m_Modification:
    m_TransformParent: {fileID: 2382484942164921311}
    m_Modifications:
    - target: {fileID: 2967618564829757686, guid: 683155c4306a70040bbe97643b86641b,
        type: 3}
      propertyPath: m_Name
      value: Sword
      objectReference: {fileID: 0}
    - target: {fileID: 2266507450270003941, guid: 683155c4306a70040bbe97643b86641b,
        type: 3}
      propertyPath: m_LocalPosition.x
      value: 0.0029997826
      objectReference: {fileID: 0}
    - target: {fileID: 2266507450270003941, guid: 683155c4306a70040bbe97643b86641b,
        type: 3}
      propertyPath: m_LocalPosition.y
      value: -0.36565912
      objectReference: {fileID: 0}
    - target: {fileID: 2266507450270003941, guid: 683155c4306a70040bbe97643b86641b,
        type: 3}
      propertyPath: m_LocalPosition.z
      value: 0.023263931
      objectReference: {fileID: 0}
    - target: {fileID: 2266507450270003941, guid: 683155c4306a70040bbe97643b86641b,
        type: 3}
      propertyPath: m_LocalRotation.x
      value: -0
      objectReference: {fileID: 0}
    - target: {fileID: 2266507450270003941, guid: 683155c4306a70040bbe97643b86641b,
        type: 3}
      propertyPath: m_LocalRotation.y
      value: -0
      objectReference: {fileID: 0}
    - target: {fileID: 2266507450270003941, guid: 683155c4306a70040bbe97643b86641b,
        type: 3}
      propertyPath: m_LocalRotation.z
      value: -0
      objectReference: {fileID: 0}
    - target: {fileID: 2266507450270003941, guid: 683155c4306a70040bbe97643b86641b,
        type: 3}
      propertyPath: m_LocalRotation.w
      value: 1
      objectReference: {fileID: 0}
    - target: {fileID: 2266507450270003941, guid: 683155c4306a70040bbe97643b86641b,
        type: 3}
      propertyPath: m_RootOrder
      value: 5
      objectReference: {fileID: 0}
    - target: {fileID: 2266507450270003941, guid: 683155c4306a70040bbe97643b86641b,
        type: 3}
      propertyPath: m_LocalEulerAnglesHint.x
      value: 0
      objectReference: {fileID: 0}
    - target: {fileID: 2266507450270003941, guid: 683155c4306a70040bbe97643b86641b,
        type: 3}
      propertyPath: m_LocalEulerAnglesHint.y
      value: 0
      objectReference: {fileID: 0}
    - target: {fileID: 2266507450270003941, guid: 683155c4306a70040bbe97643b86641b,
        type: 3}
      propertyPath: m_LocalEulerAnglesHint.z
      value: 0
      objectReference: {fileID: 0}
    m_RemovedComponents: []
  m_SourcePrefab: {fileID: 100100000, guid: 683155c4306a70040bbe97643b86641b, type: 3}
