%YAML 1.1
%TAG !u! tag:unity3d.com,2011:
--- !u!1 &1813498305533057571
GameObject:
  m_ObjectHideFlags: 0
  m_CorrespondingSourceObject: {fileID: 0}
  m_PrefabInstance: {fileID: 0}
  m_PrefabAsset: {fileID: 0}
  serializedVersion: 6
  m_Component:
  - component: {fileID: 4533724878565647497}
  m_Layer: 0
  m_Name: Large_L
  m_TagString: Untagged
  m_Icon: {fileID: 0}
  m_NavMeshLayer: 0
  m_StaticEditorFlags: 0
  m_IsActive: 1
--- !u!4 &4533724878565647497
Transform:
  m_ObjectHideFlags: 0
  m_CorrespondingSourceObject: {fileID: 0}
  m_PrefabInstance: {fileID: 0}
  m_PrefabAsset: {fileID: 0}
  m_GameObject: {fileID: 1813498305533057571}
  m_LocalRotation: {x: 0, y: 0, z: 0, w: 1}
  m_LocalPosition: {x: 0, y: 0, z: 0}
  m_LocalScale: {x: 0.16666667, y: 0.16666667, z: 0.16666667}
  m_Children:
  - {fileID: 4264213403654133383}
  - {fileID: 9146377424339475218}
  m_Father: {fileID: 0}
  m_RootOrder: 0
  m_LocalEulerAnglesHint: {x: 0, y: 0, z: 0}
--- !u!1001 &2260707471411720670
PrefabInstance:
  m_ObjectHideFlags: 0
  serializedVersion: 2
  m_Modification:
    m_TransformParent: {fileID: 4533724878565647497}
    m_Modifications:
    - target: {fileID: 1308713300854592842, guid: 213c443948c0267448c78fe00f55756a,
        type: 3}
      propertyPath: m_Name
      value: Modular_Interior_Wall_S
      objectReference: {fileID: 0}
    - target: {fileID: 2626198954187073369, guid: 213c443948c0267448c78fe00f55756a,
        type: 3}
      propertyPath: m_LocalPosition.x
      value: 17.756
      objectReference: {fileID: 0}
    - target: {fileID: 2626198954187073369, guid: 213c443948c0267448c78fe00f55756a,
        type: 3}
      propertyPath: m_LocalPosition.y
      value: 0.07
      objectReference: {fileID: 0}
    - target: {fileID: 2626198954187073369, guid: 213c443948c0267448c78fe00f55756a,
        type: 3}
      propertyPath: m_LocalPosition.z
      value: -27.929
      objectReference: {fileID: 0}
    - target: {fileID: 2626198954187073369, guid: 213c443948c0267448c78fe00f55756a,
        type: 3}
      propertyPath: m_LocalRotation.x
      value: -0
      objectReference: {fileID: 0}
    - target: {fileID: 2626198954187073369, guid: 213c443948c0267448c78fe00f55756a,
        type: 3}
      propertyPath: m_LocalRotation.y
      value: 0.70704305
      objectReference: {fileID: 0}
    - target: {fileID: 2626198954187073369, guid: 213c443948c0267448c78fe00f55756a,
        type: 3}
      propertyPath: m_LocalRotation.z
      value: -0
      objectReference: {fileID: 0}
    - target: {fileID: 2626198954187073369, guid: 213c443948c0267448c78fe00f55756a,
        type: 3}
      propertyPath: m_LocalRotation.w
      value: 0.70717055
      objectReference: {fileID: 0}
    - target: {fileID: 2626198954187073369, guid: 213c443948c0267448c78fe00f55756a,
        type: 3}
      propertyPath: m_RootOrder
      value: 0
      objectReference: {fileID: 0}
    - target: {fileID: 2626198954187073369, guid: 213c443948c0267448c78fe00f55756a,
        type: 3}
      propertyPath: m_LocalEulerAnglesHint.x
      value: 0
      objectReference: {fileID: 0}
    - target: {fileID: 2626198954187073369, guid: 213c443948c0267448c78fe00f55756a,
        type: 3}
      propertyPath: m_LocalEulerAnglesHint.y
      value: 89.990005
      objectReference: {fileID: 0}
    - target: {fileID: 2626198954187073369, guid: 213c443948c0267448c78fe00f55756a,
        type: 3}
      propertyPath: m_LocalEulerAnglesHint.z
      value: 0
      objectReference: {fileID: 0}
    m_RemovedComponents: []
  m_SourcePrefab: {fileID: 100100000, guid: 213c443948c0267448c78fe00f55756a, type: 3}
--- !u!4 &4264213403654133383 stripped
Transform:
  m_CorrespondingSourceObject: {fileID: 2626198954187073369, guid: 213c443948c0267448c78fe00f55756a,
    type: 3}
  m_PrefabInstance: {fileID: 2260707471411720670}
  m_PrefabAsset: {fileID: 0}
--- !u!1001 &6875838100002353412
PrefabInstance:
  m_ObjectHideFlags: 0
  serializedVersion: 2
  m_Modification:
    m_TransformParent: {fileID: 4533724878565647497}
    m_Modifications:
    - target: {fileID: 1720038900686280709, guid: 30197f57cdc5d5c4f9bd7ff098c54b4e,
        type: 3}
      propertyPath: m_Name
      value: Modular_Interior_Wall_XL
      objectReference: {fileID: 0}
    - target: {fileID: 2415503474458667542, guid: 30197f57cdc5d5c4f9bd7ff098c54b4e,
        type: 3}
      propertyPath: m_LocalPosition.x
      value: -0.56
      objectReference: {fileID: 0}
    - target: {fileID: 2415503474458667542, guid: 30197f57cdc5d5c4f9bd7ff098c54b4e,
        type: 3}
      propertyPath: m_LocalPosition.y
      value: 0.07
      objectReference: {fileID: 0}
    - target: {fileID: 2415503474458667542, guid: 30197f57cdc5d5c4f9bd7ff098c54b4e,
        type: 3}
      propertyPath: m_LocalPosition.z
      value: -0.93
      objectReference: {fileID: 0}
    - target: {fileID: 2415503474458667542, guid: 30197f57cdc5d5c4f9bd7ff098c54b4e,
        type: 3}
      propertyPath: m_LocalRotation.x
      value: -0
      objectReference: {fileID: 0}
    - target: {fileID: 2415503474458667542, guid: 30197f57cdc5d5c4f9bd7ff098c54b4e,
        type: 3}
      propertyPath: m_LocalRotation.y
      value: -0
      objectReference: {fileID: 0}
    - target: {fileID: 2415503474458667542, guid: 30197f57cdc5d5c4f9bd7ff098c54b4e,
        type: 3}
      propertyPath: m_LocalRotation.z
      value: -0
      objectReference: {fileID: 0}
    - target: {fileID: 2415503474458667542, guid: 30197f57cdc5d5c4f9bd7ff098c54b4e,
        type: 3}
      propertyPath: m_LocalRotation.w
      value: 1
      objectReference: {fileID: 0}
    - target: {fileID: 2415503474458667542, guid: 30197f57cdc5d5c4f9bd7ff098c54b4e,
        type: 3}
      propertyPath: m_RootOrder
      value: 1
      objectReference: {fileID: 0}
    - target: {fileID: 2415503474458667542, guid: 30197f57cdc5d5c4f9bd7ff098c54b4e,
        type: 3}
      propertyPath: m_LocalEulerAnglesHint.x
      value: 0
      objectReference: {fileID: 0}
    - target: {fileID: 2415503474458667542, guid: 30197f57cdc5d5c4f9bd7ff098c54b4e,
        type: 3}
      propertyPath: m_LocalEulerAnglesHint.y
      value: 0
      objectReference: {fileID: 0}
    - target: {fileID: 2415503474458667542, guid: 30197f57cdc5d5c4f9bd7ff098c54b4e,
        type: 3}
      propertyPath: m_LocalEulerAnglesHint.z
      value: 0
      objectReference: {fileID: 0}
    m_RemovedComponents: []
  m_SourcePrefab: {fileID: 100100000, guid: 30197f57cdc5d5c4f9bd7ff098c54b4e, type: 3}
--- !u!4 &9146377424339475218 stripped
Transform:
  m_CorrespondingSourceObject: {fileID: 2415503474458667542, guid: 30197f57cdc5d5c4f9bd7ff098c54b4e,
    type: 3}
  m_PrefabInstance: {fileID: 6875838100002353412}
  m_PrefabAsset: {fileID: 0}
